<?xml version="1.0" encoding="utf-8"?>
<!-- Generator: Adobe Illustrator 19.2.1, SVG Export Plug-In . SVG Version: 6.00 Build 0)  -->
<svg version="1.1" id="Layer_1" xmlns="http://www.w3.org/2000/svg" xmlns:xlink="http://www.w3.org/1999/xlink" x="0px" y="0px"
	 viewBox="0 0 642 627.3" style="enable-background:new 0 0 642 627.3;" xml:space="preserve">
<style type="text/css">
	.st0{opacity:0.7;}
	.st1{fill:#FFFFFF;}
	.st2{opacity:0.5;}
	.st3{fill:none;stroke:#FFFFFF;stroke-width:5;stroke-miterlimit:10;}
</style>
<g id="XMLID_7546_">
	<g id="XMLID_7531_" class="st0">
		<g id="XMLID_7544_">
			<path class="st1" d="M226.9,86.7c-1.3,6.3-2,12.8-2,19.3v111.8H113.2c-6.5,0-13,0.7-19.4,2c-3-4.6-5.7-9.5-7.9-14.6L212.4,78.8
				C217.5,81.1,222.4,83.7,226.9,86.7z"/>
			<path class="st1" d="M174.1,70.9L174.1,70.9c13.3,0,25.9,2.7,37.3,7.5c0.3,0.1,0.6,0.3,0.9,0.4L86,205.2c-5.1-11.7-8-24.6-8-38.2
				v0v-0.1c0-1.9,0-3.7,0.2-5.5c0-1.2,0.1-2.4,0.3-3.6c0.3-3.1,0.7-6.1,1.3-9c0-0.2,0.1-0.4,0.1-0.7c0.1-0.4,0.2-0.9,0.3-1.3
				c0.3-1.2,0.5-2.4,0.8-3.6c0,0,0-0.1,0-0.2c0.1-0.4,0.2-0.7,0.3-1c0-0.2,0.1-0.3,0.1-0.5c0.2-1,0.5-2,0.8-2.9c0.5-1.5,1-3,1.5-4.4
				c13.5-36.5,48.8-62.3,90.2-63.1C174,70.9,174,70.9,174.1,70.9C174.1,70.9,174.1,70.9,174.1,70.9z"/>
		</g>
		<g id="XMLID_7543_">
		</g>
	</g>
	<g id="XMLID_7505_" class="st2">
		<g id="XMLID_7518_">
			<path class="st1" d="M563.9,460.7c0,0,0,0.1,0,0.1c0,1.9,0,3.7-0.2,5.5c0,1.2-0.1,2.4-0.3,3.6c-0.3,3.1-0.7,6.1-1.3,9
				c0,0.2-0.1,0.4-0.1,0.7c-0.1,0.4-0.2,0.9-0.3,1.3c-0.2,1-0.4,2-0.7,2.9c-0.1,0.3-0.2,0.6-0.2,0.9c-0.1,0.4-0.2,0.7-0.3,1
				c0,0.2-0.1,0.3-0.1,0.5c-0.3,1-0.5,2-0.8,2.9c-0.5,1.5-1,3-1.5,4.4c-13.4,36.5-48.7,62.2-90.1,63.1c0,0,0,0-0.1,0
				c0,0-0.1,0-0.1,0c-13.2,0-25.8-2.7-37.3-7.5c-0.3-0.1-0.6-0.3-0.9-0.4l126.4-126.4C561.1,434.2,563.9,447.1,563.9,460.7z"/>
			<path class="st1" d="M563.9,414.5v46.2c0-13.6-2.8-26.5-8-38.2L563.9,414.5z"/>
			<path class="st1" d="M563.9,403.2v11.3l-8,8c-2.2-5.1-4.8-10-7.9-14.6C553.5,406.8,558.8,405.3,563.9,403.2z"/>
			<path class="st1" d="M555.9,422.5L429.6,548.9c-5.1-2.2-10-4.9-14.6-7.9c1.3-6.3,2-12.8,2-19.3V409.9h111.7h0
				c6.4,0,12.9-0.7,19.3-2C551.1,412.5,553.8,417.4,555.9,422.5z"/>
			<path class="st1" d="M467.8,556.8h-46.2l7.9-7.9c0.3,0.1,0.6,0.3,0.9,0.4C441.9,554.1,454.6,556.8,467.8,556.8z"/>
			<path class="st1" d="M429.6,548.9l-7.9,7.9h-11.3c2-5.1,3.6-10.4,4.7-15.8C419.6,544,424.5,546.6,429.6,548.9z"/>
			<path class="st1" d="M417,409.9v111.8c0,6.5-0.7,13-2,19.3c-5.4-3.6-10.5-7.7-15-12.3l-79-79l39.8-39.8H417z"/>
			<path class="st1" d="M388.9,589.5c9.6-9.6,16.7-20.8,21.4-32.7h11.3L388.9,589.5z"/>
			<path class="st1" d="M415,541c-1.1,5.4-2.6,10.7-4.7,15.8H231.6c-2-5.1-3.6-10.5-4.7-15.8c5.4-3.6,10.4-7.7,15-12.3l79.1-79.1
				l79,79C404.5,533.2,409.6,537.4,415,541z"/>
			<polygon class="st1" points="360.8,409.9 321,449.7 281.2,409.9 			"/>
			<path class="st1" d="M357.4,610.5c-34.5,14-75.5,6.7-104.3-20.9l0,0l0,0l0,0c-9.3-9.4-16.3-20.2-21-31.7c-0.1-0.3-0.3-0.7-0.4-1
				h178.8c-4.7,11.9-11.8,23-21.4,32.7c0,0,0,0-0.1,0.1c-1.1,1.1-2.2,2.1-3.3,3.2c-1.2,1.1-2.3,2-3.5,3c-0.2,0.1-0.3,0.3-0.5,0.4
				c-1.2,1-2.5,2-3.8,3c-1.1,0.8-2.2,1.6-3.3,2.3c-0.4,0.4-0.9,0.7-1.4,0.9c-0.8,0.5-1.5,1-2.3,1.5c-0.4,0.3-0.8,0.5-1.3,0.8
				c-0.2,0.1-0.4,0.3-0.7,0.4c-1,0.6-2,1.1-2.9,1.6c-1.4,0.7-2.8,1.4-4.2,2C360.2,609.3,358.8,609.9,357.4,610.5z"/>
			<path class="st1" d="M321,449.7l-79.1,79.1c-4.6,4.6-9.6,8.7-15,12.3c-1.3-6.4-2-12.9-2-19.4V409.9h56.3L321,449.7z"/>
		</g>
		<g id="XMLID_7517_">
		</g>
	</g>
	<g id="XMLID_7326_">
		<g id="XMLID_7475_">
			<path class="st1" d="M563.9,224.4c11.9,4.7,23,11.8,32.7,21.4l0,0l0,0c1.1,1.1,2.1,2.2,3.2,3.3c0.8,0.8,1.6,1.8,2.4,2.7
				c0.6,0.7,1.2,1.4,1.7,2.1c0.8,1,1.6,2,2.4,3c0.7,1,1.4,2,2,3c0.5,0.6,0.9,1.3,1.3,2c0.4,0.6,0.8,1.2,1.1,1.7
				c0.5,0.8,0.9,1.5,1.4,2.3c0.6,0.9,1.1,1.9,1.6,2.9c0,0.1,0.1,0.1,0.1,0.2c18.8,36,12.7,81.5-17.1,112.5c0,0,0,0-0.1,0.1
				c-9.6,9.6-20.8,16.7-32.7,21.4V224.4z"/>
			<path class="st1" d="M563.9,213.2l32.7,32.7c-9.6-9.6-20.8-16.7-32.7-21.4V213.2z"/>
			<path class="st1" d="M563.9,403.2c11.9-4.7,23-11.8,32.7-21.4l-32.7,32.7V403.2z"/>
			<path class="st1" d="M563.9,213.2v11.2c-5.1-2-10.5-3.6-15.8-4.6c3-4.6,5.7-9.5,7.9-14.6L563.9,213.2z"/>
			<path class="st1" d="M548.1,219.8c5.4,1.1,10.7,2.6,15.8,4.6v178.8c-5.1,2-10.5,3.6-15.8,4.7c-3.6-5.4-7.7-10.4-12.3-15
				l-79.1-79.1l79-79C540.3,230.2,544.5,225.2,548.1,219.8z"/>
			<path class="st1" d="M429.6,78.9L556,205.2c-2.2,5.1-4.9,10-7.9,14.6c-6.3-1.3-12.8-2-19.3-2H417V106.1v0c0-6.5-0.7-13-2-19.3
				C419.6,83.7,424.5,81,429.6,78.9z"/>
			<path class="st1" d="M535.8,392.9c4.6,4.6,8.7,9.6,12.3,15c-6.3,1.3-12.8,2-19.3,2h0H417v-56.3l39.8-39.8L535.8,392.9z"/>
			<path class="st1" d="M528.8,217.8c6.5,0,13,0.7,19.3,2c-3.6,5.4-7.7,10.4-12.3,15l-79,79L417,274v-56.2H528.8z"/>
			<polygon class="st1" points="456.8,313.8 417,353.6 417,274 			"/>
			<polygon class="st1" points="417,353.6 417,409.9 360.7,409.9 			"/>
			<polygon class="st1" points="417,274 417,353.6 360.7,409.9 281.2,409.9 224.9,353.6 224.9,274.1 281.2,217.8 360.7,217.8 			"/>
			<polygon class="st1" points="417,217.8 417,274 360.7,217.8 			"/>
			<path class="st1" d="M417,106.1v111.7h-56.3L320.9,178L400,99c4.6-4.6,9.6-8.7,15-12.3C416.3,93.1,417,99.5,417,106.1L417,106.1z
				"/>
			<polygon class="st1" points="320.9,178 360.7,217.8 281.2,217.8 			"/>
			<polygon class="st1" points="281.2,409.9 224.9,409.9 224.9,353.6 			"/>
			<path class="st1" d="M224.9,353.6v56.2H113.1c-6.5,0-12.9-0.7-19.3-2c3.6-5.4,7.7-10.5,12.3-15l79-79L224.9,353.6z"/>
			<polygon class="st1" points="224.9,274.1 224.9,353.6 185.1,313.9 			"/>
		</g>
		<g id="XMLID_7338_">
			<path class="st3" d="M491,73.7c-1-0.3-2-0.5-2.9-0.7"/>
			<path class="st3" d="M492.9,74.2c-0.4-0.1-0.7-0.2-1-0.3"/>
			<path class="st3" d="M496.4,75.2c-1-0.3-2-0.6-3-0.8"/>
			<path class="st3" d="M500.9,76.7c-0.2,0-0.4-0.1-0.5-0.2"/>
			<path class="st3" d="M509.5,80.3c-1.3-0.6-2.7-1.2-4.1-1.8"/>
			<path class="st3" d="M522.6,88c-1.6-1.1-3.2-2.2-4.9-3.2"/>
			<path class="st3" d="M528.7,92.5c-0.7-0.6-1.4-1.2-2.1-1.6c-1.1-0.9-2.2-1.7-3.3-2.5"/>
			<path class="st3" d="M540.3,103.8c-1.2-1.4-2.4-2.7-3.7-4c-0.4-0.4-0.7-0.7-1-1c-1-1.1-2-2-3.1-3"/>
			<path class="st3" d="M551,118.8c-0.9-1.6-1.9-3.3-3-4.9c-1.1-1.7-2.3-3.3-3.5-5c-1-1.4-2.1-2.8-3.2-4"/>
			<path class="st3" d="M558.1,133.9c-0.5-1.3-1-2.6-1.5-3.9"/>
			<path class="st3" d="M563.3,156.5c-0.1-1.3-0.3-2.6-0.5-3.9"/>
			<path class="st3" d="M563.8,161.9c0-1.4-0.2-2.8-0.3-4.1"/>
			<path class="st3" d="M563.9,166.8c0-1.6,0-3.2-0.1-4.8"/>
			<path class="st3" d="M563.5,469.9c0.1-1.2,0.2-2.4,0.3-3.6"/>
			<path class="st3" d="M561,484.2c0.3-1.1,0.5-2.2,0.8-3.3"/>
			<path class="st3" d="M558.1,493.8c0,0,0-0.1,0-0.1c0.1-0.1,0.1-0.2,0.2-0.4"/>
			<path class="st3" d="M554.5,502.4c0.7-1.3,1.2-2.7,1.8-4.1"/>
			<path class="st3" d="M546.8,515.5c1.2-1.6,2.2-3.2,3.2-4.9"/>
			<path class="st3" d="M542.3,521.6c0.6-0.7,1.1-1.4,1.6-2.1c0.9-1.1,1.7-2.2,2.5-3.3"/>
			<path class="st3" d="M531,533.2c1.4-1.2,2.7-2.4,4-3.7c1.4-1.3,2.7-2.7,4-4.1"/>
			<path class="st3" d="M521,540.8c1.5-1,2.9-2,4.4-3.1"/>
			<path class="st3" d="M505.6,549.1c1.3-0.5,2.7-1.2,4-1.8c1.4-0.7,2.8-1.4,4.1-2.1c0.7-0.4,1.4-0.7,2-1.1c0.4-0.2,0.8-0.4,1.2-0.7
				c1.2-0.7,2.3-1.4,3.5-2.2"/>
			<path class="st3" d="M500.9,551c1.3-0.4,2.6-1,3.9-1.5"/>
			<path class="st3" d="M478.3,556.2c1.3-0.1,2.6-0.3,3.9-0.5"/>
			<path class="st3" d="M472.9,556.7c1.4,0,2.7-0.2,4.1-0.3"/>
			<path class="st3" d="M468,556.8c1.6,0,3.2,0,4.7-0.1"/>
			<path class="st3" d="M78,167c0,13.6,2.8,26.5,8,38.2c2.2,5.1,4.8,10,7.9,14.6c3.6,5.4,7.7,10.4,12.3,15l79.1,79.1l39.8,39.8
				l56.3,56.2l39.8,39.8l79,79c4.6,4.6,9.6,8.7,15,12.3c4.6,3.1,9.5,5.7,14.6,7.9c0.3,0.1,0.6,0.3,0.9,0.4
				c11.5,4.9,24.1,7.5,37.3,7.5"/>
			<path class="st3" d="M79.9,148.1c0,0.2-0.1,0.4-0.1,0.7"/>
			<path class="st3" d="M81,143.1c-0.3,1.2-0.6,2.4-0.8,3.6"/>
			<path class="st3" d="M81.4,141.4c0,0.2-0.1,0.3-0.1,0.5"/>
			<path class="st3" d="M174,70.9c-41.4,0.8-76.7,26.6-90.2,63.1c-0.5,1.5-1,2.9-1.5,4.4"/>
			<polyline class="st3" points="563.9,460.6 563.9,414.5 563.9,403.2 563.9,224.4 563.9,213.2 563.9,167 			"/>
			<path class="st3" d="M468,556.8c1.6,0,3.2,0,4.7-0.1c0,0,0.1,0,0.1,0c1.4,0,2.8-0.2,4.1-0.3c0.4,0,0.9-0.1,1.3-0.1
				c1.3-0.1,2.6-0.3,3.9-0.5c6.5-1,12.7-2.6,18.7-4.7c1.3-0.5,2.6-1,3.9-1.5c0.3-0.1,0.5-0.2,0.8-0.4c1.3-0.6,2.6-1.2,4-1.8
				c1.4-0.7,2.8-1.4,4.1-2.1c1.1-0.6,2.1-1.2,3.2-1.8c1.2-0.7,2.3-1.4,3.5-2.2c0.2-0.1,0.4-0.3,0.7-0.4c1.5-1,2.9-2,4.4-3.1
				c2-1.5,3.8-3,5.6-4.6c1.4-1.2,2.7-2.4,4-3.7c1.4-1.3,2.7-2.7,4-4.1c1.1-1.2,2.2-2.5,3.2-3.8c0.6-0.7,1.2-1.4,1.6-2.1
				c0.9-1.1,1.7-2.2,2.5-3.3c0.1-0.2,0.3-0.4,0.4-0.7c1.1-1.6,2.2-3.2,3.2-4.9c1.6-2.7,3.1-5.4,4.4-8.2c0.6-1.3,1.2-2.7,1.8-4.1
				c0.7-1.5,1.2-3,1.8-4.5c0-0.2,0.1-0.4,0.2-0.5c0.5-1.3,0.9-2.7,1.3-4.1c0.4-1.3,0.8-2.6,1.1-3.9"/>
			<path class="st3" d="M164.9,556.4c1.2,0.1,2.4,0.2,3.6,0.3"/>
			<path class="st3" d="M150.6,553.9c1.1,0.3,2.2,0.5,3.3,0.8"/>
			<path class="st3" d="M141,551c0,0,0.1,0,0.1,0c0.1,0.1,0.2,0.1,0.4,0.2"/>
			<path class="st3" d="M132.4,547.3c1.3,0.6,2.7,1.2,4.1,1.8"/>
			<path class="st3" d="M113.2,535.1c1.1,0.9,2.2,1.8,3.4,2.6c1.2,0.9,2.4,1.8,3.7,2.7"/>
			<path class="st3" d="M100.4,522.4c0.5,0.6,1,1.2,1.5,1.7c0.8,1,1.7,2,2.6,2.9"/>
			<path class="st3" d="M85.7,498.4c1.2,2.8,2.4,5.5,3.9,8.1c0.4,0.7,0.7,1.4,1.1,2c0.3,0.5,0.6,1.1,1,1.6"/>
			<path class="st3" d="M83.8,493.8c0.4,1.3,1,2.6,1.5,3.9"/>
			<path class="st3" d="M78.6,471.2c0.1,1.3,0.3,2.6,0.5,3.9"/>
			<path class="st3" d="M78.1,465.8c0,1.4,0.2,2.7,0.3,4.1"/>
			<path class="st3" d="M78,460.9c0,1.6,0,3.2,0.1,4.7"/>
			<path class="st3" d="M467.8,70.9c-13.6,0-26.5,2.8-38.2,8c-5.1,2.2-10,4.8-14.6,7.9c-5.4,3.6-10.4,7.7-15,12.3L320.9,178
				l-39.8,39.8l-56.2,56.3l-39.8,39.8l-79,79c-4.6,4.5-8.7,9.6-12.3,15c-3.1,4.6-5.7,9.5-7.9,14.6c-0.1,0.3-0.3,0.6-0.4,0.9
				c-4.9,11.5-7.5,24.1-7.5,37.3"/>
			<path class="st3" d="M477,71.3c-1.2-0.1-2.4-0.2-3.6-0.3"/>
			<path class="st3" d="M486.7,72.7c-0.2,0-0.4-0.1-0.7-0.1"/>
			<path class="st3" d="M491.7,73.8c-1.2-0.3-2.4-0.6-3.6-0.8"/>
			<path class="st3" d="M493.4,74.3c-0.2,0-0.3-0.1-0.5-0.1"/>
			<path class="st3" d="M563.9,166.8c-0.8-41.4-26.6-76.7-63.1-90.2c-1.5-0.5-2.9-1-4.4-1.5"/>
			<path class="st3" d="M356,611c1.1-0.4,2.2-0.8,3.2-1.3c1.1-0.4,2.2-0.9,3.2-1.5"/>
			<path class="st3" d="M343.8,614.9c3-0.8,5.9-1.6,8.9-2.7"/>
			<path class="st3" d="M332.6,617c1.6-0.2,3.1-0.4,4.6-0.7c0.6,0,1.2-0.2,1.8-0.3"/>
			<path class="st3" d="M326.8,617.5c1.9-0.1,3.7-0.3,5.6-0.5"/>
			<path class="st3" d="M321.6,617.7c1.7,0,3.4-0.1,5.1-0.2"/>
			<path class="st3" d="M38.7,374.4c0.1,0.2,0.3,0.3,0.4,0.5"/>
			<path class="st3" d="M29.8,361.6c0.4,0.8,0.9,1.6,1.4,2.4"/>
			<path class="st3" d="M24.4,350.4c0.5,1.3,1.1,2.6,1.6,3.8c0.5,1,0.9,2,1.5,3"/>
			<path class="st3" d="M19.8,336.7c0.8,3,1.6,5.9,2.7,8.9"/>
			<path class="st3" d="M17.8,325.4c0.2,1.6,0.4,3.2,0.7,4.8"/>
			<path class="st3" d="M17.3,319.7c0.1,1.9,0.3,3.7,0.5,5.6"/>
			<path class="st3" d="M17.1,313.9c0,1.9,0,3.8,0.2,5.8"/>
			<path class="st3" d="M596.6,245.8c-9.6-9.6-20.8-16.7-32.7-21.4c-5.1-2-10.5-3.6-15.8-4.6c-6.3-1.3-12.8-2-19.3-2H417h-56.3
				h-79.5h-56.2H113.2c-6.5,0-13,0.7-19.4,2c-5.4,1.1-10.7,2.6-15.8,4.7c-0.3,0.1-0.7,0.2-1,0.4c-11.5,4.7-22.3,11.7-31.7,21"/>
			<path class="st3" d="M599.8,249.3c-1-1.1-2-2.2-3.2-3.3"/>
			<path class="st3" d="M608.3,260.1c-0.7-1-1.4-2-2-3"/>
			<path class="st3" d="M596.7,381.7c29.8-31.1,36-76.5,17.1-112.5c0-0.1-0.1-0.1-0.1-0.2"/>
			<path class="st3" d="M174.1,556.8h46.2h11.3h178.8h11.3h46.2c0,0,0.1,0,0.1,0c0,0,0,0,0.1,0c41.4-0.9,76.7-26.6,90.1-63.1
				c0.5-1.5,1-2.9,1.5-4.4c0.4-1.3,0.8-2.6,1.1-3.9c0.1-0.4,0.2-0.8,0.3-1.2c0.3-1.1,0.5-2.2,0.8-3.3c0.8-3.6,1.3-7.2,1.7-11
				c0.1-1.2,0.2-2.4,0.3-3.6c0.1-1.8,0.2-3.6,0.2-5.5c0,0,0-0.1,0-0.1c0-13.6-2.8-26.5-8-38.2c-2.2-5.1-4.8-10-7.9-14.6
				c-3.6-5.4-7.7-10.4-12.3-15l-79.1-79.1L417,274l-56.3-56.2L320.9,178l-79-79c-4.5-4.6-9.6-8.7-15-12.3c-4.6-3-9.5-5.7-14.6-7.9
				c-0.3-0.1-0.6-0.3-0.9-0.4c-11.5-4.8-24.1-7.5-37.3-7.5"/>
			<path class="st3" d="M78,460.9c0,1.6,0,3.2,0.1,4.7c0,0,0,0.1,0,0.1c0.1,1.4,0.2,2.8,0.3,4.1c0,0.4,0.1,0.9,0.1,1.3
				c0.1,1.3,0.3,2.6,0.5,3.9c1,6.5,2.6,12.7,4.7,18.7c0.5,1.3,1,2.6,1.5,3.9c0.1,0.3,0.2,0.5,0.4,0.8c1.2,2.8,2.5,5.5,3.9,8.1
				c0.7,1.2,1.4,2.5,2.1,3.7c2.6,4.3,5.5,8.4,8.7,12.2c0.5,0.6,1,1.2,1.5,1.7c0.8,1,1.7,2,2.6,2.9c2.8,2.9,5.6,5.5,8.7,8
				c1.1,0.9,2.2,1.8,3.4,2.6c1.2,0.9,2.5,1.8,3.7,2.7c3.9,2.6,7.9,4.9,12.1,7c1.3,0.6,2.7,1.2,4.1,1.8c1.5,0.7,3,1.2,4.5,1.8
				c0.2,0,0.4,0.1,0.5,0.2c1.3,0.5,2.7,0.9,4.1,1.3c1.3,0.4,2.6,0.8,3.9,1.1"/>
			<path class="st3" d="M78.4,157.7c-0.1,1.2-0.2,2.4-0.3,3.6"/>
			<path class="st3" d="M80.8,143.8c-0.3,1-0.5,2-0.7,2.9"/>
			<path class="st3" d="M81.3,141.8c-0.1,0.3-0.2,0.7-0.3,1"/>
			<path class="st3" d="M82.3,138.3C82.3,138.4,82.3,138.4,82.3,138.3c-0.3,1.1-0.6,2-0.8,3"/>
			<path class="st3" d="M83.8,133.9c0,0,0,0.1,0,0.1c-0.1,0.1-0.1,0.3-0.2,0.4"/>
			<path class="st3" d="M87.4,125.2c-0.6,1.3-1.2,2.7-1.8,4.1"/>
			<path class="st3" d="M99.7,106.1c-0.9,1.1-1.8,2.2-2.6,3.4c-0.9,1.2-1.8,2.4-2.7,3.7"/>
			<path class="st3" d="M125.6,84c-1.6,0.9-3.1,1.9-4.6,2.8c-1.7,1.1-3.4,2.3-5,3.5c-1.3,1-2.6,2-3.9,3.1c-0.5,0.4-1.1,0.9-1.6,1.4
				c-1,0.8-2,1.7-2.9,2.6"/>
			<path class="st3" d="M141,76.7c-1.3,0.5-2.6,1-3.9,1.5"/>
			<path class="st3" d="M163.6,71.4c-1.3,0.1-2.6,0.3-3.9,0.5"/>
			<path class="st3" d="M169,71c-1.4,0-2.7,0.2-4.1,0.3"/>
			<line class="st3" x1="174" y1="70.9" x2="169.2" y2="71"/>
			<path class="st3" d="M78,460.6c0,0,0,0.1,0,0.1c0,0,0,0,0,0.1c0.9,41.4,26.6,76.7,63.1,90.1c1.5,0.5,2.9,1,4.4,1.5
				c1.3,0.4,2.6,0.8,3.9,1.1c0.4,0.1,0.8,0.2,1.2,0.3c1.1,0.3,2.2,0.5,3.3,0.8c3.6,0.8,7.2,1.3,11,1.7c1.2,0.1,2.4,0.2,3.6,0.3
				c1.8,0.1,3.6,0.2,5.5,0.2c0,0,0.1,0,0.1,0c13.6,0,26.5-2.8,38.2-8c5.1-2.2,10-4.8,14.6-7.9c5.4-3.6,10.4-7.7,15-12.3l79.1-79.1
				l39.8-39.8l56.2-56.3l39.8-39.8l79-79c4.6-4.6,8.7-9.6,12.3-15c3-4.6,5.7-9.5,7.9-14.6c0.1-0.3,0.3-0.6,0.4-0.9
				c4.8-11.5,7.5-24.1,7.5-37.3c0,0,0-0.1,0-0.1v0c0-1.6,0-3.2-0.1-4.8v-0.1c0-1.4-0.2-2.7-0.3-4.1l-0.1-1.3
				c-0.1-1.3-0.3-2.6-0.5-3.9l-4.7-18.7c-0.5-1.3-1-2.6-1.5-3.9l-5.4-11c0-0.1-0.1-0.2-0.2-0.3c-0.9-1.7-2-3.3-3-4.9
				c-1.1-1.7-2.3-3.4-3.5-5c-1-1.4-2.1-2.7-3.2-4c-0.3-0.4-0.6-0.8-0.9-1.1c-1.2-1.4-2.4-2.7-3.7-4c-0.4-0.4-0.7-0.7-1-1
				c-1-1-2-2-3.1-3c-1.2-1.1-2.5-2.2-3.8-3.2c-0.7-0.6-1.4-1.1-2.1-1.6c-1.1-0.9-2.2-1.7-3.3-2.5c-0.2-0.2-0.4-0.3-0.7-0.4
				c-1.6-1.2-3.2-2.2-4.9-3.2c-2.7-1.6-5.4-3.1-8.2-4.4c-1.3-0.7-2.7-1.2-4.1-1.8c-1.5-0.7-3-1.2-4.5-1.8c0,0-0.1,0-0.1,0
				c-0.1-0.1-0.3-0.1-0.4-0.2c-1.3-0.5-2.6-0.9-4-1.3c0,0,0,0-0.1,0c-1-0.3-2-0.6-2.9-0.8c-0.1-0.1-0.3-0.1-0.5-0.1
				c-0.3-0.1-0.7-0.2-1-0.3c0,0-0.1,0-0.2,0c-0.2,0-0.4-0.1-0.7-0.2c-1-0.3-2-0.5-2.9-0.7c-0.4-0.1-0.9-0.2-1.3-0.3
				c-0.2,0-0.4-0.1-0.7-0.1c-2.9-0.6-5.9-1-9-1.3c-1.2-0.1-2.4-0.2-3.6-0.3c-1.8-0.1-3.6-0.2-5.5-0.2c0,0-0.1,0-0.1,0h0h-46.2h-11.3
				H231.5h-11.2h-46.2h0c0,0,0,0,0,0c0,0,0,0-0.1,0c-1.6,0-3.2,0-4.8,0.1c0,0-0.1,0-0.1,0c-1.4,0.1-2.8,0.2-4.1,0.3
				c-0.4,0-0.9,0.1-1.3,0.1c-1.3,0.1-2.6,0.3-3.9,0.5c-6.5,1-12.7,2.6-18.7,4.7c-1.3,0.5-2.6,1-3.9,1.5c-4,1.6-7.9,3.6-11.5,5.8
				c-1.6,0.9-3.1,1.8-4.6,2.8c-1.7,1.1-3.4,2.3-5,3.5c-1.3,1-2.6,2-3.9,3.1c-0.5,0.4-1.1,0.9-1.6,1.4c-1,0.8-2,1.7-2.9,2.6
				c-2.9,2.8-5.5,5.6-8,8.7c-0.9,1.1-1.8,2.2-2.6,3.4c-0.9,1.2-1.8,2.5-2.7,3.7c-2.6,3.9-4.9,7.9-7,12.1c-0.6,1.3-1.2,2.7-1.8,4.1
				c-0.7,1.5-1.2,3-1.8,4.5c0,0.2-0.1,0.4-0.2,0.5c-0.5,1.3-0.9,2.6-1.3,4c-0.3,1-0.6,2-0.8,3c-0.1,0.2-0.1,0.4-0.1,0.5
				c-0.1,0.4-0.2,0.7-0.3,1c0,0.1,0,0.2,0,0.2c-0.1,0.2-0.1,0.5-0.2,0.7c-0.3,1-0.5,2-0.7,2.9c-0.1,0.4-0.2,0.9-0.3,1.3
				c0,0.2-0.1,0.4-0.1,0.7c-0.6,2.9-1,5.9-1.3,9c-0.1,1.2-0.2,2.4-0.3,3.6c-0.1,1.8-0.2,3.6-0.2,5.5v0.1v0v46.2v11.3v178.8v11.3
				V460.6z"/>
			<line class="st3" x1="253" y1="589.5" x2="253.1" y2="589.6"/>
			<polyline class="st3" points="45.3,381.8 78,414.5 85.9,422.4 212.3,548.8 220.3,556.8 253,589.5 			"/>
			<path class="st3" d="M42.1,378.4c1,1.2,2.1,2.3,3.2,3.3"/>
			<path class="st3" d="M33,366.8c0.1,0.2,0.2,0.4,0.4,0.6c0.7,1.1,1.5,2.2,2.3,3.3"/>
			<path class="st3" d="M45.2,246c-18.7,18.8-28.1,43.3-28.1,67.9c0,1.9,0,3.9,0.2,5.8c0,0,0,0,0,0c0.1,1.9,0.3,3.7,0.5,5.6
				c0,0.1,0,0.1,0,0.2c0.2,1.6,0.4,3.2,0.7,4.8c0.4,2.2,0.8,4.3,1.3,6.4c0.8,3,1.6,5.9,2.7,8.9c0.5,1.6,1.2,3.2,1.9,4.8
				c0.5,1.3,1.1,2.6,1.6,3.8c0.4,1,0.9,2,1.5,3c0.2,0.4,0.4,0.8,0.6,1.2c0,0,0,0.1,0.1,0.2"/>
			<path class="st3" d="M261.2,30.9c-0.7,0.5-1.4,1.1-2.1,1.7"/>
			<path class="st3" d="M268,25.9c-0.3,0.2-0.6,0.4-0.8,0.5c-1,0.7-2,1.4-3,2.1"/>
			<path class="st3" d="M273.2,22.7c-0.8,0.4-1.6,0.9-2.4,1.4"/>
			<path class="st3" d="M282.3,18.1c-0.9,0.4-1.9,0.8-2.8,1.3"/>
			<path class="st3" d="M298.1,12.7c-3,0.8-6,1.6-8.9,2.7c-1.1,0.4-2.2,0.8-3.3,1.2c-0.9,0.4-1.9,0.8-2.8,1.2"/>
			<path class="st3" d="M309.3,10.7c-1.5,0.1-3.1,0.4-4.6,0.7c-0.5,0-1.1,0.2-1.6,0.3"/>
			<path class="st3" d="M314.9,10.2c-1.7,0.1-3.5,0.3-5.2,0.5"/>
			<path class="st3" d="M320.3,10c-1.7,0-3.3,0.1-5,0.2"/>
			<path class="st3" d="M365.6,21c-5.5-2.9-11.4-5.3-17.3-7.1"/>
			<path class="st3" d="M385.2,34.7c-4.8-4.4-10-8.2-15.5-11.4"/>
			<path class="st3" d="M388.9,589.5c9.6-9.6,16.7-20.8,21.4-32.7c2-5.1,3.6-10.5,4.7-15.9c1.3-6.3,2-12.8,2-19.3V409.9v-56.3V274
				v-56.2V106.1v0c0-6.5-0.7-13-2-19.3c-1.1-5.4-2.6-10.7-4.7-15.8c-4.7-11.9-11.8-23-21.4-32.7"/>
			<path class="st3" d="M385.5,592.7c1.1-1,2.2-2,3.3-3.2"/>
			<path class="st3" d="M381.6,596.1c0.2-0.1,0.3-0.3,0.5-0.4"/>
			<path class="st3" d="M374.4,601.4c1.2-0.8,2.3-1.5,3.3-2.3"/>
			<path class="st3" d="M370.7,603.8c0.8-0.5,1.6-1,2.3-1.5"/>
			<path class="st3" d="M368.7,605c0.2-0.1,0.4-0.3,0.7-0.4"/>
			<path class="st3" d="M253.1,589.6c28.8,27.6,69.7,34.8,104.3,20.9c1.4-0.6,2.8-1.2,4.3-1.9c1.4-0.6,2.8-1.3,4.2-2"/>
			<path class="st3" d="M253,38.2l-32.7,32.7l-7.9,7.9L86,205.2l-8,8l-32.7,32.7c0,0,0,0-0.1,0.1l0,0
				c-29.8,31.1-35.9,76.4-17.1,112.5c0,0.1,0.1,0.1,0.1,0.2c0.5,1,1.1,2,1.6,2.9c0.5,0.8,0.9,1.6,1.4,2.4c0.6,0.9,1.2,1.9,1.8,2.8
				c0.1,0.2,0.3,0.4,0.4,0.6c0.7,1.1,1.5,2.2,2.3,3.3c1,1.3,2,2.6,3,3.8c0.1,0.2,0.3,0.3,0.4,0.5c1,1.2,2,2.3,3,3.5
				c1,1.1,2,2.2,3.2,3.3c0,0,0,0,0.1,0.1c9.6,9.6,20.8,16.7,32.7,21.4c5.1,2,10.5,3.6,15.9,4.7c6.3,1.3,12.8,2,19.3,2h111.8h56.3
				h79.5H417h111.7h0c6.5,0,13-0.7,19.3-2c5.4-1.1,10.7-2.6,15.8-4.7c11.9-4.7,23-11.8,32.7-21.4c0,0,0,0,0.1-0.1"/>
			<path class="st3" d="M256.4,35c-1.2,1-2.3,2.1-3.3,3.2"/>
			<path class="st3" d="M270.1,24.5c-1,0.6-2,1.2-3,2c-2,1.3-4,2.8-5.9,4.3"/>
			<path class="st3" d="M388.9,38.2C388.9,38.2,388.9,38.1,388.9,38.2L388.9,38.2c-1.2-1.3-2.4-2.4-3.7-3.5
				c-4.8-4.4-10-8.2-15.5-11.4c-1.4-0.8-2.8-1.6-4.2-2.3c-5.6-3-11.4-5.3-17.3-7.1c-9.1-2.7-18.6-4-28.1-4c-1.7,0-3.3,0.1-5,0.2
				c-0.1,0-0.3,0-0.4,0c-1.8,0.1-3.5,0.3-5.2,0.5c-0.1,0-0.3,0-0.4,0c-1.6,0.1-3.1,0.4-4.6,0.7c-0.6,0-1.1,0.2-1.6,0.3
				c-1.7,0.3-3.3,0.7-4.9,1.1c-4.1,1-8.2,2.3-12.2,3.9c-0.9,0.4-1.9,0.7-2.8,1.2c-0.3,0.1-0.6,0.2-0.8,0.4c-0.9,0.4-1.9,0.8-2.8,1.3
				c-1.1,0.5-2.1,1-3.2,1.6c0,0-0.1,0-0.2,0.1"/>
			<path class="st3" d="M603.9,254.1c-0.5-0.7-1.1-1.4-1.7-2.1"/>
			<path class="st3" d="M610.7,263.7c-0.3-0.6-0.7-1.2-1.1-1.7c-0.4-0.7-0.8-1.3-1.3-2"/>
			<path class="st3" d="M613.7,269c-0.5-1-1-2-1.6-2.9"/>
			<path class="st3" d="M616.7,275.1c-0.4-0.9-0.8-1.8-1.2-2.7"/>
			<path class="st3" d="M621.8,290c-0.7-2.7-1.5-5.3-2.4-7.9c-0.4-1.1-0.8-2.2-1.2-3.3c-0.4-0.9-0.8-1.9-1.2-2.8"/>
			<path class="st3" d="M624.1,302.1c-0.1-1.5-0.4-2.9-0.6-4.4c-0.1-0.7-0.2-1.4-0.4-2.1"/>
			<path class="st3" d="M624.6,307.8c-0.1-1.7-0.2-3.5-0.5-5.2"/>
			<path class="st3" d="M624.8,313.1c0-1.7-0.1-3.3-0.2-5"/>
			<path class="st3" d="M613.8,358.5c2.9-5.5,5.3-11.4,7.1-17.3"/>
			<path class="st3" d="M600.1,378.1c4.4-4.8,8.2-10,11.4-15.5"/>
			<path class="st3" d="M388.8,38.1C357.8,8.3,312.4,2.2,276.3,21c-0.1,0-0.1,0.1-0.2,0.1c-1,0.5-2,1.1-2.9,1.6
				c-0.8,0.5-1.6,0.9-2.4,1.4c-0.2,0.1-0.4,0.3-0.7,0.4c-0.8,0.4-1.5,0.9-2.2,1.4c-1.3,0.8-2.6,1.7-3.8,2.6c-1,0.7-2,1.5-2.9,2.2
				c0,0-0.1,0-0.1,0.1c-0.7,0.5-1.4,1.2-2.1,1.7c-0.9,0.8-1.8,1.5-2.7,2.4c-1.1,1-2.2,2-3.3,3.2c0,0,0,0-0.1,0.1
				c-9.6,9.6-16.7,20.8-21.4,32.7c-2,5.1-3.6,10.5-4.6,15.8c-1.3,6.3-2,12.8-2,19.3v111.8v56.3v79.5v56.2v111.7c0,6.5,0.7,13,2,19.4
				c1.1,5.4,2.6,10.7,4.7,15.8c0.1,0.3,0.2,0.7,0.4,1c4.7,11.5,11.7,22.3,21,31.7l0,0l0,0l0,0c18.9,18.8,43.4,28.1,67.9,28.1
				c0.2,0,0.4,0,0.6,0c1.7,0,3.4-0.1,5.1-0.2h0c1.9-0.1,3.7-0.3,5.6-0.5c0.1,0,0.1,0,0.2,0c1.6-0.2,3.1-0.4,4.6-0.7
				c0.6,0,1.2-0.2,1.8-0.3c1.6-0.3,3.2-0.6,4.9-1c3-0.8,5.9-1.6,8.9-2.7c1.1-0.4,2.2-0.8,3.3-1.2c0.4-0.2,0.9-0.4,1.4-0.6
				c0.6-0.2,1.2-0.5,1.9-0.8c0.8-0.4,1.6-0.7,2.4-1.1c0.3-0.1,0.5-0.2,0.8-0.4c1.1-0.5,2.1-1,3.2-1.6c0,0,0.1,0,0.2-0.1
				c1-0.5,2-1,2.9-1.6c0.2-0.1,0.4-0.2,0.7-0.4c0.4-0.2,0.8-0.5,1.3-0.8c0.8-0.4,1.6-0.9,2.3-1.5c0.5-0.3,1-0.6,1.4-0.9
				c1.1-0.7,2.2-1.5,3.3-2.3c1.3-0.9,2.6-2,3.8-3c0.2-0.1,0.3-0.3,0.5-0.4c1.2-1,2.3-2,3.5-3c1.1-1,2.2-2,3.3-3.2c0,0,0,0,0.1-0.1
				l32.7-32.7l7.9-7.9l126.4-126.4l8-8l32.7-32.7c0,0,0.1,0,0.1,0v0c1.2-1.2,2.4-2.4,3.4-3.6c4.4-4.8,8.2-10,11.4-15.5
				c0.8-1.4,1.6-2.8,2.3-4.2c3-5.6,5.3-11.4,7.1-17.3c2.7-9.1,4-18.6,4-28.1c0-1.7-0.1-3.3-0.2-5c0-0.1,0-0.3,0-0.4
				c-0.1-1.8-0.2-3.5-0.5-5.2c0-0.1,0-0.3,0-0.4c-0.1-1.5-0.4-2.9-0.6-4.4c-0.1-0.7-0.2-1.4-0.4-2.1c-0.4-1.9-0.8-3.8-1.3-5.6
				c-0.9-3.8-2.1-7.5-3.6-11.2c-0.4-0.9-0.8-1.9-1.2-2.8c-0.1-0.3-0.2-0.6-0.4-0.8c-0.4-0.9-0.8-1.8-1.2-2.7
				c-0.5-1.1-1.1-2.2-1.6-3.3c0-0.1-0.1-0.2-0.1-0.2c-0.5-1-1-2-1.6-2.9c-0.4-0.8-0.9-1.6-1.4-2.3c-0.3-0.6-0.7-1.2-1.1-1.7
				c-0.4-0.7-0.8-1.3-1.3-2c-0.7-1-1.3-2-2-3c-0.8-1-1.6-2-2.4-3c-0.5-0.7-1.2-1.4-1.7-2.1c-0.8-0.9-1.6-1.8-2.4-2.7
				c-1-1.2-2.1-2.3-3.2-3.3l0,0l0,0l-32.7-32.7l-7.9-7.9L429.6,78.9l-8-8L388.8,38.1C388.9,38.2,388.9,38.2,388.8,38.1z"/>
		</g>
	</g>
</g>
</svg>
