<?xml version="1.0" encoding="utf-8"?>
<!-- Generator: Adobe Illustrator 20.0.0, SVG Export Plug-In . SVG Version: 6.00 Build 0)  -->
<!DOCTYPE svg PUBLIC "-//W3C//DTD SVG 1.1//EN" "http://www.w3.org/Graphics/SVG/1.1/DTD/svg11.dtd">
<svg version="1.1" id="Layer_1" xmlns="http://www.w3.org/2000/svg" xmlns:xlink="http://www.w3.org/1999/xlink" x="0px" y="0px"
	 viewBox="0 0 52.5 47.3" enable-background="new 0 0 52.5 47.3" xml:space="preserve">
<path id="XMLID_1347_" fill-rule="evenodd" clip-rule="evenodd" fill="#FFFFFF" d="M8.7,1L0.8,1C0.7,1,0.6,1.1,0.6,1.1l0,7.9
	c0,0.1,0.1,0.2,0.2,0.2l1.8,0l0-5l5.3,5.3c0.1,0.1,0.3,0.1,0.4,0l0.9-0.9c0.1-0.1,0.1-0.3,0-0.4L3.9,2.9l5,0l0-1.8
	C8.9,1.1,8.8,1,8.7,1L8.7,1z"/>
<path id="XMLID_1346_" fill-rule="evenodd" clip-rule="evenodd" fill="#FFFFFF" d="M44,47.1l7.9,0c0.1,0,0.2-0.1,0.2-0.2l0-7.9
	c0-0.1-0.1-0.2-0.2-0.2l-1.8,0l0,5l-5.3-5.3c-0.1-0.1-0.3-0.1-0.4,0l-0.9,0.9c-0.1,0.1-0.1,0.3,0,0.4l5.3,5.3l-5,0l0,1.8
	C43.8,47.1,43.9,47.1,44,47.1L44,47.1z"/>
<path id="XMLID_1345_" fill-rule="evenodd" clip-rule="evenodd" fill="#FFFFFF" d="M44,0.8l7.9,0c0.1,0,0.2,0.1,0.2,0.2l0,7.9
	C52.1,9,52,9,51.9,9l-1.8,0l0-5l-5.3,5.3c-0.1,0.1-0.3,0.1-0.4,0l-0.9-0.9c-0.1-0.1-0.1-0.3,0-0.4l5.3-5.3l-5,0l0-1.8
	C43.8,0.8,43.9,0.8,44,0.8L44,0.8z"/>
<path id="XMLID_1337_" fill-rule="evenodd" clip-rule="evenodd" fill="#FFFFFF" d="M8.7,47.1l-7.9,0c-0.1,0-0.2-0.1-0.2-0.2l0-7.9
	c0-0.1,0.1-0.2,0.2-0.2l1.8,0l0,5l5.3-5.3c0.1-0.1,0.3-0.1,0.4,0l0.9,0.9c0.1,0.1,0.1,0.3,0,0.4l-5.3,5.3l5,0l0,1.8
	C8.9,47,8.8,47.1,8.7,47.1L8.7,47.1z"/>
<g id="XMLID_1318_">
	<path id="XMLID_1334_" fill="#FCFCFC" d="M31.8,22.7c1.7,0,3.2-1.4,3.2-3.2c0-1.7-1.4-3.2-3.2-3.2c-1.7,0-3.2,1.4-3.2,3.2
		C28.7,21.3,30.1,22.7,31.8,22.7z M31.8,17.6c1.1,0,2,0.9,2,2c0,1.1-0.9,2-2,2c-1.1,0-2-0.9-2-2C29.9,18.4,30.7,17.6,31.8,17.6z"/>
	<path id="XMLID_1319_" fill="#FCFCFC" d="M39.4,11.9H12.8c-1.4,0-2.5,1.1-2.5,2.5v19c0,1.4,1.1,2.5,2.5,2.5h26.6
		c1.4,0,2.5-1.1,2.5-2.5v-19C41.9,13.1,40.8,11.9,39.4,11.9z M12.8,13.2h26.6c0.7,0,1.3,0.6,1.3,1.3v14L35.1,25
		c-0.4-0.3-0.9-0.4-1.3-0.4c-0.5,0-1,0.1-1.3,0.3l-4.6,2.5c-0.2,0.1-0.5,0.1-0.7-0.1L22,23.3c-0.4-0.4-1-0.6-1.5-0.6
		c-0.6,0-1.1,0.2-1.6,0.5l-7.3,5.2V14.5C11.6,13.8,12.2,13.2,12.8,13.2z M39.4,34.7H12.8c-0.7,0-1.3-0.6-1.3-1.3V30l8-5.8
		c0.2-0.2,0.5-0.3,0.8-0.3c0.3,0,0.6,0.1,0.8,0.3l5.1,4.1c0.6,0.5,1.4,0.5,2.1,0.2L33,26c0.2-0.1,0.4-0.2,0.7-0.2
		c0.2,0,0.5,0.1,0.7,0.2l6.3,3.9v3.4C40.7,34.1,40.1,34.7,39.4,34.7z"/>
</g>
</svg>
