<?xml version="1.0" encoding="utf-8"?>
<!-- Generator: Adobe Illustrator 19.0.0, SVG Export Plug-In . SVG Version: 6.00 Build 0)  -->
<svg version="1.1" id="Layer_1" xmlns="http://www.w3.org/2000/svg" xmlns:xlink="http://www.w3.org/1999/xlink" x="0px" y="0px"
	 viewBox="0 0 18.4 17.4" style="enable-background:new 0 0 18.4 17.4;" xml:space="preserve">
<style type="text/css">
	.st0{fill-rule:evenodd;clip-rule:evenodd;fill:#B28978;}
</style>
<path id="XMLID_215_" class="st0" d="M2.6,5.1h0.9V4.6c0-0.3,0.2-0.5,0.5-0.5h1.4c0.3,0,0.5,0.2,0.5,0.5v0.5H8l0.9-1.4
	C9,3.4,9.3,3.2,9.6,3.2l3.3,0c0.4,0,0.7,0.2,0.8,0.5l0.9,1.4h1.1c0.5,0,0.9,0.4,0.9,0.9v7.5c0,0.5-0.4,0.9-0.9,0.9H2.6
	c-0.5,0-0.9-0.4-0.9-0.9V6C1.7,5.5,2.1,5.1,2.6,5.1L2.6,5.1z M11.3,7.4c-1.2,0-2.1,0.9-2.1,2.1c0,1.2,0.9,2.1,2.1,2.1
	c1.2,0,2.1-0.9,2.1-2.1C13.4,8.4,12.5,7.4,11.3,7.4L11.3,7.4z M3.6,6.5C3.3,6.5,3.1,6.7,3.1,7l0,0c0,0.3,0.2,0.5,0.5,0.5h2.3
	c0.3,0,0.5-0.2,0.5-0.5l0,0c0-0.3-0.2-0.5-0.5-0.5H3.6L3.6,6.5z M11.3,6C9.3,6,7.8,7.6,7.8,9.5c0,1.9,1.6,3.5,3.5,3.5
	s3.5-1.6,3.5-3.5C14.8,7.6,13.2,6,11.3,6z"/>
</svg>
