<?xml version="1.0" encoding="utf-8"?>
<!-- Generator: Adobe Illustrator 20.0.0, SVG Export Plug-In . SVG Version: 6.00 Build 0)  -->
<!DOCTYPE svg PUBLIC "-//W3C//DTD SVG 1.1//EN" "http://www.w3.org/Graphics/SVG/1.1/DTD/svg11.dtd">
<svg version="1.1" id="Layer_1" xmlns="http://www.w3.org/2000/svg" xmlns:xlink="http://www.w3.org/1999/xlink" x="0px" y="0px"
	 viewBox="0 0 47.2 46.7" enable-background="new 0 0 47.2 46.7" xml:space="preserve">
<g id="XMLID_8466_">
	<g>
		<path fill="#473EA1" d="M45.6,20c1.4,2.7,1,6.2-1.3,8.5c0,0,0,0,0,0c-0.7,0.7-1.6,1.3-2.5,1.6V16.7c0.9,0.4,1.7,0.9,2.5,1.6l0,0
			l0,0c0.1,0.1,0.2,0.2,0.2,0.3c0,0,0,0,0.1,0.1c0,0,0.1,0.1,0.1,0.1c0,0,0,0,0.1,0.1c0,0,0,0,0,0c0.1,0.1,0.2,0.2,0.2,0.3
			c0.1,0.1,0.1,0.2,0.2,0.3c0,0,0.1,0.1,0.1,0.1c0,0.1,0.1,0.1,0.1,0.2c0,0,0,0.1,0.1,0.1c0,0,0,0,0,0.1
			C45.5,19.9,45.6,19.9,45.6,20z"/>
		<path fill="#D51067" d="M44.7,18.7c0,0-0.1-0.1-0.1-0.1C44.6,18.6,44.7,18.7,44.7,18.7z"/>
		<path fill="#001689" d="M44.3,28.5L41.8,31v-0.9C42.7,29.8,43.6,29.3,44.3,28.5z"/>
		<path fill="#A699D0" d="M41.8,15.8l2.5,2.5c-0.7-0.7-1.6-1.3-2.5-1.6V15.8z"/>
		<path fill="#001689" d="M41.8,34.5C41.8,34.5,41.8,34.5,41.8,34.5c0,0.2,0,0.3,0,0.4c0,0.1,0,0.2,0,0.3c0,0.2-0.1,0.5-0.1,0.7
			c0,0,0,0,0,0.1c0,0,0,0.1,0,0.1c0,0.1,0,0.1-0.1,0.2c0,0,0,0,0,0.1c0,0,0,0.1,0,0.1c0,0,0,0,0,0c0,0.1,0,0.1-0.1,0.2
			c0,0.1-0.1,0.2-0.1,0.3c-1,2.8-3.7,4.7-6.8,4.8c0,0,0,0,0,0s0,0,0,0c-1,0-1.9-0.2-2.8-0.6c0,0,0,0-0.1,0l9.5-9.5
			C41.6,32.5,41.8,33.4,41.8,34.5z"/>
		<path fill="#001689" d="M41.8,31v3.5c0-1-0.2-2-0.6-2.9L41.8,31z"/>
		<path fill="#001689" d="M41.8,30.1V31l-0.6,0.6c-0.2-0.4-0.4-0.8-0.6-1.1C41.1,30.4,41.5,30.3,41.8,30.1z"/>
		<path fill="#473EA1" d="M41.8,16.7v13.5c-0.4,0.2-0.8,0.3-1.2,0.4c-0.3-0.4-0.6-0.8-0.9-1.1l-6-6l6-6c0.3-0.3,0.7-0.7,0.9-1.1
			C41.1,16.4,41.5,16.5,41.8,16.7z"/>
		<path fill="#A699D0" d="M41.8,15.8v0.9c-0.4-0.2-0.8-0.3-1.2-0.4c0.2-0.3,0.4-0.7,0.6-1.1L41.8,15.8z"/>
		<path fill="#A699D0" d="M41.8,12.3v3.5l-0.6-0.6c0,0,0,0,0-0.1C41.6,14.3,41.8,13.3,41.8,12.3z"/>
		<path fill="#D51067" d="M41.8,12.3C41.8,12.3,41.8,12.3,41.8,12.3c0,1-0.2,2-0.6,2.8c0,0,0,0,0,0.1l-9.5-9.5
			c0.9-0.4,1.9-0.6,2.9-0.6h0c0,0,0,0,0,0c0.1,0,0.3,0,0.4,0c0.1,0,0.2,0,0.3,0c0.3,0,0.6,0.1,0.8,0.1c0.1,0,0.2,0,0.2,0.1
			c0,0,0.1,0,0.1,0c0.1,0,0.2,0.1,0.3,0.1c0.1,0,0.2,0.1,0.3,0.1C39.8,6.5,41.8,9.2,41.8,12.3L41.8,12.3z"/>
		<path fill="#D51067" d="M31.7,5.7l9.5,9.5c-0.2,0.4-0.4,0.8-0.6,1.1c-0.5-0.1-1-0.2-1.5-0.2h-8.4V7.7v0c0-0.5-0.1-1-0.2-1.5
			C31,6.1,31.3,5.9,31.7,5.7z"/>
		<path fill="#001689" d="M41.2,31.6l-9.5,9.5c-0.4-0.2-0.8-0.4-1.1-0.6c0.1-0.5,0.2-1,0.2-1.5v-8.4h8.4h0c0.5,0,1-0.1,1.5-0.2
			C40.9,30.8,41.1,31.2,41.2,31.6z"/>
		<path fill="#D51067" d="M40.6,16.3c-0.3,0.4-0.6,0.8-0.9,1.1l-6,6l-3-3v-4.2h8.4C39.7,16.2,40.2,16.2,40.6,16.3z"/>
		<path fill="#473EA1" d="M39.7,29.4c0.3,0.3,0.7,0.7,0.9,1.1c-0.5,0.1-1,0.2-1.5,0.2h0h-8.4v-4.2l3-3L39.7,29.4z"/>
		<path fill="#A699D0" d="M31.1,5.1h3.5c-1,0-2,0.2-2.9,0.6L31.1,5.1z"/>
		<path fill="#001689" d="M34.6,41.7h-3.5l0.6-0.6c0,0,0,0,0.1,0C32.6,41.5,33.6,41.7,34.6,41.7z"/>
		<polygon fill="#D51067" points="33.8,23.4 30.8,26.4 30.8,20.4 		"/>
		<path fill="#A699D0" d="M31.1,5.1l0.6,0.6c-0.4,0.2-0.8,0.4-1.1,0.6c-0.1-0.4-0.2-0.8-0.4-1.2H31.1z"/>
		<path fill="#001689" d="M31.7,41.1l-0.6,0.6h-0.9c0.2-0.4,0.3-0.8,0.4-1.2C31,40.8,31.3,41,31.7,41.1z"/>
		<path fill="#001689" d="M31.1,41.7l-2.5,2.5c0.7-0.7,1.3-1.6,1.6-2.5H31.1z"/>
		<path fill="#A699D0" d="M31.1,5.1h-0.9c-0.4-0.9-0.9-1.7-1.6-2.5L31.1,5.1z"/>
		<path fill="#001689" d="M30.8,30.6v8.4c0,0.5-0.1,1-0.2,1.5c-0.4-0.3-0.8-0.6-1.1-0.9l-6-6l3-3H30.8z"/>
		<polygon fill="#473EA1" points="30.8,26.4 30.8,30.6 26.5,30.6 		"/>
		<polygon fill="#D51067" points="30.8,20.4 30.8,26.4 26.5,30.6 20.5,30.6 16.3,26.4 16.3,20.4 20.5,16.2 26.5,16.2 		"/>
		<polygon fill="#D51067" points="30.8,16.2 30.8,20.4 26.5,16.2 		"/>
		<path fill="#D51067" d="M30.8,7.7v8.4h-4.2l-3-3l6-6c0.3-0.3,0.7-0.7,1.1-0.9C30.7,6.8,30.8,7.3,30.8,7.7L30.8,7.7z"/>
		<path fill="#A699D0" d="M30.3,5.1c0.2,0.4,0.3,0.8,0.4,1.2c-0.4,0.3-0.8,0.6-1.1,0.9l-6,6l-6-6c-0.3-0.3-0.7-0.7-1.1-0.9
			c0.1-0.4,0.2-0.8,0.4-1.2H30.3z"/>
		<path fill="#001689" d="M30.6,40.5c-0.1,0.4-0.2,0.8-0.4,1.2H16.8c-0.2-0.4-0.3-0.8-0.4-1.2c0.4-0.3,0.8-0.6,1.1-0.9l6-6l6,6
			C29.8,39.9,30.2,40.3,30.6,40.5z"/>
		<path fill="#001689" d="M30.3,41.7c-0.4,0.9-0.9,1.7-1.6,2.5c0,0,0,0,0,0c-0.1,0.1-0.2,0.2-0.3,0.2c-0.1,0.1-0.2,0.2-0.3,0.2
			c0,0,0,0,0,0c-0.1,0.1-0.2,0.2-0.3,0.2c-0.1,0.1-0.2,0.1-0.3,0.2c0,0,0,0,0,0c0,0,0,0,0,0c0,0,0,0-0.1,0c-0.1,0-0.1,0.1-0.2,0.1
			c0,0-0.1,0-0.1,0.1c0,0,0,0-0.1,0c-0.1,0-0.1,0.1-0.2,0.1c-0.1,0.1-0.2,0.1-0.3,0.2c-0.1,0.1-0.2,0.1-0.3,0.1
			c-2.6,1.1-5.7,0.5-7.9-1.6l0,0l0,0l0,0c-0.7-0.7-1.2-1.5-1.6-2.4c0,0,0-0.1,0-0.1H30.3z"/>
		<path fill="#A699D0" d="M28.7,2.6c0.7,0.7,1.3,1.6,1.6,2.5H16.8c0.4-0.9,0.9-1.7,1.6-2.5c0,0,0,0,0,0c0.1-0.1,0.2-0.2,0.3-0.2
			c0,0,0,0,0.1-0.1c0,0,0.1-0.1,0.1-0.1c0,0,0,0,0.1-0.1c0,0,0,0,0,0C19.1,2,19.1,2,19.2,1.9c0.1-0.1,0.2-0.1,0.3-0.2c0,0,0,0,0.1,0
			c0.1,0,0.1-0.1,0.2-0.1c0,0,0,0,0,0c0,0,0,0,0.1,0c0.1-0.1,0.2-0.1,0.3-0.2C22.9-0.1,26.3,0.4,28.7,2.6
			C28.6,2.6,28.7,2.6,28.7,2.6z"/>
		<path fill="#A00C4D" d="M27.5,45.1C27.5,45.1,27.5,45.1,27.5,45.1C27.5,45.1,27.5,45.1,27.5,45.1z"/>
		<polygon fill="#D51067" points="26.5,30.6 23.5,33.6 20.5,30.6 		"/>
		<polygon fill="#D51067" points="23.5,13.2 26.5,16.2 20.5,16.2 		"/>
		<path fill="#001689" d="M23.5,33.6l-6,6c-0.3,0.3-0.7,0.7-1.1,0.9c-0.1-0.5-0.2-1-0.2-1.5v-8.4h4.2L23.5,33.6z"/>
		<path fill="#D51067" d="M17.6,7.2l6,6l-3,3h-4.2V7.7c0-0.5,0.1-1,0.2-1.5C16.8,6.6,17.2,6.9,17.6,7.2z"/>
		<polygon fill="#473EA1" points="20.5,30.6 16.3,30.6 16.3,26.4 		"/>
		<polygon fill="#D51067" points="20.5,16.2 16.3,20.4 16.3,16.2 		"/>
		<path fill="#A699D0" d="M15.9,5.1l2.5-2.5c-0.7,0.7-1.3,1.6-1.6,2.5H15.9z"/>
		<path fill="#001689" d="M18.4,44.2l-2.5-2.5h0.9c0,0,0,0.1,0,0.1C17.2,42.7,17.7,43.5,18.4,44.2z"/>
		<path fill="#A699D0" d="M15.9,5.1h0.9c-0.2,0.4-0.3,0.8-0.4,1.2c-0.3-0.2-0.7-0.4-1.1-0.6L15.9,5.1z"/>
		<path fill="#001689" d="M16.8,41.7h-0.9l-0.6-0.6c0.4-0.2,0.8-0.4,1.1-0.6C16.5,40.9,16.6,41.3,16.8,41.7z"/>
		<path fill="#D51067" d="M16.4,6.3c-0.1,0.5-0.2,1-0.2,1.5v8.4H7.9c-0.5,0-1,0.1-1.5,0.2C6.2,16,6,15.6,5.8,15.2l9.5-9.5
			C15.7,5.9,16.1,6.1,16.4,6.3z"/>
		<path fill="#001689" d="M16.3,39.1c0,0.5,0.1,1,0.2,1.5c-0.3,0.2-0.7,0.4-1.1,0.6l-9.5-9.5c0.2-0.4,0.4-0.8,0.6-1.1
			c0.5,0.1,1,0.2,1.5,0.2h8.4V39.1z"/>
		<path fill="#473EA1" d="M16.3,26.4v4.2H7.9c-0.5,0-1-0.1-1.5-0.2c0.3-0.4,0.6-0.8,0.9-1.1l6-6L16.3,26.4z"/>
		<polygon fill="#D51067" points="16.3,20.4 16.3,26.4 13.3,23.4 		"/>
		<path fill="#D51067" d="M16.3,16.2v4.2l-3,3l-6-6c-0.3-0.3-0.7-0.7-0.9-1.1c0.5-0.1,1-0.2,1.5-0.2H16.3z"/>
		<path fill="#A699D0" d="M15.9,5.1l-0.6,0.6c0,0,0,0-0.1,0c-0.9-0.4-1.8-0.6-2.8-0.6H15.9z"/>
		<path fill="#001689" d="M15.9,41.7h-3.5c1,0,2-0.2,2.9-0.6L15.9,41.7z"/>
		<path fill="#D51067" d="M15.3,5.7l-9.5,9.5c-0.4-0.9-0.6-1.9-0.6-2.9v0v0c0-0.1,0-0.3,0-0.4c0-0.1,0-0.2,0-0.3
			c0-0.3,0.1-0.6,0.1-0.8c0-0.1,0-0.2,0.1-0.2c0,0,0-0.1,0-0.1c0-0.1,0.1-0.2,0.1-0.3c0-0.1,0.1-0.2,0.1-0.3c1-2.8,3.7-4.7,6.8-4.8
			c0,0,0,0,0,0h0h0C13.5,5.1,14.4,5.3,15.3,5.7C15.3,5.7,15.3,5.7,15.3,5.7z"/>
		<path fill="#001689" d="M15.3,41.1c-0.9,0.4-1.9,0.6-2.9,0.6c0,0,0,0,0,0c-0.1,0-0.3,0-0.4,0c-0.1,0-0.2,0-0.3,0
			c-0.2,0-0.5-0.1-0.7-0.1c0,0,0,0-0.1,0c0,0-0.1,0-0.1,0c-0.1,0-0.1,0-0.2-0.1c0,0,0,0-0.1,0c0,0-0.1,0-0.1,0c0,0,0,0,0,0
			c-0.1,0-0.1,0-0.2-0.1c-0.1,0-0.2-0.1-0.3-0.1c-2.8-1-4.7-3.7-4.8-6.8c0,0,0,0,0,0c0,0,0,0,0,0c0-1,0.2-1.9,0.6-2.8c0,0,0,0,0-0.1
			L15.3,41.1z"/>
		<path fill="#473EA1" d="M7.3,17.4l6,6l-6,6c-0.3,0.3-0.7,0.7-0.9,1.1c-0.4-0.1-0.8-0.2-1.2-0.4V16.7c0.4-0.2,0.8-0.3,1.2-0.4
			C6.7,16.7,7,17.1,7.3,17.4z"/>
		<path fill="#A699D0" d="M5.8,15.2C6,15.6,6.2,16,6.4,16.3c-0.4,0.1-0.8,0.2-1.2,0.4v-0.9L5.8,15.2z"/>
		<path fill="#001689" d="M6.4,30.5c-0.2,0.3-0.4,0.7-0.6,1.1L5.2,31v-0.9C5.6,30.3,6,30.4,6.4,30.5z"/>
		<path fill="#A699D0" d="M5.8,15.2l-0.6,0.6v-3.5C5.2,13.4,5.4,14.3,5.8,15.2z"/>
		<path fill="#001689" d="M5.8,31.6C5.8,31.6,5.8,31.6,5.8,31.6c-0.4,0.9-0.6,1.9-0.6,2.9V31L5.8,31.6z"/>
		<path fill="#001689" d="M5.2,30.1V31l-2.5-2.5C3.5,29.3,4.3,29.8,5.2,30.1z"/>
		<path fill="#473EA1" d="M5.2,16.7v13.5c-0.9-0.4-1.7-0.9-2.5-1.6c0,0,0,0,0,0c-0.1-0.1-0.2-0.2-0.2-0.3c-0.1-0.1-0.2-0.2-0.2-0.3
			c0,0,0,0,0,0c-0.1-0.1-0.2-0.2-0.2-0.3c-0.1-0.1-0.1-0.2-0.2-0.2c0,0,0,0,0,0c0-0.1-0.1-0.1-0.1-0.2c0-0.1-0.1-0.1-0.1-0.2
			c0-0.1-0.1-0.1-0.1-0.2c0,0,0,0,0,0c-1.4-2.7-1-6.1,1.3-8.5l0,0c0,0,0,0,0,0C3.4,17.6,4.3,17,5.2,16.7C5.2,16.7,5.2,16.7,5.2,16.7
			z"/>
		<path fill="#A699D0" d="M5.2,15.8v0.9c0,0-0.1,0-0.1,0c-0.9,0.4-1.7,0.9-2.4,1.6L5.2,15.8z"/>
	</g>
	<g>
	</g>
</g>
</svg>
