<?xml version="1.0" encoding="utf-8"?>
<!-- Generator: Adobe Illustrator 19.0.0, SVG Export Plug-In . SVG Version: 6.00 Build 0)  -->
<svg version="1.1" id="Layer_1" xmlns="http://www.w3.org/2000/svg" xmlns:xlink="http://www.w3.org/1999/xlink" x="0px" y="0px"
	 viewBox="0 0 30 30" style="enable-background:new 0 0 30 30;" xml:space="preserve">
<style type="text/css">
	.st0{fill:#FFFFFF;}
</style>
<g id="XMLID_10822_">
	<path id="XMLID_10823_" class="st0" d="M-31.4-19.8h-12.5c-0.4,0-0.9-0.1-1.3-0.2c-1.9-0.6-3.3-2.4-3.3-4.5c0-2.5,2-4.6,4.6-4.7
		c0.6-2.8,3-4.9,5.9-4.9c2.5,0,4.6,1.5,5.5,3.7c0.3,0,0.5-0.1,0.8-0.1c2.9,0,5.3,2.4,5.3,5.3c0,2.3-1.5,4.3-3.7,5
		C-30.5-19.9-30.9-19.8-31.4-19.8L-31.4-19.8z M-43.8-27.2c-1.5,0-2.7,1.2-2.7,2.7c0,1.2,0.8,2.3,1.9,2.6c0.2,0.1,0.5,0.1,0.7,0.1
		h12.5c0.2,0,0.5,0,0.7-0.1l0.1,0c1.4-0.4,2.3-1.7,2.3-3.2c0-1.8-1.5-3.3-3.3-3.3c-0.4,0-0.8,0.1-1.1,0.2l-1,0.4l-0.3-1.1
		c-0.4-1.8-2.1-3.1-3.9-3.1c-2.2,0-4,1.8-4,4l0,1.2l-1.2-0.2C-43.4-27.2-43.6-27.2-43.8-27.2L-43.8-27.2z"/>
</g>
<path id="XMLID_10818_" class="st0" d="M-65-11.8c-0.2,0-0.4,0-0.6,0c-0.7-1.7-2.3-2.8-4.2-2.8c-2.2,0-4,1.6-4.5,3.7
	c-0.7,0-1.3,0.2-1.8,0.6c-1-0.6-2.1-1-3.3-1c-2.9,0-5.4,2.1-5.9,4.9c-2.5,0.1-4.6,2.1-4.6,4.7c0,2.1,1.4,3.9,3.3,4.5
	c0.4,0.1,0.8,0.2,1.3,0.2h12.5c0.5,0,0.9-0.1,1.4-0.3c2.2-0.7,3.7-2.7,3.7-5c0-0.5-0.1-1-0.2-1.4h3.1c0.4,0,0.7-0.1,1-0.2
	c1.7-0.5,2.8-2.1,2.8-3.8C-60.9-10-62.7-11.8-65-11.8z M-72,0.8L-72,0.8C-72.3,0.9-72.5,1-72.8,1h-12.5c-0.2,0-0.4,0-0.7-0.1
	c-1.1-0.3-1.9-1.4-1.9-2.6c0-1.5,1.2-2.7,2.7-2.7c0.2,0,0.4,0,0.6,0.1l1.2,0.2l0-1.2c0-2.2,1.9-4,4-4c1.9,0,3.5,1.3,3.9,3.1l0.3,1.1
	l1-0.4c0.4-0.1,0.7-0.2,1.1-0.2c1.8,0,3.3,1.5,3.3,3.3C-69.6-0.9-70.6,0.4-72,0.8z M-64.2-5.3c-0.2,0.1-0.4,0.1-0.6,0.1h-3.7
	c-0.9-1.4-2.6-2.4-4.4-2.4c-0.3,0-0.5,0-0.8,0.1c-0.3-0.6-0.6-1.2-1-1.6c0.2-0.1,0.4-0.1,0.7-0.1c0.1,0,0.3,0,0.4,0l0.9,0.2l0-0.9
	c0-1.7,1.4-3,3.1-3c1.4,0,2.7,1,3,2.4l0.2,0.8l0.8-0.3c0.3-0.1,0.6-0.2,0.9-0.2c1.4,0,2.5,1.1,2.5,2.5C-62.4-6.6-63.1-5.7-64.2-5.3z
	"/>
<g id="XMLID_10809_">
	<path id="XMLID_10815_" class="st0" d="M57.5-31.8c-0.3,0-0.5,0-0.8,0.1c-0.9-2.2-3.1-3.7-5.6-3.7c-2.9,0-5.4,2.1-5.9,4.9
		c-2.5,0.1-4.6,2.1-4.6,4.7c0,2.1,1.4,3.9,3.3,4.5c0.4,0.1,0.8,0.2,1.3,0.2h12.5c0.5,0,1-0.1,1.4-0.3c2.2-0.7,3.7-2.7,3.7-5
		C62.8-29.4,60.5-31.8,57.5-31.8z M58.5-23.3L58.5-23.3c-0.3,0.1-0.5,0.2-0.8,0.2H45.3c-0.2,0-0.4,0-0.7-0.1
		c-1.1-0.3-1.9-1.4-1.9-2.6c0-1.5,1.2-2.7,2.7-2.7c0.2,0,0.4,0,0.6,0.1l1.2,0.2l0-1.2c0-2.2,1.9-4,4-4c1.9,0,3.5,1.3,3.9,3.1
		l0.3,1.1l1-0.4c0.4-0.1,0.7-0.2,1.1-0.2c1.8,0,3.3,1.5,3.3,3.3C60.9-25.1,59.9-23.8,58.5-23.3z"/>
	<path id="XMLID_10814_" class="st0" d="M47.3-19.9c-0.4-0.2-0.8-0.1-1,0.3l-1,1.7c-0.2,0.4-0.1,0.8,0.3,1c0.1,0.1,0.2,0.1,0.4,0.1
		c0.3,0,0.5-0.1,0.6-0.4l1-1.7C47.8-19.3,47.7-19.7,47.3-19.9z"/>
	<path id="XMLID_10813_" class="st0" d="M52-19.9c-0.4-0.2-0.8-0.1-1,0.3L50-18c-0.2,0.4-0.1,0.8,0.3,1c0.1,0.1,0.2,0.1,0.4,0.1
		c0.3,0,0.5-0.1,0.6-0.4l1-1.7C52.5-19.3,52.4-19.7,52-19.9z"/>
	<path id="XMLID_10812_" class="st0" d="M56.7-19.9c-0.4-0.2-0.8-0.1-1,0.3l-1,1.7c-0.2,0.4-0.1,0.8,0.3,1c0.1,0.1,0.2,0.1,0.4,0.1
		c0.3,0,0.5-0.1,0.6-0.4l1-1.7C57.2-19.3,57.1-19.7,56.7-19.9z"/>
	<path id="XMLID_10811_" class="st0" d="M48.7-16.7c-0.4-0.2-0.8-0.1-1,0.3l-1,1.7c-0.2,0.4-0.1,0.8,0.3,1c0.1,0.1,0.2,0.1,0.4,0.1
		c0.3,0,0.5-0.1,0.6-0.4l1-1.7C49.2-16.1,49.1-16.5,48.7-16.7z"/>
	<path id="XMLID_10810_" class="st0" d="M53.4-16.7c-0.4-0.2-0.8-0.1-1,0.3l-1,1.7c-0.2,0.4-0.1,0.8,0.3,1c0.1,0.1,0.2,0.1,0.4,0.1
		c0.3,0,0.5-0.1,0.6-0.4l1-1.7C53.9-16.1,53.8-16.5,53.4-16.7z"/>
</g>
<g id="XMLID_10795_">
	<path id="XMLID_10808_" class="st0" d="M85.8-29.2C85.9-29.2,85.9-29.2,85.8-29.2c0.5-0.1,0.8-0.4,0.7-0.8l-0.3-2
		c-0.1-0.4-0.4-0.7-0.8-0.6c-0.4,0.1-0.7,0.4-0.6,0.8l0.3,2C85.1-29.5,85.5-29.2,85.8-29.2z"/>
	<path id="XMLID_10807_" class="st0" d="M81.2-27.9c0.1,0.2,0.4,0.3,0.6,0.3c0.2,0,0.3,0,0.4-0.2c0.3-0.2,0.4-0.7,0.1-1l-1.2-1.6
		c-0.2-0.3-0.7-0.4-1-0.1c-0.3,0.2-0.4,0.7-0.1,1L81.2-27.9z"/>
	<path id="XMLID_10806_" class="st0" d="M96.7-18.1l-1.8-0.8c-0.4-0.2-0.8,0-1,0.4c-0.2,0.4,0,0.8,0.4,1l1.8,0.8
		c0.1,0,0.2,0.1,0.3,0.1c0.3,0,0.6-0.2,0.7-0.5C97.3-17.5,97.1-17.9,96.7-18.1z"/>
	<path id="XMLID_10805_" class="st0" d="M97.1-23.5l-2,0.3c-0.4,0.1-0.7,0.4-0.6,0.8c0.1,0.4,0.4,0.6,0.7,0.6c0,0,0.1,0,0.1,0l2-0.3
		c0.4-0.1,0.7-0.4,0.6-0.8C97.9-23.3,97.5-23.5,97.1-23.5z"/>
	<path id="XMLID_10804_" class="st0" d="M95.6-27.2c0.3-0.2,0.4-0.7,0.1-1c-0.2-0.3-0.7-0.4-1-0.1l-1.6,1.2c-0.3,0.2-0.4,0.7-0.1,1
		c0.1,0.2,0.4,0.3,0.6,0.3c0.2,0,0.3,0,0.5-0.2L95.6-27.2z"/>
	<path id="XMLID_10803_" class="st0" d="M89.9-28.6c0.1,0,0.2,0.1,0.3,0.1c0.3,0,0.6-0.2,0.7-0.5l0.8-1.8c0.2-0.4,0-0.8-0.4-1
		c-0.4-0.2-0.8,0-1,0.4l-0.8,1.8C89.3-29.2,89.5-28.8,89.9-28.6z"/>
	<path id="XMLID_10799_" class="st0" d="M92.8-22.3c-0.4-3-3-5.3-6-5.3c-0.3,0-0.5,0-0.8,0.1c-1.5,0.2-2.7,0.9-3.6,1.9
		C81.7-25.9,81-26,80.3-26c-2.9,0-5.4,2.1-5.9,4.9c-2.5,0.1-4.6,2.1-4.6,4.7c0,2.1,1.4,3.9,3.3,4.5c0.4,0.1,0.8,0.2,1.3,0.2h12.4
		c0.5,0,0.9-0.1,1.4-0.3c2.2-0.7,3.7-2.7,3.7-5c0-0.4,0-0.8-0.1-1.1C92.6-19.4,93-20.8,92.8-22.3z M87.7-13.9L87.7-13.9
		c-0.3,0.1-0.5,0.2-0.8,0.2H74.4c-0.2,0-0.4,0-0.7-0.1c-1.1-0.3-1.9-1.4-1.9-2.6c0-1.5,1.2-2.7,2.7-2.7c0.2,0,0.4,0,0.6,0.1l1.2,0.2
		l0-1.2c0-2.2,1.9-4,4-4c1.9,0,3.5,1.3,3.9,3.1l0.3,1.1l1-0.4c0.4-0.1,0.7-0.2,1.1-0.2c1.8,0,3.3,1.5,3.3,3.3
		C90-15.6,89.1-14.3,87.7-13.9z M86.7-22.4c-0.3,0-0.5,0-0.8,0.1c-0.4-0.9-1-1.7-1.7-2.3c0.6-0.5,1.3-0.8,2.1-1c0.2,0,0.4,0,0.5,0
		c2,0,3.8,1.5,4,3.5c0.1,0.5,0,1.1-0.1,1.6C89.7-21.6,88.3-22.4,86.7-22.4z"/>
	<path id="XMLID_10798_" class="st0" d="M76.5-10.5c-0.4-0.2-0.8-0.1-1,0.3l-1,1.7c-0.2,0.4-0.1,0.8,0.3,1c0.1,0.1,0.2,0.1,0.4,0.1
		c0.3,0,0.5-0.1,0.6-0.4l1-1.7C76.9-9.8,76.8-10.3,76.5-10.5z"/>
	<path id="XMLID_10797_" class="st0" d="M81.2-10.5c-0.4-0.2-0.8-0.1-1,0.3l-1,1.7c-0.2,0.4-0.1,0.8,0.3,1c0.1,0.1,0.2,0.1,0.4,0.1
		c0.3,0,0.5-0.1,0.6-0.4l1-1.7C81.6-9.8,81.5-10.3,81.2-10.5z"/>
	<path id="XMLID_10796_" class="st0" d="M85.8-10.5c-0.4-0.2-0.8-0.1-1,0.3l-1,1.7c-0.2,0.4-0.1,0.8,0.3,1c0.1,0.1,0.2,0.1,0.4,0.1
		c0.3,0,0.5-0.1,0.6-0.4l1-1.7C86.3-9.8,86.2-10.3,85.8-10.5z"/>
</g>
<g id="XMLID_10784_">
	<path id="XMLID_10794_" class="st0" d="M5.3-19.6l-1.8-0.8c-0.4-0.2-0.8,0-1,0.4c-0.2,0.4,0,0.8,0.4,1l1.8,0.8
		c0.1,0,0.2,0.1,0.3,0.1c0.3,0,0.6-0.2,0.7-0.5C5.9-19,5.7-19.4,5.3-19.6z"/>
	<path id="XMLID_10793_" class="st0" d="M5.7-25l-2,0.3c-0.4,0.1-0.7,0.4-0.6,0.8c0,0.4,0.4,0.6,0.7,0.6c0,0,0.1,0,0.1,0l2-0.3
		c0.4-0.1,0.7-0.4,0.6-0.8C6.5-24.8,6.1-25.1,5.7-25z"/>
	<path id="XMLID_10792_" class="st0" d="M4.3-28.7c0.3-0.2,0.4-0.7,0.1-1c-0.3-0.3-0.7-0.4-1-0.1l-1.6,1.2c-0.3,0.2-0.4,0.7-0.1,1
		c0.1,0.2,0.4,0.3,0.6,0.3c0.2,0,0.3,0,0.4-0.2L4.3-28.7z"/>
	<path id="XMLID_10791_" class="st0" d="M-5.5-30.7C-5.5-30.7-5.5-30.7-5.5-30.7c0.5-0.1,0.8-0.4,0.7-0.8l-0.3-2
		c-0.1-0.4-0.4-0.7-0.8-0.6c-0.4,0.1-0.7,0.4-0.6,0.8l0.3,2C-6.2-31-5.9-30.7-5.5-30.7z"/>
	<path id="XMLID_10790_" class="st0" d="M-10.2-29.4c0.1,0.2,0.4,0.3,0.6,0.3c0.2,0,0.3-0.1,0.4-0.2c0.3-0.2,0.4-0.7,0.1-1l-1.2-1.6
		c-0.2-0.3-0.7-0.4-1-0.1c-0.3,0.2-0.4,0.7-0.1,1L-10.2-29.4z"/>
	<path id="XMLID_10789_" class="st0" d="M-1.5-30.2c0.1,0,0.2,0.1,0.3,0.1c0.3,0,0.6-0.2,0.7-0.5l0.8-1.8c0.2-0.4,0-0.8-0.4-1
		c-0.4-0.2-0.8,0-1,0.4l-0.8,1.8C-2-30.7-1.8-30.3-1.5-30.2z"/>
	<path id="XMLID_10785_" class="st0" d="M1.4-23.8c-0.4-3-3-5.3-6-5.3c-0.3,0-0.5,0-0.8,0c-1.5,0.2-2.7,0.9-3.6,1.9
		c-0.7-0.2-1.4-0.4-2.1-0.4c-2.9,0-5.4,2.1-5.9,4.9c-2.5,0.1-4.6,2.1-4.6,4.7c0,2,1.4,3.9,3.3,4.5c0.4,0.1,0.8,0.2,1.3,0.2h12.4
		c0.5,0,0.9-0.1,1.4-0.3c2.2-0.7,3.7-2.7,3.7-5c0-0.4,0-0.8-0.1-1.1C1.2-20.9,1.6-22.3,1.4-23.8z M-3.7-15.4L-3.7-15.4
		c-0.3,0.1-0.5,0.2-0.8,0.2h-12.4c-0.2,0-0.4,0-0.7-0.1c-1.1-0.3-1.9-1.4-1.9-2.6c0-1.5,1.2-2.7,2.7-2.7c0.2,0,0.4,0,0.6,0.1
		l1.2,0.2l0-1.2c0-2.2,1.9-4,4-4c1.9,0,3.5,1.3,3.9,3.1l0.3,1.1l1-0.4c0.4-0.1,0.7-0.2,1.1-0.2c1.8,0,3.3,1.5,3.3,3.3
		C-1.4-17.1-2.3-15.8-3.7-15.4z M-4.7-23.9c-0.3,0-0.5,0-0.8,0.1c-0.4-0.9-1-1.7-1.7-2.3c0.6-0.5,1.3-0.9,2.1-1c0.2,0,0.4,0,0.5,0
		c2,0,3.8,1.5,4,3.5c0.1,0.5,0,1.1-0.1,1.6C-1.6-23.1-3.1-23.9-4.7-23.9z"/>
</g>
<g id="XMLID_10755_">
	<g id="XMLID_10780_">
		<path id="XMLID_10781_" class="st0" d="M30-17.2c-3.3,0-6-2.7-6-6c0-3.3,2.7-6,6-6c3.3,0,6,2.7,6,6C36-19.9,33.3-17.2,30-17.2
			L30-17.2z M30-27.3c-2.2,0-4.1,1.8-4.1,4.1c0,2.2,1.8,4.1,4.1,4.1c2.2,0,4.1-1.8,4.1-4.1C34.1-25.5,32.2-27.3,30-27.3L30-27.3z"/>
	</g>
	<g id="XMLID_10778_">
		<path id="XMLID_10779_" class="st0" d="M30.1-31c-0.4,0-0.7-0.3-0.7-0.7v-2c0-0.4,0.3-0.7,0.7-0.7c0.4,0,0.7,0.3,0.7,0.7v2
			C30.9-31.4,30.5-31,30.1-31L30.1-31z"/>
	</g>
	<g id="XMLID_10776_">
		<path id="XMLID_10777_" class="st0" d="M25.9-30c-0.3,0-0.5-0.1-0.6-0.4l-1-1.7c-0.2-0.4-0.1-0.8,0.3-1c0.4-0.2,0.8-0.1,1,0.3
			l1,1.7c0.2,0.4,0.1,0.8-0.3,1C26.1-30,26-30,25.9-30L25.9-30z"/>
	</g>
	<g id="XMLID_10774_">
		<path id="XMLID_10775_" class="st0" d="M22.7-26.9c-0.1,0-0.3,0-0.4-0.1l-1.7-1c-0.4-0.2-0.5-0.7-0.3-1c0.2-0.4,0.7-0.5,1-0.3
			l1.7,1c0.4,0.2,0.5,0.7,0.3,1C23.2-27,23-26.9,22.7-26.9L22.7-26.9z"/>
	</g>
	<g id="XMLID_10772_">
		<path id="XMLID_10773_" class="st0" d="M21.5-22.7h-2c-0.4,0-0.7-0.3-0.7-0.7c0-0.4,0.3-0.7,0.7-0.7h2c0.4,0,0.7,0.3,0.7,0.7
			C22.2-23,21.9-22.7,21.5-22.7L21.5-22.7z"/>
	</g>
	<g id="XMLID_10770_">
		<path id="XMLID_10771_" class="st0" d="M20.9-17.4c-0.3,0-0.5-0.1-0.6-0.4c-0.2-0.4-0.1-0.8,0.3-1l1.7-1c0.4-0.2,0.8-0.1,1,0.3
			c0.2,0.4,0.1,0.8-0.3,1l-1.7,1C21.1-17.4,21-17.4,20.9-17.4L20.9-17.4z"/>
	</g>
	<g id="XMLID_10768_">
		<path id="XMLID_10769_" class="st0" d="M24.7-13.5c-0.1,0-0.3,0-0.4-0.1c-0.4-0.2-0.5-0.7-0.3-1l1-1.7c0.2-0.4,0.7-0.5,1-0.3
			c0.4,0.2,0.5,0.7,0.3,1l-1,1.7C25.2-13.7,24.9-13.5,24.7-13.5L24.7-13.5z"/>
	</g>
	<g id="XMLID_10766_">
		<path id="XMLID_10767_" class="st0" d="M29.9-12.1c-0.4,0-0.7-0.3-0.7-0.7v-2c0-0.4,0.3-0.7,0.7-0.7c0.4,0,0.7,0.3,0.7,0.7v2
			C30.6-12.4,30.3-12.1,29.9-12.1L29.9-12.1z"/>
	</g>
	<g id="XMLID_10764_">
		<path id="XMLID_10765_" class="st0" d="M35.1-13.4c-0.3,0-0.5-0.1-0.6-0.4l-1-1.7c-0.2-0.4-0.1-0.8,0.3-1c0.4-0.2,0.8-0.1,1,0.3
			l1,1.7c0.2,0.4,0.1,0.8-0.3,1C35.4-13.4,35.3-13.4,35.1-13.4L35.1-13.4z"/>
	</g>
	<g id="XMLID_10762_">
		<path id="XMLID_10763_" class="st0" d="M39-17.2c-0.1,0-0.3,0-0.4-0.1l-1.7-1c-0.4-0.2-0.5-0.7-0.3-1c0.2-0.4,0.7-0.5,1-0.3l1.7,1
			c0.4,0.2,0.5,0.7,0.3,1C39.5-17.3,39.3-17.2,39-17.2L39-17.2z"/>
	</g>
	<g id="XMLID_10760_">
		<path id="XMLID_10761_" class="st0" d="M40.5-22.4h-2c-0.4,0-0.7-0.3-0.7-0.7s0.3-0.7,0.7-0.7h2c0.4,0,0.7,0.3,0.7,0.7
			S40.9-22.4,40.5-22.4L40.5-22.4z"/>
	</g>
	<g id="XMLID_10758_">
		<path id="XMLID_10759_" class="st0" d="M37.4-26.7c-0.3,0-0.5-0.1-0.6-0.4c-0.2-0.4-0.1-0.8,0.3-1l1.7-1c0.4-0.2,0.8-0.1,1,0.3
			c0.2,0.4,0.1,0.8-0.3,1l-1.7,1C37.7-26.7,37.5-26.7,37.4-26.7L37.4-26.7z"/>
	</g>
	<g id="XMLID_10756_">
		<path id="XMLID_10757_" class="st0" d="M34.4-29.8c-0.1,0-0.3,0-0.4-0.1c-0.4-0.2-0.5-0.7-0.3-1l1-1.7c0.2-0.4,0.7-0.5,1-0.3
			c0.4,0.2,0.5,0.7,0.3,1l-1,1.7C34.9-30,34.6-29.8,34.4-29.8L34.4-29.8z"/>
	</g>
</g>
<g id="XMLID_1022_">
	<path id="XMLID_1024_" class="st0" d="M5.7,14.6h10.3c2,0,2.9-1.4,2.9-2.7c0-0.8-0.3-1.5-0.8-2.1c-0.6-0.6-1.5-1-2.6-1
		c-0.9,0-1.7,0.8-1.7,1.7c0,0.4,0.3,0.7,0.7,0.7c0.1,0,0.1,0,0.1-0.1c0-0.4,0.4-0.8,0.8-0.8c0.4,0,0.8,0.4,0.8,0.8
		c0,0.9-0.8,1.7-1.7,1.7c-1.3,0-2.3-1-2.3-2.3c0-1.8,1.5-3.3,3.3-3.3c1.9,0,3.1,0.8,3.7,1.4c0.8,0.8,1.3,2,1.3,3.2
		c0,1.1-0.4,2.3-1.2,3.1c0.3,0.1,0.6,0.2,0.9,0.3c0.9,0.4,1.5,1.1,1.9,1.9c0.3,0.9,0.3,1.8,0,2.7c-0.3,0.6-0.7,1.1-1.3,1.3
		c-0.3,0.1-0.6,0.2-0.9,0.2c-0.3,0-0.7-0.1-1-0.2c-0.4-0.2-0.8-0.5-0.9-1c-0.2-0.4-0.2-0.9,0-1.4c0.1-0.3,0.4-0.6,0.8-0.7
		c0.3-0.1,0.7-0.1,1.1,0c0.4,0.2,0.6,0.7,0.4,1.1c-0.1,0.3-0.4,0.5-0.7,0.5c0,0,0,0,0.1,0c0.2,0.1,0.4,0.1,0.6,0
		c0.2-0.1,0.4-0.2,0.4-0.4c0.2-0.5,0.2-1,0-1.4c-0.2-0.5-0.6-0.8-1-1.1c-0.7-0.3-1.8-0.5-3-0.5c0,0-0.1,0-0.1,0c-0.1,0-0.3,0-0.4,0
		H5.7c-0.4,0-0.8-0.4-0.8-0.8S5.2,14.6,5.7,14.6z"/>
	<path id="XMLID_1023_" class="st0" d="M9,17.2h4.5c1.8,0,3.3,1.5,3.3,3.3c0,1.3-1,2.3-2.3,2.3c-0.9,0-1.7-0.8-1.7-1.7
		c0-0.4,0.4-0.8,0.8-0.8c0.4,0,0.8,0.4,0.8,0.8c0,0.1,0,0.1,0.1,0.1c0.4,0,0.7-0.3,0.7-0.7c0-0.9-0.8-1.7-1.7-1.7H9
		c-0.4,0-0.8-0.4-0.8-0.8C8.2,17.5,8.6,17.2,9,17.2z"/>
</g>
<g id="XMLID_114_">
	<path id="XMLID_115_" d="M-67.1,51.1c-0.2-0.5-0.5-0.9-0.9-0.9c-0.3,0-0.5,0.2-0.5,0.6c0,0.4,0.3,0.6,0.7,0.7
		c0.7,0.3,1.1,0.6,1.1,1.2c0,0.8-0.7,1.2-1.5,1.2c-0.5,0-0.9-0.2-1-0.3c-0.1-0.1-0.1-0.7-0.2-1.1l0.2,0c0.2,0.6,0.6,1.1,1.1,1.1
		c0.3,0,0.6-0.2,0.6-0.6c0-0.4-0.2-0.5-0.7-0.7c-0.5-0.2-1.1-0.5-1.1-1.2c0-0.6,0.5-1.1,1.3-1.1c0.4,0,0.6,0.1,0.8,0.2
		c0.1,0.2,0.2,0.7,0.2,0.9L-67.1,51.1z"/>
	<path id="XMLID_117_" d="M-61.8,53.6c-0.2,0-0.4,0.1-0.7,0.1c-0.2,0.1-0.5,0.1-0.7,0.2l-0.1,0v-0.6c-0.2,0.1-0.4,0.3-0.6,0.4
		c-0.3,0.1-0.4,0.2-0.7,0.2c-0.6,0-1.1-0.4-1.1-1.3V51c0-0.5-0.1-0.5-0.3-0.6l-0.2-0.1v-0.2c0.2,0,0.4,0,0.7-0.1
		c0.2,0,0.5-0.1,0.7-0.1c0,0.3,0,0.7,0,1.2v1.2c0,0.7,0.4,0.9,0.8,0.9c0.3,0,0.6-0.1,0.9-0.4v-2c0-0.5-0.1-0.5-0.4-0.6l-0.3-0.1
		v-0.2c0.2,0,0.6,0,0.8-0.1c0.3,0,0.5-0.1,0.6-0.1v2.8c0,0.4,0.1,0.5,0.4,0.5l0.2,0V53.6z"/>
	<path id="XMLID_119_" d="M-59,53.8v-0.2c0.5-0.1,0.6-0.1,0.6-0.7v-1.4c0-0.6-0.2-1-0.8-1c-0.3,0-0.7,0.2-0.9,0.4v2
		c0,0.6,0,0.6,0.6,0.7v0.2h-1.9v-0.2c0.6-0.1,0.6-0.1,0.6-0.7v-1.7c0-0.6-0.1-0.6-0.5-0.7v-0.2c0.4-0.1,0.9-0.2,1.3-0.3v0.7
		c0.2-0.1,0.4-0.3,0.6-0.4c0.2-0.2,0.5-0.3,0.7-0.3c0.7,0,1.1,0.5,1.1,1.3v1.6c0,0.6,0.1,0.6,0.6,0.7v0.2H-59z"/>
	<path id="XMLID_121_" d="M-54.1,53.8v-0.2c0.5-0.1,0.6-0.1,0.6-0.7v-1.4c0-0.6-0.2-1-0.8-1c-0.3,0-0.7,0.2-0.9,0.4v2
		c0,0.6,0,0.6,0.6,0.7v0.2h-1.9v-0.2c0.6-0.1,0.6-0.1,0.6-0.7v-1.7c0-0.6-0.1-0.6-0.5-0.7v-0.2c0.4-0.1,0.9-0.2,1.3-0.3v0.7
		c0.2-0.1,0.4-0.3,0.6-0.4c0.2-0.2,0.5-0.3,0.7-0.3c0.7,0,1.1,0.5,1.1,1.3v1.6c0,0.6,0.1,0.6,0.6,0.7v0.2H-54.1z"/>
	<path id="XMLID_123_" d="M-47.9,50.3c-0.5,0.1-0.5,0.1-0.8,0.6c-0.2,0.4-0.5,1.2-1.1,2.5c-0.6,1.4-0.8,1.9-0.9,2.3
		c0,0.2-0.2,0.2-0.3,0.2c-0.3,0-0.5-0.2-0.5-0.4c0-0.1,0.1-0.2,0.2-0.3c0.3-0.2,0.5-0.4,0.7-0.8c0.2-0.3,0.2-0.5,0.3-0.6
		c0.1-0.1,0-0.2,0-0.4c-0.4-1-0.8-2.1-1-2.6c-0.2-0.4-0.3-0.6-0.8-0.6v-0.2h1.8l0,0.2c-0.4,0.1-0.5,0.1-0.3,0.5l0.8,2.1
		c0.2-0.5,0.6-1.6,0.8-2.1c0.1-0.3,0-0.4-0.4-0.5v-0.2h1.6V50.3z"/>
	<path id="XMLID_125_" d="M-47.2,52.7c0.3,0,0.8,0.4,0.8,1c0,0.7-0.6,1.1-1.2,1.2l-0.1-0.3c0.4-0.2,0.7-0.4,0.7-0.7
		c0-0.3-0.2-0.5-0.6-0.6c0,0-0.1-0.1-0.1-0.2C-47.7,52.8-47.4,52.7-47.2,52.7L-47.2,52.7z"/>
	<path id="XMLID_127_" d="M-41.4,50.1C-41.2,50-41,50-40.9,50c1,0,1.6,0.8,1.6,1.6c0,1.3-1,2.1-2.2,2.3c-0.3,0-0.5-0.1-0.6-0.1v1.1
		c0,0.6,0.1,0.7,0.7,0.7v0.2h-2.1v-0.2c0.6-0.1,0.6-0.1,0.6-0.7v-3.9c0-0.5,0-0.6-0.6-0.6v-0.2c0.4-0.1,0.9-0.2,1.3-0.4v0.7
		L-41.4,50.1z M-42.1,53.2c0.2,0.2,0.5,0.3,0.8,0.3c0.7,0,1.2-0.7,1.2-1.5c0-0.9-0.6-1.4-1.2-1.4c-0.3,0-0.6,0.2-0.8,0.4V53.2z"/>
	<path id="XMLID_130_" d="M-36,53.9c-0.2,0-0.4-0.1-0.4-0.2c-0.1-0.1-0.2-0.2-0.2-0.4c-0.4,0.2-0.8,0.5-1,0.5
		c-0.7,0-1.1-0.5-1.1-1.1c0-0.4,0.2-0.7,0.7-0.8c0.6-0.2,1.2-0.4,1.3-0.6v-0.2c0-0.6-0.3-0.9-0.7-0.9c-0.2,0-0.3,0.1-0.4,0.2
		c-0.1,0.1-0.2,0.3-0.3,0.6c-0.1,0.2-0.1,0.2-0.3,0.2c-0.2,0-0.4-0.2-0.4-0.4c0-0.1,0.1-0.2,0.3-0.4c0.3-0.2,0.8-0.5,1.3-0.6
		c0.3,0,0.5,0.1,0.7,0.2c0.3,0.3,0.4,0.6,0.4,1.1v1.5c0,0.4,0.2,0.5,0.3,0.5c0.1,0,0.2,0,0.3-0.1l0.1,0.2L-36,53.9z M-36.7,51.8
		c-0.2,0.1-0.5,0.3-0.7,0.3c-0.3,0.1-0.5,0.3-0.5,0.6c0,0.5,0.3,0.7,0.6,0.7c0.2,0,0.5-0.1,0.6-0.3V51.8z"/>
	<path id="XMLID_133_" d="M-33.5,50.9c0.3-0.5,0.6-0.9,1-0.9c0.3,0,0.5,0.2,0.5,0.4c0,0.2-0.1,0.4-0.3,0.5c-0.1,0-0.2,0-0.2,0
		c-0.1-0.1-0.2-0.2-0.4-0.2c-0.2,0-0.5,0.3-0.7,0.7v1.5c0,0.6,0,0.6,0.7,0.7v0.2h-2.1v-0.2c0.5-0.1,0.6-0.1,0.6-0.7v-1.8
		c0-0.5,0-0.6-0.5-0.7v-0.2c0.4-0.1,0.8-0.2,1.3-0.4L-33.5,50.9L-33.5,50.9z"/>
	<path id="XMLID_135_" d="M-29.8,53.8c-0.2,0.1-0.3,0.1-0.4,0.1c-0.6,0-0.9-0.3-0.9-1v-2.5h-0.6l0-0.1l0.2-0.3h0.4v-0.6l0.6-0.6
		l0.1,0v1.2h1c0.1,0.1,0.1,0.3-0.1,0.4h-0.9v2.2c0,0.7,0.3,0.8,0.5,0.8c0.2,0,0.4-0.1,0.5-0.1l0.1,0.2L-29.8,53.8z"/>
	<path id="XMLID_137_" d="M-29,53.8v-0.2c0.5-0.1,0.6-0.1,0.6-0.7v-4c0-0.6-0.1-0.6-0.6-0.7V48c0.5-0.1,1-0.2,1.3-0.3v5.2
		c0,0.6,0.1,0.6,0.6,0.7v0.2H-29z"/>
	<path id="XMLID_139_" d="M-22.7,50.3c-0.5,0.1-0.5,0.1-0.8,0.6c-0.2,0.4-0.5,1.2-1.1,2.5c-0.6,1.4-0.8,1.9-0.9,2.3
		c0,0.2-0.2,0.2-0.3,0.2c-0.3,0-0.5-0.2-0.5-0.4c0-0.1,0.1-0.2,0.2-0.3c0.3-0.2,0.5-0.4,0.7-0.8c0.2-0.3,0.2-0.5,0.3-0.6
		c0.1-0.1,0-0.2,0-0.4c-0.4-1-0.8-2.1-1-2.6c-0.2-0.4-0.3-0.6-0.8-0.6v-0.2h1.8l0,0.2c-0.4,0.1-0.5,0.1-0.3,0.5l0.8,2.1
		c0.2-0.5,0.6-1.6,0.8-2.1c0.1-0.3,0-0.4-0.4-0.5v-0.2h1.6V50.3z"/>
	<path id="XMLID_141_" d="M-20.3,52.2h-2l0.1-0.5h2.1L-20.3,52.2z"/>
	<path id="XMLID_143_" d="M-16.1,53c-0.4,0.5-1,0.9-1.5,0.9c-1.1,0-1.8-0.9-1.8-1.8c0-0.7,0.3-1.2,0.9-1.7c0.5-0.4,1-0.5,1.3-0.5h0
		c0.4,0,0.6,0.1,0.8,0.2c0.1,0.1,0.1,0.2,0.1,0.3c0,0.2-0.2,0.4-0.3,0.4c-0.1,0-0.1,0-0.2-0.1c-0.3-0.3-0.6-0.4-0.9-0.4
		c-0.5,0-1,0.4-1,1.3c0,1.2,0.9,1.6,1.3,1.6c0.4,0,0.7-0.1,1-0.5L-16.1,53z"/>
	<path id="XMLID_145_" d="M-15.9,53.8v-0.2c0.5-0.1,0.6-0.1,0.6-0.7v-4c0-0.6-0.1-0.6-0.6-0.7V48c0.5-0.1,1-0.2,1.3-0.3v5.2
		c0,0.6,0.1,0.6,0.6,0.7v0.2H-15.9z"/>
	<path id="XMLID_147_" d="M-11.5,50c1.1,0,1.9,0.9,1.9,1.9c0,1.4-1.1,2-1.9,2c-1.2,0-2-0.9-2-1.9C-13.5,50.7-12.3,50-11.5,50
		L-11.5,50z M-11.6,50.3c-0.5,0-1,0.5-1,1.5c0,1.1,0.5,1.9,1.2,1.9c0.5,0,1-0.3,1-1.5C-10.4,51.1-10.8,50.3-11.6,50.3L-11.6,50.3z"
		/>
	<path id="XMLID_150_" d="M-4.6,53.6c-0.2,0-0.4,0.1-0.7,0.1c-0.2,0.1-0.5,0.1-0.7,0.2l-0.1,0v-0.6c-0.2,0.1-0.4,0.3-0.6,0.4
		c-0.3,0.1-0.4,0.2-0.7,0.2c-0.6,0-1.1-0.4-1.1-1.3V51c0-0.5-0.1-0.5-0.3-0.6L-9,50.4v-0.2c0.2,0,0.4,0,0.7-0.1
		c0.2,0,0.5-0.1,0.7-0.1c0,0.3,0,0.7,0,1.2v1.2c0,0.7,0.4,0.9,0.8,0.9c0.3,0,0.6-0.1,0.9-0.4v-2c0-0.5-0.1-0.5-0.4-0.6l-0.3-0.1
		v-0.2c0.2,0,0.6,0,0.8-0.1c0.3,0,0.5-0.1,0.6-0.1v2.8c0,0.4,0.1,0.5,0.4,0.5l0.2,0V53.6z"/>
	<path id="XMLID_152_" d="M0,53.6c-0.2,0-0.9,0.1-1.4,0.3v-0.6l-0.5,0.3c-0.3,0.2-0.6,0.2-0.7,0.2c-0.7,0-1.7-0.6-1.7-1.8
		c0-1.2,1.1-2.1,2.3-2.1c0.1,0,0.4,0,0.6,0.1v-1.2c0-0.6-0.1-0.6-0.7-0.6V48c0.5-0.1,1.1-0.2,1.4-0.3v5.1c0,0.5,0.1,0.5,0.4,0.5
		l0.2,0V53.6z M-1.4,50.8c-0.2-0.3-0.6-0.4-0.9-0.4c-0.4,0-1.1,0.3-1.1,1.6c0,1,0.7,1.5,1.2,1.5c0.3,0,0.6-0.1,0.8-0.3V50.8z"/>
	<path id="XMLID_155_" d="M4.3,50.3c-0.5,0.1-0.5,0.1-0.8,0.6c-0.2,0.4-0.5,1.2-1.1,2.5c-0.6,1.4-0.8,1.9-0.9,2.3
		C1.5,56,1.4,56,1.3,56c-0.3,0-0.5-0.2-0.5-0.4c0-0.1,0.1-0.2,0.2-0.3c0.3-0.2,0.5-0.4,0.7-0.8c0.2-0.3,0.2-0.5,0.3-0.6
		c0.1-0.1,0-0.2,0-0.4c-0.4-1-0.8-2.1-1-2.6c-0.2-0.4-0.3-0.6-0.8-0.6v-0.2H2l0,0.2c-0.4,0.1-0.5,0.1-0.3,0.5l0.8,2.1
		c0.2-0.5,0.6-1.6,0.8-2.1c0.1-0.3,0-0.4-0.4-0.5v-0.2h1.6V50.3z"/>
	<path id="XMLID_157_" d="M5,52.7c0.3,0,0.8,0.4,0.8,1c0,0.7-0.6,1.1-1.2,1.2l-0.1-0.3c0.4-0.2,0.7-0.4,0.7-0.7
		c0-0.3-0.2-0.5-0.6-0.6c0,0-0.1-0.1-0.1-0.2C4.5,52.8,4.8,52.7,5,52.7L5,52.7z"/>
	<path id="XMLID_159_" d="M11.1,51.1c-0.2-0.5-0.5-0.9-0.9-0.9c-0.3,0-0.5,0.2-0.5,0.6c0,0.4,0.3,0.6,0.7,0.7
		c0.7,0.3,1.1,0.6,1.1,1.2c0,0.8-0.7,1.2-1.5,1.2c-0.5,0-0.9-0.2-1-0.3c-0.1-0.1-0.1-0.7-0.2-1.1l0.2,0c0.2,0.6,0.6,1.1,1.1,1.1
		c0.3,0,0.6-0.2,0.6-0.6c0-0.4-0.2-0.5-0.7-0.7C9.6,52.1,9,51.8,9,51.1c0-0.6,0.5-1.1,1.3-1.1c0.4,0,0.6,0.1,0.8,0.2
		c0.1,0.2,0.2,0.7,0.2,0.9L11.1,51.1z"/>
	<path id="XMLID_161_" d="M16.3,53.6c-0.2,0-0.4,0.1-0.7,0.1c-0.2,0.1-0.5,0.1-0.7,0.2l-0.1,0v-0.6c-0.2,0.1-0.4,0.3-0.6,0.4
		c-0.3,0.1-0.4,0.2-0.7,0.2c-0.6,0-1.1-0.4-1.1-1.3V51c0-0.5-0.1-0.5-0.3-0.6L12,50.4v-0.2c0.2,0,0.4,0,0.7-0.1
		c0.2,0,0.5-0.1,0.7-0.1c0,0.3,0,0.7,0,1.2v1.2c0,0.7,0.4,0.9,0.8,0.9c0.3,0,0.6-0.1,0.9-0.4v-2c0-0.5-0.1-0.5-0.4-0.6l-0.3-0.1
		v-0.2c0.2,0,0.6,0,0.8-0.1c0.3,0,0.5-0.1,0.6-0.1v2.8c0,0.4,0.1,0.5,0.4,0.5l0.2,0V53.6z"/>
	<path id="XMLID_163_" d="M19.2,53.8v-0.2c0.5-0.1,0.6-0.1,0.6-0.7v-1.4c0-0.6-0.2-1-0.8-1c-0.3,0-0.7,0.2-0.9,0.4v2
		c0,0.6,0,0.6,0.6,0.7v0.2h-1.9v-0.2c0.6-0.1,0.6-0.1,0.6-0.7v-1.7c0-0.6-0.1-0.6-0.5-0.7v-0.2c0.4-0.1,0.9-0.2,1.3-0.3v0.7
		c0.2-0.1,0.4-0.3,0.6-0.4c0.2-0.2,0.5-0.3,0.7-0.3c0.7,0,1.1,0.5,1.1,1.3v1.6c0,0.6,0.1,0.6,0.6,0.7v0.2H19.2z"/>
	<path id="XMLID_165_" d="M24,53.8v-0.2c0.5-0.1,0.6-0.1,0.6-0.7v-1.4c0-0.6-0.2-1-0.8-1c-0.3,0-0.7,0.2-0.9,0.4v2
		c0,0.6,0,0.6,0.6,0.7v0.2h-1.9v-0.2c0.6-0.1,0.6-0.1,0.6-0.7v-1.7c0-0.6-0.1-0.6-0.5-0.7v-0.2c0.4-0.1,0.9-0.2,1.3-0.3v0.7
		c0.2-0.1,0.4-0.3,0.6-0.4c0.2-0.2,0.5-0.3,0.7-0.3c0.7,0,1.1,0.5,1.1,1.3v1.6c0,0.6,0.1,0.6,0.6,0.7v0.2H24z"/>
	<path id="XMLID_167_" d="M30.3,50.3c-0.5,0.1-0.5,0.1-0.8,0.6c-0.2,0.4-0.5,1.2-1.1,2.5c-0.6,1.4-0.8,1.9-0.9,2.3
		c0,0.2-0.2,0.2-0.3,0.2c-0.3,0-0.5-0.2-0.5-0.4c0-0.1,0.1-0.2,0.2-0.3c0.3-0.2,0.5-0.4,0.7-0.8c0.2-0.3,0.2-0.5,0.3-0.6
		c0.1-0.1,0-0.2,0-0.4c-0.4-1-0.8-2.1-1-2.6c-0.2-0.4-0.3-0.6-0.8-0.6v-0.2h1.8l0,0.2c-0.4,0.1-0.5,0.1-0.3,0.5l0.8,2.1
		c0.2-0.5,0.6-1.6,0.8-2.1c0.1-0.3,0-0.4-0.4-0.5v-0.2h1.6V50.3z"/>
	<path id="XMLID_169_" d="M32.7,52.2h-2l0.1-0.5h2.1L32.7,52.2z"/>
	<path id="XMLID_171_" d="M34.9,50.9c0.3-0.5,0.6-0.9,1-0.9c0.3,0,0.5,0.2,0.5,0.4c0,0.2-0.1,0.4-0.3,0.5c-0.1,0-0.2,0-0.2,0
		c-0.1-0.1-0.2-0.2-0.4-0.2c-0.2,0-0.5,0.3-0.7,0.7v1.5c0,0.6,0,0.6,0.7,0.7v0.2h-2.1v-0.2c0.5-0.1,0.6-0.1,0.6-0.7v-1.8
		c0-0.5,0-0.6-0.5-0.7v-0.2c0.4-0.1,0.8-0.2,1.3-0.4L34.9,50.9L34.9,50.9z"/>
	<path id="XMLID_173_" d="M39.6,53.9c-0.2,0-0.4-0.1-0.4-0.2c-0.1-0.1-0.2-0.2-0.2-0.4c-0.4,0.2-0.8,0.5-1,0.5
		c-0.7,0-1.1-0.5-1.1-1.1c0-0.4,0.2-0.7,0.7-0.8c0.6-0.2,1.2-0.4,1.3-0.6v-0.2c0-0.6-0.3-0.9-0.7-0.9c-0.2,0-0.3,0.1-0.4,0.2
		c-0.1,0.1-0.2,0.3-0.3,0.6c-0.1,0.2-0.1,0.2-0.3,0.2c-0.2,0-0.4-0.2-0.4-0.4c0-0.1,0.1-0.2,0.3-0.4c0.3-0.2,0.8-0.5,1.3-0.6
		c0.3,0,0.5,0.1,0.7,0.2c0.3,0.3,0.4,0.6,0.4,1.1v1.5c0,0.4,0.2,0.5,0.3,0.5c0.1,0,0.2,0,0.3-0.1l0.1,0.2L39.6,53.9z M38.9,51.8
		c-0.2,0.1-0.5,0.3-0.7,0.3c-0.3,0.1-0.5,0.3-0.5,0.6c0,0.5,0.3,0.7,0.6,0.7c0.2,0,0.5-0.1,0.6-0.3V51.8z"/>
	<path id="XMLID_176_" d="M40.7,53.8v-0.2c0.5-0.1,0.6-0.1,0.6-0.7v-1.7c0-0.5,0-0.6-0.5-0.7v-0.2c0.5-0.1,0.9-0.2,1.3-0.3v2.9
		c0,0.6,0.1,0.6,0.6,0.7v0.2H40.7z M41.2,48.8c0-0.3,0.2-0.5,0.5-0.5s0.5,0.2,0.5,0.5c0,0.2-0.2,0.5-0.5,0.5
		C41.4,49.3,41.2,49.1,41.2,48.8z"/>
	<path id="XMLID_179_" d="M45.6,53.8v-0.2c0.5-0.1,0.6-0.1,0.6-0.7v-1.4c0-0.6-0.2-1-0.8-1c-0.3,0-0.7,0.2-0.9,0.4v2
		c0,0.6,0,0.6,0.6,0.7v0.2h-1.9v-0.2c0.6-0.1,0.6-0.1,0.6-0.7v-1.7c0-0.6-0.1-0.6-0.5-0.7v-0.2c0.4-0.1,0.9-0.2,1.3-0.3v0.7
		c0.2-0.1,0.4-0.3,0.6-0.4c0.2-0.2,0.5-0.3,0.7-0.3c0.7,0,1.1,0.5,1.1,1.3v1.6c0,0.6,0.1,0.6,0.6,0.7v0.2H45.6z"/>
	<path id="XMLID_181_" d="M51.9,50.3c-0.5,0.1-0.5,0.1-0.8,0.6c-0.2,0.4-0.5,1.2-1.1,2.5c-0.6,1.4-0.8,1.9-0.9,2.3
		c0,0.2-0.2,0.2-0.3,0.2c-0.3,0-0.5-0.2-0.5-0.4c0-0.1,0.1-0.2,0.2-0.3c0.3-0.2,0.5-0.4,0.7-0.8c0.2-0.3,0.2-0.5,0.3-0.6
		c0.1-0.1,0-0.2,0-0.4c-0.4-1-0.8-2.1-1-2.6c-0.2-0.4-0.3-0.6-0.8-0.6v-0.2h1.8l0,0.2c-0.4,0.1-0.5,0.1-0.3,0.5l0.8,2.1
		c0.2-0.5,0.6-1.6,0.8-2.1c0.1-0.3,0-0.4-0.4-0.5v-0.2h1.6V50.3z"/>
	<path id="XMLID_183_" d="M52.5,52.7c0.3,0,0.8,0.4,0.8,1c0,0.7-0.6,1.1-1.2,1.2L52,54.6c0.4-0.2,0.7-0.4,0.7-0.7
		c0-0.3-0.2-0.5-0.6-0.6c0,0-0.1-0.1-0.1-0.2C52.1,52.8,52.3,52.7,52.5,52.7L52.5,52.7z"/>
	<path id="XMLID_185_" d="M57.7,50.9c0.3-0.5,0.6-0.9,1-0.9c0.3,0,0.5,0.2,0.5,0.4c0,0.2-0.1,0.4-0.3,0.5c-0.1,0-0.2,0-0.2,0
		c-0.1-0.1-0.2-0.2-0.4-0.2c-0.2,0-0.5,0.3-0.7,0.7v1.5c0,0.6,0,0.6,0.7,0.7v0.2h-2.1v-0.2c0.5-0.1,0.6-0.1,0.6-0.7v-1.8
		c0-0.5,0-0.6-0.5-0.7v-0.2c0.4-0.1,0.8-0.2,1.3-0.4L57.7,50.9L57.7,50.9z"/>
	<path id="XMLID_187_" d="M62.4,53.9c-0.2,0-0.4-0.1-0.4-0.2c-0.1-0.1-0.2-0.2-0.2-0.4c-0.4,0.2-0.8,0.5-1,0.5
		c-0.7,0-1.1-0.5-1.1-1.1c0-0.4,0.2-0.7,0.7-0.8c0.6-0.2,1.2-0.4,1.3-0.6v-0.2c0-0.6-0.3-0.9-0.7-0.9c-0.2,0-0.3,0.1-0.4,0.2
		c-0.1,0.1-0.2,0.3-0.3,0.6c-0.1,0.2-0.1,0.2-0.3,0.2c-0.2,0-0.4-0.2-0.4-0.4c0-0.1,0.1-0.2,0.3-0.4c0.3-0.2,0.8-0.5,1.3-0.6
		c0.3,0,0.5,0.1,0.7,0.2c0.3,0.3,0.4,0.6,0.4,1.1v1.5c0,0.4,0.2,0.5,0.3,0.5c0.1,0,0.2,0,0.3-0.1l0.1,0.2L62.4,53.9z M61.7,51.8
		c-0.2,0.1-0.5,0.3-0.7,0.3c-0.3,0.1-0.5,0.3-0.5,0.6c0,0.5,0.3,0.7,0.6,0.7c0.2,0,0.5-0.1,0.6-0.3V51.8z"/>
	<path id="XMLID_190_" d="M63.5,53.8v-0.2c0.5-0.1,0.6-0.1,0.6-0.7v-1.7c0-0.5,0-0.6-0.5-0.7v-0.2c0.5-0.1,0.9-0.2,1.3-0.3v2.9
		c0,0.6,0.1,0.6,0.6,0.7v0.2H63.5z M63.9,48.8c0-0.3,0.2-0.5,0.5-0.5s0.5,0.2,0.5,0.5c0,0.2-0.2,0.5-0.5,0.5
		C64.2,49.3,63.9,49.1,63.9,48.8z"/>
	<path id="XMLID_193_" d="M68.4,53.8v-0.2c0.5-0.1,0.6-0.1,0.6-0.7v-1.4c0-0.6-0.2-1-0.8-1c-0.3,0-0.7,0.2-0.9,0.4v2
		c0,0.6,0,0.6,0.6,0.7v0.2h-1.9v-0.2c0.6-0.1,0.6-0.1,0.6-0.7v-1.7c0-0.6-0.1-0.6-0.5-0.7v-0.2c0.4-0.1,0.9-0.2,1.3-0.3v0.7
		c0.2-0.1,0.4-0.3,0.6-0.4c0.2-0.2,0.5-0.3,0.7-0.3c0.7,0,1.1,0.5,1.1,1.3v1.6c0,0.6,0.1,0.6,0.6,0.7v0.2H68.4z"/>
	<path id="XMLID_195_" d="M74.6,50.3c-0.5,0.1-0.5,0.1-0.8,0.6c-0.2,0.4-0.5,1.2-1.1,2.5c-0.6,1.4-0.8,1.9-0.9,2.3
		c0,0.2-0.2,0.2-0.3,0.2c-0.3,0-0.5-0.2-0.5-0.4c0-0.1,0.1-0.2,0.2-0.3c0.3-0.2,0.5-0.4,0.7-0.8c0.2-0.3,0.2-0.5,0.3-0.6
		c0.1-0.1,0-0.2,0-0.4c-0.4-1-0.8-2.1-1-2.6c-0.2-0.4-0.3-0.6-0.8-0.6v-0.2h1.8l0,0.2c-0.4,0.1-0.5,0.1-0.3,0.5l0.8,2.1
		c0.2-0.5,0.6-1.6,0.8-2.1c0.1-0.3,0-0.4-0.4-0.5v-0.2h1.6V50.3z"/>
	<path id="XMLID_197_" d="M75.3,52.7c0.3,0,0.8,0.4,0.8,1c0,0.7-0.6,1.1-1.2,1.2l-0.1-0.3c0.4-0.2,0.7-0.4,0.7-0.7
		c0-0.3-0.2-0.5-0.6-0.6c0,0-0.1-0.1-0.1-0.2C74.8,52.8,75.1,52.7,75.3,52.7L75.3,52.7z"/>
	<path id="XMLID_199_" d="M84.9,50.3c-0.4,0.1-0.5,0.2-0.7,0.6c-0.3,0.7-0.7,1.8-1.1,3h-0.3c-0.4-0.9-0.7-1.8-1.1-2.6
		c-0.3,0.9-0.7,1.7-1,2.6h-0.3c-0.3-1-0.7-2-1-3c-0.2-0.4-0.2-0.5-0.6-0.6v-0.2h1.9v0.2c-0.5,0.1-0.6,0.1-0.4,0.5
		c0.2,0.6,0.4,1.3,0.6,1.9h0c0.3-0.8,0.7-1.7,1-2.6h0.2c0.3,0.9,0.7,1.8,1,2.7h0c0.2-0.5,0.4-1.3,0.6-1.9c0.1-0.4,0.1-0.5-0.5-0.6
		v-0.2h1.6V50.3z"/>
	<path id="XMLID_201_" d="M85.1,53.8v-0.2c0.5-0.1,0.6-0.1,0.6-0.7v-1.7c0-0.5,0-0.6-0.5-0.7v-0.2c0.5-0.1,0.9-0.2,1.3-0.3v2.9
		c0,0.6,0.1,0.6,0.6,0.7v0.2H85.1z M85.5,48.8c0-0.3,0.2-0.5,0.5-0.5s0.5,0.2,0.5,0.5c0,0.2-0.2,0.5-0.5,0.5
		C85.8,49.3,85.5,49.1,85.5,48.8z"/>
	<path id="XMLID_204_" d="M90,53.8v-0.2c0.5-0.1,0.6-0.1,0.6-0.7v-1.4c0-0.6-0.2-1-0.8-1c-0.3,0-0.7,0.2-0.9,0.4v2
		c0,0.6,0,0.6,0.6,0.7v0.2h-1.9v-0.2c0.6-0.1,0.6-0.1,0.6-0.7v-1.7c0-0.6-0.1-0.6-0.5-0.7v-0.2c0.4-0.1,0.9-0.2,1.3-0.3v0.7
		c0.2-0.1,0.4-0.3,0.6-0.4c0.2-0.2,0.5-0.3,0.7-0.3c0.7,0,1.1,0.5,1.1,1.3v1.6c0,0.6,0.1,0.6,0.6,0.7v0.2H90z"/>
	<path id="XMLID_206_" d="M96.6,53.6c-0.2,0-0.9,0.1-1.4,0.3v-0.6l-0.5,0.3c-0.3,0.2-0.6,0.2-0.7,0.2c-0.7,0-1.7-0.6-1.7-1.8
		c0-1.2,1.1-2.1,2.3-2.1c0.1,0,0.4,0,0.6,0.1v-1.2c0-0.6-0.1-0.6-0.7-0.6V48c0.5-0.1,1.1-0.2,1.4-0.3v5.1c0,0.5,0.1,0.5,0.4,0.5
		l0.2,0V53.6z M95.2,50.8c-0.2-0.3-0.6-0.4-0.9-0.4c-0.4,0-1.1,0.3-1.1,1.6c0,1,0.7,1.5,1.2,1.5c0.3,0,0.6-0.1,0.8-0.3V50.8z"/>
	<path id="XMLID_209_" d="M100.9,50.3c-0.5,0.1-0.5,0.1-0.8,0.6c-0.2,0.4-0.5,1.2-1.1,2.5c-0.6,1.4-0.8,1.9-0.9,2.3
		c0,0.2-0.2,0.2-0.3,0.2c-0.3,0-0.5-0.2-0.5-0.4c0-0.1,0.1-0.2,0.2-0.3c0.3-0.2,0.5-0.4,0.7-0.8c0.2-0.3,0.2-0.5,0.3-0.6
		c0.1-0.1,0-0.2,0-0.4c-0.4-1-0.8-2.1-1-2.6c-0.2-0.4-0.3-0.6-0.8-0.6v-0.2h1.8l0,0.2c-0.4,0.1-0.5,0.1-0.3,0.5l0.8,2.1
		c0.2-0.5,0.6-1.6,0.8-2.1c0.1-0.3,0-0.4-0.4-0.5v-0.2h1.6V50.3z"/>
	<path id="XMLID_211_" d="M101.6,52.7c0.3,0,0.8,0.4,0.8,1c0,0.7-0.6,1.1-1.2,1.2l-0.1-0.3c0.4-0.2,0.7-0.4,0.7-0.7
		c0-0.3-0.2-0.5-0.6-0.6c0,0-0.1-0.1-0.1-0.2C101.1,52.8,101.3,52.7,101.6,52.7L101.6,52.7z"/>
	<path id="XMLID_213_" d="M108.7,53c-0.4,0.5-1,0.9-1.5,0.9c-1.1,0-1.8-0.9-1.8-1.8c0-0.7,0.3-1.2,0.9-1.7c0.5-0.4,1-0.5,1.3-0.5h0
		c0.4,0,0.6,0.1,0.8,0.2c0.1,0.1,0.1,0.2,0.1,0.3c0,0.2-0.2,0.4-0.3,0.4c-0.1,0-0.1,0-0.2-0.1c-0.3-0.3-0.6-0.4-0.9-0.4
		c-0.5,0-1,0.4-1,1.3c0,1.2,0.9,1.6,1.3,1.6c0.4,0,0.7-0.1,1-0.5L108.7,53z"/>
	<path id="XMLID_215_" d="M108.9,53.8v-0.2c0.5-0.1,0.6-0.1,0.6-0.7v-4c0-0.6-0.1-0.6-0.6-0.7V48c0.5-0.1,1-0.2,1.3-0.3v5.2
		c0,0.6,0.1,0.6,0.6,0.7v0.2H108.9z"/>
	<path id="XMLID_217_" d="M113.3,50c1.1,0,1.9,0.9,1.9,1.9c0,1.4-1.1,2-1.9,2c-1.2,0-2-0.9-2-1.9C111.4,50.7,112.5,50,113.3,50
		L113.3,50z M113.2,50.3c-0.5,0-1,0.5-1,1.5c0,1.1,0.5,1.9,1.2,1.9c0.5,0,1-0.3,1-1.5C114.4,51.1,114,50.3,113.2,50.3L113.2,50.3z"
		/>
	<path id="XMLID_220_" d="M120.2,53.6c-0.2,0-0.4,0.1-0.7,0.1c-0.2,0.1-0.5,0.1-0.7,0.2l-0.1,0v-0.6c-0.2,0.1-0.4,0.3-0.6,0.4
		c-0.3,0.1-0.4,0.2-0.7,0.2c-0.6,0-1.1-0.4-1.1-1.3V51c0-0.5-0.1-0.5-0.3-0.6l-0.2-0.1v-0.2c0.2,0,0.4,0,0.7-0.1
		c0.2,0,0.5-0.1,0.7-0.1c0,0.3,0,0.7,0,1.2v1.2c0,0.7,0.4,0.9,0.8,0.9c0.3,0,0.6-0.1,0.9-0.4v-2c0-0.5-0.1-0.5-0.4-0.6l-0.3-0.1
		v-0.2c0.2,0,0.6,0,0.8-0.1c0.3,0,0.5-0.1,0.6-0.1v2.8c0,0.4,0.1,0.5,0.4,0.5l0.2,0V53.6z"/>
	<path id="XMLID_222_" d="M124.9,53.6c-0.2,0-0.9,0.1-1.4,0.3v-0.6l-0.5,0.3c-0.3,0.2-0.6,0.2-0.7,0.2c-0.7,0-1.7-0.6-1.7-1.8
		c0-1.2,1.1-2.1,2.3-2.1c0.1,0,0.4,0,0.6,0.1v-1.2c0-0.6-0.1-0.6-0.7-0.6V48c0.5-0.1,1.1-0.2,1.4-0.3v5.1c0,0.5,0.1,0.5,0.4,0.5
		l0.2,0V53.6z M123.5,50.8c-0.2-0.3-0.6-0.4-0.9-0.4c-0.4,0-1.1,0.3-1.1,1.6c0,1,0.7,1.5,1.2,1.5c0.3,0,0.6-0.1,0.8-0.3V50.8z"/>
	<path id="XMLID_225_" d="M129.2,50.3c-0.5,0.1-0.5,0.1-0.8,0.6c-0.2,0.4-0.5,1.2-1.1,2.5c-0.6,1.4-0.8,1.9-0.9,2.3
		c0,0.2-0.2,0.2-0.3,0.2c-0.3,0-0.5-0.2-0.5-0.4c0-0.1,0.1-0.2,0.2-0.3c0.3-0.2,0.5-0.4,0.7-0.8c0.2-0.3,0.2-0.5,0.3-0.6
		c0.1-0.1,0-0.2,0-0.4c-0.4-1-0.8-2.1-1-2.6c-0.2-0.4-0.3-0.6-0.8-0.6v-0.2h1.8l0,0.2c-0.4,0.1-0.5,0.1-0.3,0.5l0.8,2.1
		c0.2-0.5,0.6-1.6,0.8-2.1c0.1-0.3,0-0.4-0.4-0.5v-0.2h1.6V50.3z"/>
</g>
<g id="XMLID_1101_">
	<path id="XMLID_2_" d="M-67.1,51.1c-0.2-0.5-0.5-0.9-0.9-0.9c-0.3,0-0.5,0.2-0.5,0.6c0,0.4,0.3,0.6,0.7,0.7
		c0.7,0.3,1.1,0.6,1.1,1.2c0,0.8-0.7,1.2-1.5,1.2c-0.5,0-0.9-0.2-1-0.3c-0.1-0.1-0.1-0.7-0.2-1.1l0.2,0c0.2,0.6,0.6,1.1,1.1,1.1
		c0.3,0,0.6-0.2,0.6-0.6c0-0.4-0.2-0.5-0.7-0.7c-0.5-0.2-1.1-0.5-1.1-1.2c0-0.6,0.5-1.1,1.3-1.1c0.4,0,0.6,0.1,0.8,0.2
		c0.1,0.2,0.2,0.7,0.2,0.9L-67.1,51.1z"/>
	<path id="XMLID_4_" d="M-61.8,53.6c-0.2,0-0.4,0.1-0.7,0.1c-0.2,0.1-0.5,0.1-0.7,0.2l-0.1,0v-0.6c-0.2,0.1-0.4,0.3-0.6,0.4
		c-0.3,0.1-0.4,0.2-0.7,0.2c-0.6,0-1.1-0.4-1.1-1.3V51c0-0.5-0.1-0.5-0.3-0.6l-0.2-0.1v-0.2c0.2,0,0.4,0,0.7-0.1
		c0.2,0,0.5-0.1,0.7-0.1c0,0.3,0,0.7,0,1.2v1.2c0,0.7,0.4,0.9,0.8,0.9c0.3,0,0.6-0.1,0.9-0.4v-2c0-0.5-0.1-0.5-0.4-0.6l-0.3-0.1
		v-0.2c0.2,0,0.6,0,0.8-0.1c0.3,0,0.5-0.1,0.6-0.1v2.8c0,0.4,0.1,0.5,0.4,0.5l0.2,0V53.6z"/>
	<path id="XMLID_6_" d="M-59,53.8v-0.2c0.5-0.1,0.6-0.1,0.6-0.7v-1.4c0-0.6-0.2-1-0.8-1c-0.3,0-0.7,0.2-0.9,0.4v2
		c0,0.6,0,0.6,0.6,0.7v0.2h-1.9v-0.2c0.6-0.1,0.6-0.1,0.6-0.7v-1.7c0-0.6-0.1-0.6-0.5-0.7v-0.2c0.4-0.1,0.9-0.2,1.3-0.3v0.7
		c0.2-0.1,0.4-0.3,0.6-0.4c0.2-0.2,0.5-0.3,0.7-0.3c0.7,0,1.1,0.5,1.1,1.3v1.6c0,0.6,0.1,0.6,0.6,0.7v0.2H-59z"/>
	<path id="XMLID_8_" d="M-54.1,53.8v-0.2c0.5-0.1,0.6-0.1,0.6-0.7v-1.4c0-0.6-0.2-1-0.8-1c-0.3,0-0.7,0.2-0.9,0.4v2
		c0,0.6,0,0.6,0.6,0.7v0.2h-1.9v-0.2c0.6-0.1,0.6-0.1,0.6-0.7v-1.7c0-0.6-0.1-0.6-0.5-0.7v-0.2c0.4-0.1,0.9-0.2,1.3-0.3v0.7
		c0.2-0.1,0.4-0.3,0.6-0.4c0.2-0.2,0.5-0.3,0.7-0.3c0.7,0,1.1,0.5,1.1,1.3v1.6c0,0.6,0.1,0.6,0.6,0.7v0.2H-54.1z"/>
	<path id="XMLID_10_" d="M-47.9,50.3c-0.5,0.1-0.5,0.1-0.8,0.6c-0.2,0.4-0.5,1.2-1.1,2.5c-0.6,1.4-0.8,1.9-0.9,2.3
		c0,0.2-0.2,0.2-0.3,0.2c-0.3,0-0.5-0.2-0.5-0.4c0-0.1,0.1-0.2,0.2-0.3c0.3-0.2,0.5-0.4,0.7-0.8c0.2-0.3,0.2-0.5,0.3-0.6
		c0.1-0.1,0-0.2,0-0.4c-0.4-1-0.8-2.1-1-2.6c-0.2-0.4-0.3-0.6-0.8-0.6v-0.2h1.8l0,0.2c-0.4,0.1-0.5,0.1-0.3,0.5l0.8,2.1
		c0.2-0.5,0.6-1.6,0.8-2.1c0.1-0.3,0-0.4-0.4-0.5v-0.2h1.6V50.3z"/>
	<path id="XMLID_12_" d="M-47.2,52.7c0.3,0,0.8,0.4,0.8,1c0,0.7-0.6,1.1-1.2,1.2l-0.1-0.3c0.4-0.2,0.7-0.4,0.7-0.7
		c0-0.3-0.2-0.5-0.6-0.6c0,0-0.1-0.1-0.1-0.2C-47.7,52.8-47.4,52.7-47.2,52.7L-47.2,52.7z"/>
	<path id="XMLID_14_" d="M-41.4,50.1C-41.2,50-41,50-40.9,50c1,0,1.6,0.8,1.6,1.6c0,1.3-1,2.1-2.2,2.3c-0.3,0-0.5-0.1-0.6-0.1v1.1
		c0,0.6,0.1,0.7,0.7,0.7v0.2h-2.1v-0.2c0.6-0.1,0.6-0.1,0.6-0.7v-3.9c0-0.5,0-0.6-0.6-0.6v-0.2c0.4-0.1,0.9-0.2,1.3-0.4v0.7
		L-41.4,50.1z M-42.1,53.2c0.2,0.2,0.5,0.3,0.8,0.3c0.7,0,1.2-0.7,1.2-1.5c0-0.9-0.6-1.4-1.2-1.4c-0.3,0-0.6,0.2-0.8,0.4V53.2z"/>
	<path id="XMLID_17_" d="M-36,53.9c-0.2,0-0.4-0.1-0.4-0.2c-0.1-0.1-0.2-0.2-0.2-0.4c-0.4,0.2-0.8,0.5-1,0.5c-0.7,0-1.1-0.5-1.1-1.1
		c0-0.4,0.2-0.7,0.7-0.8c0.6-0.2,1.2-0.4,1.3-0.6v-0.2c0-0.6-0.3-0.9-0.7-0.9c-0.2,0-0.3,0.1-0.4,0.2c-0.1,0.1-0.2,0.3-0.3,0.6
		c-0.1,0.2-0.1,0.2-0.3,0.2c-0.2,0-0.4-0.2-0.4-0.4c0-0.1,0.1-0.2,0.3-0.4c0.3-0.2,0.8-0.5,1.3-0.6c0.3,0,0.5,0.1,0.7,0.2
		c0.3,0.3,0.4,0.6,0.4,1.1v1.5c0,0.4,0.2,0.5,0.3,0.5c0.1,0,0.2,0,0.3-0.1l0.1,0.2L-36,53.9z M-36.7,51.8c-0.2,0.1-0.5,0.3-0.7,0.3
		c-0.3,0.1-0.5,0.3-0.5,0.6c0,0.5,0.3,0.7,0.6,0.7c0.2,0,0.5-0.1,0.6-0.3V51.8z"/>
	<path id="XMLID_20_" d="M-33.5,50.9c0.3-0.5,0.6-0.9,1-0.9c0.3,0,0.5,0.2,0.5,0.4c0,0.2-0.1,0.4-0.3,0.5c-0.1,0-0.2,0-0.2,0
		c-0.1-0.1-0.2-0.2-0.4-0.2c-0.2,0-0.5,0.3-0.7,0.7v1.5c0,0.6,0,0.6,0.7,0.7v0.2h-2.1v-0.2c0.5-0.1,0.6-0.1,0.6-0.7v-1.8
		c0-0.5,0-0.6-0.5-0.7v-0.2c0.4-0.1,0.8-0.2,1.3-0.4L-33.5,50.9L-33.5,50.9z"/>
	<path id="XMLID_22_" d="M-29.8,53.8c-0.2,0.1-0.3,0.1-0.4,0.1c-0.6,0-0.9-0.3-0.9-1v-2.5h-0.6l0-0.1l0.2-0.3h0.4v-0.6l0.6-0.6
		l0.1,0v1.2h1c0.1,0.1,0.1,0.3-0.1,0.4h-0.9v2.2c0,0.7,0.3,0.8,0.5,0.8c0.2,0,0.4-0.1,0.5-0.1l0.1,0.2L-29.8,53.8z"/>
	<path id="XMLID_24_" d="M-29,53.8v-0.2c0.5-0.1,0.6-0.1,0.6-0.7v-4c0-0.6-0.1-0.6-0.6-0.7V48c0.5-0.1,1-0.2,1.3-0.3v5.2
		c0,0.6,0.1,0.6,0.6,0.7v0.2H-29z"/>
	<path id="XMLID_26_" d="M-22.7,50.3c-0.5,0.1-0.5,0.1-0.8,0.6c-0.2,0.4-0.5,1.2-1.1,2.5c-0.6,1.4-0.8,1.9-0.9,2.3
		c0,0.2-0.2,0.2-0.3,0.2c-0.3,0-0.5-0.2-0.5-0.4c0-0.1,0.1-0.2,0.2-0.3c0.3-0.2,0.5-0.4,0.7-0.8c0.2-0.3,0.2-0.5,0.3-0.6
		c0.1-0.1,0-0.2,0-0.4c-0.4-1-0.8-2.1-1-2.6c-0.2-0.4-0.3-0.6-0.8-0.6v-0.2h1.8l0,0.2c-0.4,0.1-0.5,0.1-0.3,0.5l0.8,2.1
		c0.2-0.5,0.6-1.6,0.8-2.1c0.1-0.3,0-0.4-0.4-0.5v-0.2h1.6V50.3z"/>
	<path id="XMLID_28_" d="M-20.3,52.2h-2l0.1-0.5h2.1L-20.3,52.2z"/>
	<path id="XMLID_30_" d="M-16.1,53c-0.4,0.5-1,0.9-1.5,0.9c-1.1,0-1.8-0.9-1.8-1.8c0-0.7,0.3-1.2,0.9-1.7c0.5-0.4,1-0.5,1.3-0.5h0
		c0.4,0,0.6,0.1,0.8,0.2c0.1,0.1,0.1,0.2,0.1,0.3c0,0.2-0.2,0.4-0.3,0.4c-0.1,0-0.1,0-0.2-0.1c-0.3-0.3-0.6-0.4-0.9-0.4
		c-0.5,0-1,0.4-1,1.3c0,1.2,0.9,1.6,1.3,1.6c0.4,0,0.7-0.1,1-0.5L-16.1,53z"/>
	<path id="XMLID_32_" d="M-15.9,53.8v-0.2c0.5-0.1,0.6-0.1,0.6-0.7v-4c0-0.6-0.1-0.6-0.6-0.7V48c0.5-0.1,1-0.2,1.3-0.3v5.2
		c0,0.6,0.1,0.6,0.6,0.7v0.2H-15.9z"/>
	<path id="XMLID_34_" d="M-11.5,50c1.1,0,1.9,0.9,1.9,1.9c0,1.4-1.1,2-1.9,2c-1.2,0-2-0.9-2-1.9C-13.5,50.7-12.3,50-11.5,50
		L-11.5,50z M-11.6,50.3c-0.5,0-1,0.5-1,1.5c0,1.1,0.5,1.9,1.2,1.9c0.5,0,1-0.3,1-1.5C-10.4,51.1-10.8,50.3-11.6,50.3L-11.6,50.3z"
		/>
	<path id="XMLID_37_" d="M-4.6,53.6c-0.2,0-0.4,0.1-0.7,0.1c-0.2,0.1-0.5,0.1-0.7,0.2l-0.1,0v-0.6c-0.2,0.1-0.4,0.3-0.6,0.4
		c-0.3,0.1-0.4,0.2-0.7,0.2c-0.6,0-1.1-0.4-1.1-1.3V51c0-0.5-0.1-0.5-0.3-0.6L-9,50.4v-0.2c0.2,0,0.4,0,0.7-0.1
		c0.2,0,0.5-0.1,0.7-0.1c0,0.3,0,0.7,0,1.2v1.2c0,0.7,0.4,0.9,0.8,0.9c0.3,0,0.6-0.1,0.9-0.4v-2c0-0.5-0.1-0.5-0.4-0.6l-0.3-0.1
		v-0.2c0.2,0,0.6,0,0.8-0.1c0.3,0,0.5-0.1,0.6-0.1v2.8c0,0.4,0.1,0.5,0.4,0.5l0.2,0V53.6z"/>
	<path id="XMLID_39_" d="M0,53.6c-0.2,0-0.9,0.1-1.4,0.3v-0.6l-0.5,0.3c-0.3,0.2-0.6,0.2-0.7,0.2c-0.7,0-1.7-0.6-1.7-1.8
		c0-1.2,1.1-2.1,2.3-2.1c0.1,0,0.4,0,0.6,0.1v-1.2c0-0.6-0.1-0.6-0.7-0.6V48c0.5-0.1,1.1-0.2,1.4-0.3v5.1c0,0.5,0.1,0.5,0.4,0.5
		l0.2,0V53.6z M-1.4,50.8c-0.2-0.3-0.6-0.4-0.9-0.4c-0.4,0-1.1,0.3-1.1,1.6c0,1,0.7,1.5,1.2,1.5c0.3,0,0.6-0.1,0.8-0.3V50.8z"/>
	<path id="XMLID_42_" d="M4.3,50.3c-0.5,0.1-0.5,0.1-0.8,0.6c-0.2,0.4-0.5,1.2-1.1,2.5c-0.6,1.4-0.8,1.9-0.9,2.3
		C1.5,56,1.4,56,1.3,56c-0.3,0-0.5-0.2-0.5-0.4c0-0.1,0.1-0.2,0.2-0.3c0.3-0.2,0.5-0.4,0.7-0.8c0.2-0.3,0.2-0.5,0.3-0.6
		c0.1-0.1,0-0.2,0-0.4c-0.4-1-0.8-2.1-1-2.6c-0.2-0.4-0.3-0.6-0.8-0.6v-0.2H2l0,0.2c-0.4,0.1-0.5,0.1-0.3,0.5l0.8,2.1
		c0.2-0.5,0.6-1.6,0.8-2.1c0.1-0.3,0-0.4-0.4-0.5v-0.2h1.6V50.3z"/>
	<path id="XMLID_44_" d="M5,52.7c0.3,0,0.8,0.4,0.8,1c0,0.7-0.6,1.1-1.2,1.2l-0.1-0.3c0.4-0.2,0.7-0.4,0.7-0.7
		c0-0.3-0.2-0.5-0.6-0.6c0,0-0.1-0.1-0.1-0.2C4.5,52.8,4.8,52.7,5,52.7L5,52.7z"/>
	<path id="XMLID_46_" d="M11.1,51.1c-0.2-0.5-0.5-0.9-0.9-0.9c-0.3,0-0.5,0.2-0.5,0.6c0,0.4,0.3,0.6,0.7,0.7
		c0.7,0.3,1.1,0.6,1.1,1.2c0,0.8-0.7,1.2-1.5,1.2c-0.5,0-0.9-0.2-1-0.3c-0.1-0.1-0.1-0.7-0.2-1.1l0.2,0c0.2,0.6,0.6,1.1,1.1,1.1
		c0.3,0,0.6-0.2,0.6-0.6c0-0.4-0.2-0.5-0.7-0.7C9.6,52.1,9,51.8,9,51.1c0-0.6,0.5-1.1,1.3-1.1c0.4,0,0.6,0.1,0.8,0.2
		c0.1,0.2,0.2,0.7,0.2,0.9L11.1,51.1z"/>
	<path id="XMLID_48_" d="M16.3,53.6c-0.2,0-0.4,0.1-0.7,0.1c-0.2,0.1-0.5,0.1-0.7,0.2l-0.1,0v-0.6c-0.2,0.1-0.4,0.3-0.6,0.4
		c-0.3,0.1-0.4,0.2-0.7,0.2c-0.6,0-1.1-0.4-1.1-1.3V51c0-0.5-0.1-0.5-0.3-0.6L12,50.4v-0.2c0.2,0,0.4,0,0.7-0.1
		c0.2,0,0.5-0.1,0.7-0.1c0,0.3,0,0.7,0,1.2v1.2c0,0.7,0.4,0.9,0.8,0.9c0.3,0,0.6-0.1,0.9-0.4v-2c0-0.5-0.1-0.5-0.4-0.6l-0.3-0.1
		v-0.2c0.2,0,0.6,0,0.8-0.1c0.3,0,0.5-0.1,0.6-0.1v2.8c0,0.4,0.1,0.5,0.4,0.5l0.2,0V53.6z"/>
	<path id="XMLID_50_" d="M19.2,53.8v-0.2c0.5-0.1,0.6-0.1,0.6-0.7v-1.4c0-0.6-0.2-1-0.8-1c-0.3,0-0.7,0.2-0.9,0.4v2
		c0,0.6,0,0.6,0.6,0.7v0.2h-1.9v-0.2c0.6-0.1,0.6-0.1,0.6-0.7v-1.7c0-0.6-0.1-0.6-0.5-0.7v-0.2c0.4-0.1,0.9-0.2,1.3-0.3v0.7
		c0.2-0.1,0.4-0.3,0.6-0.4c0.2-0.2,0.5-0.3,0.7-0.3c0.7,0,1.1,0.5,1.1,1.3v1.6c0,0.6,0.1,0.6,0.6,0.7v0.2H19.2z"/>
	<path id="XMLID_52_" d="M24,53.8v-0.2c0.5-0.1,0.6-0.1,0.6-0.7v-1.4c0-0.6-0.2-1-0.8-1c-0.3,0-0.7,0.2-0.9,0.4v2
		c0,0.6,0,0.6,0.6,0.7v0.2h-1.9v-0.2c0.6-0.1,0.6-0.1,0.6-0.7v-1.7c0-0.6-0.1-0.6-0.5-0.7v-0.2c0.4-0.1,0.9-0.2,1.3-0.3v0.7
		c0.2-0.1,0.4-0.3,0.6-0.4c0.2-0.2,0.5-0.3,0.7-0.3c0.7,0,1.1,0.5,1.1,1.3v1.6c0,0.6,0.1,0.6,0.6,0.7v0.2H24z"/>
	<path id="XMLID_54_" d="M30.3,50.3c-0.5,0.1-0.5,0.1-0.8,0.6c-0.2,0.4-0.5,1.2-1.1,2.5c-0.6,1.4-0.8,1.9-0.9,2.3
		c0,0.2-0.2,0.2-0.3,0.2c-0.3,0-0.5-0.2-0.5-0.4c0-0.1,0.1-0.2,0.2-0.3c0.3-0.2,0.5-0.4,0.7-0.8c0.2-0.3,0.2-0.5,0.3-0.6
		c0.1-0.1,0-0.2,0-0.4c-0.4-1-0.8-2.1-1-2.6c-0.2-0.4-0.3-0.6-0.8-0.6v-0.2h1.8l0,0.2c-0.4,0.1-0.5,0.1-0.3,0.5l0.8,2.1
		c0.2-0.5,0.6-1.6,0.8-2.1c0.1-0.3,0-0.4-0.4-0.5v-0.2h1.6V50.3z"/>
	<path id="XMLID_56_" d="M32.7,52.2h-2l0.1-0.5h2.1L32.7,52.2z"/>
	<path id="XMLID_58_" d="M34.9,50.9c0.3-0.5,0.6-0.9,1-0.9c0.3,0,0.5,0.2,0.5,0.4c0,0.2-0.1,0.4-0.3,0.5c-0.1,0-0.2,0-0.2,0
		c-0.1-0.1-0.2-0.2-0.4-0.2c-0.2,0-0.5,0.3-0.7,0.7v1.5c0,0.6,0,0.6,0.7,0.7v0.2h-2.1v-0.2c0.5-0.1,0.6-0.1,0.6-0.7v-1.8
		c0-0.5,0-0.6-0.5-0.7v-0.2c0.4-0.1,0.8-0.2,1.3-0.4L34.9,50.9L34.9,50.9z"/>
	<path id="XMLID_60_" d="M39.6,53.9c-0.2,0-0.4-0.1-0.4-0.2c-0.1-0.1-0.2-0.2-0.2-0.4c-0.4,0.2-0.8,0.5-1,0.5
		c-0.7,0-1.1-0.5-1.1-1.1c0-0.4,0.2-0.7,0.7-0.8c0.6-0.2,1.2-0.4,1.3-0.6v-0.2c0-0.6-0.3-0.9-0.7-0.9c-0.2,0-0.3,0.1-0.4,0.2
		c-0.1,0.1-0.2,0.3-0.3,0.6c-0.1,0.2-0.1,0.2-0.3,0.2c-0.2,0-0.4-0.2-0.4-0.4c0-0.1,0.1-0.2,0.3-0.4c0.3-0.2,0.8-0.5,1.3-0.6
		c0.3,0,0.5,0.1,0.7,0.2c0.3,0.3,0.4,0.6,0.4,1.1v1.5c0,0.4,0.2,0.5,0.3,0.5c0.1,0,0.2,0,0.3-0.1l0.1,0.2L39.6,53.9z M38.9,51.8
		c-0.2,0.1-0.5,0.3-0.7,0.3c-0.3,0.1-0.5,0.3-0.5,0.6c0,0.5,0.3,0.7,0.6,0.7c0.2,0,0.5-0.1,0.6-0.3V51.8z"/>
	<path id="XMLID_63_" d="M40.7,53.8v-0.2c0.5-0.1,0.6-0.1,0.6-0.7v-1.7c0-0.5,0-0.6-0.5-0.7v-0.2c0.5-0.1,0.9-0.2,1.3-0.3v2.9
		c0,0.6,0.1,0.6,0.6,0.7v0.2H40.7z M41.2,48.8c0-0.3,0.2-0.5,0.5-0.5s0.5,0.2,0.5,0.5c0,0.2-0.2,0.5-0.5,0.5
		C41.4,49.3,41.2,49.1,41.2,48.8z"/>
	<path id="XMLID_66_" d="M45.6,53.8v-0.2c0.5-0.1,0.6-0.1,0.6-0.7v-1.4c0-0.6-0.2-1-0.8-1c-0.3,0-0.7,0.2-0.9,0.4v2
		c0,0.6,0,0.6,0.6,0.7v0.2h-1.9v-0.2c0.6-0.1,0.6-0.1,0.6-0.7v-1.7c0-0.6-0.1-0.6-0.5-0.7v-0.2c0.4-0.1,0.9-0.2,1.3-0.3v0.7
		c0.2-0.1,0.4-0.3,0.6-0.4c0.2-0.2,0.5-0.3,0.7-0.3c0.7,0,1.1,0.5,1.1,1.3v1.6c0,0.6,0.1,0.6,0.6,0.7v0.2H45.6z"/>
	<path id="XMLID_68_" d="M51.9,50.3c-0.5,0.1-0.5,0.1-0.8,0.6c-0.2,0.4-0.5,1.2-1.1,2.5c-0.6,1.4-0.8,1.9-0.9,2.3
		c0,0.2-0.2,0.2-0.3,0.2c-0.3,0-0.5-0.2-0.5-0.4c0-0.1,0.1-0.2,0.2-0.3c0.3-0.2,0.5-0.4,0.7-0.8c0.2-0.3,0.2-0.5,0.3-0.6
		c0.1-0.1,0-0.2,0-0.4c-0.4-1-0.8-2.1-1-2.6c-0.2-0.4-0.3-0.6-0.8-0.6v-0.2h1.8l0,0.2c-0.4,0.1-0.5,0.1-0.3,0.5l0.8,2.1
		c0.2-0.5,0.6-1.6,0.8-2.1c0.1-0.3,0-0.4-0.4-0.5v-0.2h1.6V50.3z"/>
	<path id="XMLID_70_" d="M52.5,52.7c0.3,0,0.8,0.4,0.8,1c0,0.7-0.6,1.1-1.2,1.2L52,54.6c0.4-0.2,0.7-0.4,0.7-0.7
		c0-0.3-0.2-0.5-0.6-0.6c0,0-0.1-0.1-0.1-0.2C52.1,52.8,52.3,52.7,52.5,52.7L52.5,52.7z"/>
	<path id="XMLID_72_" d="M57.7,50.9c0.3-0.5,0.6-0.9,1-0.9c0.3,0,0.5,0.2,0.5,0.4c0,0.2-0.1,0.4-0.3,0.5c-0.1,0-0.2,0-0.2,0
		c-0.1-0.1-0.2-0.2-0.4-0.2c-0.2,0-0.5,0.3-0.7,0.7v1.5c0,0.6,0,0.6,0.7,0.7v0.2h-2.1v-0.2c0.5-0.1,0.6-0.1,0.6-0.7v-1.8
		c0-0.5,0-0.6-0.5-0.7v-0.2c0.4-0.1,0.8-0.2,1.3-0.4L57.7,50.9L57.7,50.9z"/>
	<path id="XMLID_74_" d="M62.4,53.9c-0.2,0-0.4-0.1-0.4-0.2c-0.1-0.1-0.2-0.2-0.2-0.4c-0.4,0.2-0.8,0.5-1,0.5
		c-0.7,0-1.1-0.5-1.1-1.1c0-0.4,0.2-0.7,0.7-0.8c0.6-0.2,1.2-0.4,1.3-0.6v-0.2c0-0.6-0.3-0.9-0.7-0.9c-0.2,0-0.3,0.1-0.4,0.2
		c-0.1,0.1-0.2,0.3-0.3,0.6c-0.1,0.2-0.1,0.2-0.3,0.2c-0.2,0-0.4-0.2-0.4-0.4c0-0.1,0.1-0.2,0.3-0.4c0.3-0.2,0.8-0.5,1.3-0.6
		c0.3,0,0.5,0.1,0.7,0.2c0.3,0.3,0.4,0.6,0.4,1.1v1.5c0,0.4,0.2,0.5,0.3,0.5c0.1,0,0.2,0,0.3-0.1l0.1,0.2L62.4,53.9z M61.7,51.8
		c-0.2,0.1-0.5,0.3-0.7,0.3c-0.3,0.1-0.5,0.3-0.5,0.6c0,0.5,0.3,0.7,0.6,0.7c0.2,0,0.5-0.1,0.6-0.3V51.8z"/>
	<path id="XMLID_77_" d="M63.5,53.8v-0.2c0.5-0.1,0.6-0.1,0.6-0.7v-1.7c0-0.5,0-0.6-0.5-0.7v-0.2c0.5-0.1,0.9-0.2,1.3-0.3v2.9
		c0,0.6,0.1,0.6,0.6,0.7v0.2H63.5z M63.9,48.8c0-0.3,0.2-0.5,0.5-0.5s0.5,0.2,0.5,0.5c0,0.2-0.2,0.5-0.5,0.5
		C64.2,49.3,63.9,49.1,63.9,48.8z"/>
	<path id="XMLID_80_" d="M68.4,53.8v-0.2c0.5-0.1,0.6-0.1,0.6-0.7v-1.4c0-0.6-0.2-1-0.8-1c-0.3,0-0.7,0.2-0.9,0.4v2
		c0,0.6,0,0.6,0.6,0.7v0.2h-1.9v-0.2c0.6-0.1,0.6-0.1,0.6-0.7v-1.7c0-0.6-0.1-0.6-0.5-0.7v-0.2c0.4-0.1,0.9-0.2,1.3-0.3v0.7
		c0.2-0.1,0.4-0.3,0.6-0.4c0.2-0.2,0.5-0.3,0.7-0.3c0.7,0,1.1,0.5,1.1,1.3v1.6c0,0.6,0.1,0.6,0.6,0.7v0.2H68.4z"/>
	<path id="XMLID_82_" d="M74.6,50.3c-0.5,0.1-0.5,0.1-0.8,0.6c-0.2,0.4-0.5,1.2-1.1,2.5c-0.6,1.4-0.8,1.9-0.9,2.3
		c0,0.2-0.2,0.2-0.3,0.2c-0.3,0-0.5-0.2-0.5-0.4c0-0.1,0.1-0.2,0.2-0.3c0.3-0.2,0.5-0.4,0.7-0.8c0.2-0.3,0.2-0.5,0.3-0.6
		c0.1-0.1,0-0.2,0-0.4c-0.4-1-0.8-2.1-1-2.6c-0.2-0.4-0.3-0.6-0.8-0.6v-0.2h1.8l0,0.2c-0.4,0.1-0.5,0.1-0.3,0.5l0.8,2.1
		c0.2-0.5,0.6-1.6,0.8-2.1c0.1-0.3,0-0.4-0.4-0.5v-0.2h1.6V50.3z"/>
	<path id="XMLID_84_" d="M75.3,52.7c0.3,0,0.8,0.4,0.8,1c0,0.7-0.6,1.1-1.2,1.2l-0.1-0.3c0.4-0.2,0.7-0.4,0.7-0.7
		c0-0.3-0.2-0.5-0.6-0.6c0,0-0.1-0.1-0.1-0.2C74.8,52.8,75.1,52.7,75.3,52.7L75.3,52.7z"/>
	<path id="XMLID_86_" d="M84.9,50.3c-0.4,0.1-0.5,0.2-0.7,0.6c-0.3,0.7-0.7,1.8-1.1,3h-0.3c-0.4-0.9-0.7-1.8-1.1-2.6
		c-0.3,0.9-0.7,1.7-1,2.6h-0.3c-0.3-1-0.7-2-1-3c-0.2-0.4-0.2-0.5-0.6-0.6v-0.2h1.9v0.2c-0.5,0.1-0.6,0.1-0.4,0.5
		c0.2,0.6,0.4,1.3,0.6,1.9h0c0.3-0.8,0.7-1.7,1-2.6h0.2c0.3,0.9,0.7,1.8,1,2.7h0c0.2-0.5,0.4-1.3,0.6-1.9c0.1-0.4,0.1-0.5-0.5-0.6
		v-0.2h1.6V50.3z"/>
	<path id="XMLID_88_" d="M85.1,53.8v-0.2c0.5-0.1,0.6-0.1,0.6-0.7v-1.7c0-0.5,0-0.6-0.5-0.7v-0.2c0.5-0.1,0.9-0.2,1.3-0.3v2.9
		c0,0.6,0.1,0.6,0.6,0.7v0.2H85.1z M85.5,48.8c0-0.3,0.2-0.5,0.5-0.5s0.5,0.2,0.5,0.5c0,0.2-0.2,0.5-0.5,0.5
		C85.8,49.3,85.5,49.1,85.5,48.8z"/>
	<path id="XMLID_91_" d="M90,53.8v-0.2c0.5-0.1,0.6-0.1,0.6-0.7v-1.4c0-0.6-0.2-1-0.8-1c-0.3,0-0.7,0.2-0.9,0.4v2
		c0,0.6,0,0.6,0.6,0.7v0.2h-1.9v-0.2c0.6-0.1,0.6-0.1,0.6-0.7v-1.7c0-0.6-0.1-0.6-0.5-0.7v-0.2c0.4-0.1,0.9-0.2,1.3-0.3v0.7
		c0.2-0.1,0.4-0.3,0.6-0.4c0.2-0.2,0.5-0.3,0.7-0.3c0.7,0,1.1,0.5,1.1,1.3v1.6c0,0.6,0.1,0.6,0.6,0.7v0.2H90z"/>
	<path id="XMLID_93_" d="M96.6,53.6c-0.2,0-0.9,0.1-1.4,0.3v-0.6l-0.5,0.3c-0.3,0.2-0.6,0.2-0.7,0.2c-0.7,0-1.7-0.6-1.7-1.8
		c0-1.2,1.1-2.1,2.3-2.1c0.1,0,0.4,0,0.6,0.1v-1.2c0-0.6-0.1-0.6-0.7-0.6V48c0.5-0.1,1.1-0.2,1.4-0.3v5.1c0,0.5,0.1,0.5,0.4,0.5
		l0.2,0V53.6z M95.2,50.8c-0.2-0.3-0.6-0.4-0.9-0.4c-0.4,0-1.1,0.3-1.1,1.6c0,1,0.7,1.5,1.2,1.5c0.3,0,0.6-0.1,0.8-0.3V50.8z"/>
	<path id="XMLID_96_" d="M100.9,50.3c-0.5,0.1-0.5,0.1-0.8,0.6c-0.2,0.4-0.5,1.2-1.1,2.5c-0.6,1.4-0.8,1.9-0.9,2.3
		c0,0.2-0.2,0.2-0.3,0.2c-0.3,0-0.5-0.2-0.5-0.4c0-0.1,0.1-0.2,0.2-0.3c0.3-0.2,0.5-0.4,0.7-0.8c0.2-0.3,0.2-0.5,0.3-0.6
		c0.1-0.1,0-0.2,0-0.4c-0.4-1-0.8-2.1-1-2.6c-0.2-0.4-0.3-0.6-0.8-0.6v-0.2h1.8l0,0.2c-0.4,0.1-0.5,0.1-0.3,0.5l0.8,2.1
		c0.2-0.5,0.6-1.6,0.8-2.1c0.1-0.3,0-0.4-0.4-0.5v-0.2h1.6V50.3z"/>
	<path id="XMLID_98_" d="M101.6,52.7c0.3,0,0.8,0.4,0.8,1c0,0.7-0.6,1.1-1.2,1.2l-0.1-0.3c0.4-0.2,0.7-0.4,0.7-0.7
		c0-0.3-0.2-0.5-0.6-0.6c0,0-0.1-0.1-0.1-0.2C101.1,52.8,101.3,52.7,101.6,52.7L101.6,52.7z"/>
	<path id="XMLID_100_" d="M108.7,53c-0.4,0.5-1,0.9-1.5,0.9c-1.1,0-1.8-0.9-1.8-1.8c0-0.7,0.3-1.2,0.9-1.7c0.5-0.4,1-0.5,1.3-0.5h0
		c0.4,0,0.6,0.1,0.8,0.2c0.1,0.1,0.1,0.2,0.1,0.3c0,0.2-0.2,0.4-0.3,0.4c-0.1,0-0.1,0-0.2-0.1c-0.3-0.3-0.6-0.4-0.9-0.4
		c-0.5,0-1,0.4-1,1.3c0,1.2,0.9,1.6,1.3,1.6c0.4,0,0.7-0.1,1-0.5L108.7,53z"/>
	<path id="XMLID_102_" d="M108.9,53.8v-0.2c0.5-0.1,0.6-0.1,0.6-0.7v-4c0-0.6-0.1-0.6-0.6-0.7V48c0.5-0.1,1-0.2,1.3-0.3v5.2
		c0,0.6,0.1,0.6,0.6,0.7v0.2H108.9z"/>
	<path id="XMLID_104_" d="M113.3,50c1.1,0,1.9,0.9,1.9,1.9c0,1.4-1.1,2-1.9,2c-1.2,0-2-0.9-2-1.9C111.4,50.7,112.5,50,113.3,50
		L113.3,50z M113.2,50.3c-0.5,0-1,0.5-1,1.5c0,1.1,0.5,1.9,1.2,1.9c0.5,0,1-0.3,1-1.5C114.4,51.1,114,50.3,113.2,50.3L113.2,50.3z"
		/>
	<path id="XMLID_107_" d="M120.2,53.6c-0.2,0-0.4,0.1-0.7,0.1c-0.2,0.1-0.5,0.1-0.7,0.2l-0.1,0v-0.6c-0.2,0.1-0.4,0.3-0.6,0.4
		c-0.3,0.1-0.4,0.2-0.7,0.2c-0.6,0-1.1-0.4-1.1-1.3V51c0-0.5-0.1-0.5-0.3-0.6l-0.2-0.1v-0.2c0.2,0,0.4,0,0.7-0.1
		c0.2,0,0.5-0.1,0.7-0.1c0,0.3,0,0.7,0,1.2v1.2c0,0.7,0.4,0.9,0.8,0.9c0.3,0,0.6-0.1,0.9-0.4v-2c0-0.5-0.1-0.5-0.4-0.6l-0.3-0.1
		v-0.2c0.2,0,0.6,0,0.8-0.1c0.3,0,0.5-0.1,0.6-0.1v2.8c0,0.4,0.1,0.5,0.4,0.5l0.2,0V53.6z"/>
	<path id="XMLID_109_" d="M124.9,53.6c-0.2,0-0.9,0.1-1.4,0.3v-0.6l-0.5,0.3c-0.3,0.2-0.6,0.2-0.7,0.2c-0.7,0-1.7-0.6-1.7-1.8
		c0-1.2,1.1-2.1,2.3-2.1c0.1,0,0.4,0,0.6,0.1v-1.2c0-0.6-0.1-0.6-0.7-0.6V48c0.5-0.1,1.1-0.2,1.4-0.3v5.1c0,0.5,0.1,0.5,0.4,0.5
		l0.2,0V53.6z M123.5,50.8c-0.2-0.3-0.6-0.4-0.9-0.4c-0.4,0-1.1,0.3-1.1,1.6c0,1,0.7,1.5,1.2,1.5c0.3,0,0.6-0.1,0.8-0.3V50.8z"/>
	<path id="XMLID_112_" d="M129.2,50.3c-0.5,0.1-0.5,0.1-0.8,0.6c-0.2,0.4-0.5,1.2-1.1,2.5c-0.6,1.4-0.8,1.9-0.9,2.3
		c0,0.2-0.2,0.2-0.3,0.2c-0.3,0-0.5-0.2-0.5-0.4c0-0.1,0.1-0.2,0.2-0.3c0.3-0.2,0.5-0.4,0.7-0.8c0.2-0.3,0.2-0.5,0.3-0.6
		c0.1-0.1,0-0.2,0-0.4c-0.4-1-0.8-2.1-1-2.6c-0.2-0.4-0.3-0.6-0.8-0.6v-0.2h1.8l0,0.2c-0.4,0.1-0.5,0.1-0.3,0.5l0.8,2.1
		c0.2-0.5,0.6-1.6,0.8-2.1c0.1-0.3,0-0.4-0.4-0.5v-0.2h1.6V50.3z"/>
</g>
</svg>
