<?xml version="1.0" encoding="utf-8"?>
<!-- Generator: Adobe Illustrator 20.0.0, SVG Export Plug-In . SVG Version: 6.00 Build 0)  -->
<!DOCTYPE svg PUBLIC "-//W3C//DTD SVG 1.1//EN" "http://www.w3.org/Graphics/SVG/1.1/DTD/svg11.dtd">
<svg version="1.1" id="Layer_1" xmlns="http://www.w3.org/2000/svg" xmlns:xlink="http://www.w3.org/1999/xlink" x="0px" y="0px"
	 viewBox="0 0 35.7 36.9" enable-background="new 0 0 35.7 36.9" xml:space="preserve">
<g>
	<path fill="none" stroke="#FFFFFF" stroke-width="1.5" stroke-linejoin="round" stroke-miterlimit="10" d="M30.8,36.1h-26
		c-2.2,0-4-1.8-4-4v-24c0-2.2,1.8-4,4-4h26c2.2,0,4,1.8,4,4v24C34.8,34.3,33,36.1,30.8,36.1z"/>
	
		<line fill="none" stroke="#FFFFFF" stroke-width="1.5" stroke-linejoin="round" stroke-miterlimit="10" x1="0.8" y1="12.1" x2="34.8" y2="12.1"/>
	
		<line fill="#FFFFFF" stroke="#FFFFFF" stroke-width="1.5" stroke-linejoin="round" stroke-miterlimit="10" x1="8.8" y1="0.1" x2="8.8" y2="7.1"/>
	
		<line fill="#FFFFFF" stroke="#FFFFFF" stroke-width="1.5" stroke-linejoin="round" stroke-miterlimit="10" x1="26.8" y1="0.1" x2="26.8" y2="7.1"/>
	<path fill="none" stroke="#FFFFFF" stroke-width="1.5" stroke-linejoin="round" stroke-miterlimit="10" d="M10.7,22.4H7.4
		c-0.6,0-1-0.4-1-1v-3.2c0-0.6,0.4-1,1-1h3.2c0.6,0,1,0.4,1,1v3.2C11.7,21.9,11.2,22.4,10.7,22.4z"/>
	<path fill="none" stroke="#FFFFFF" stroke-width="1.5" stroke-linejoin="round" stroke-miterlimit="10" d="M19.4,22.4h-3.2
		c-0.6,0-1-0.4-1-1v-3.2c0-0.6,0.4-1,1-1h3.2c0.6,0,1,0.4,1,1v3.2C20.4,21.9,20,22.4,19.4,22.4z"/>
	<path fill="none" stroke="#FFFFFF" stroke-width="1.5" stroke-linejoin="round" stroke-miterlimit="10" d="M28.2,22.4h-3.2
		c-0.6,0-1-0.4-1-1v-3.2c0-0.6,0.4-1,1-1h3.2c0.6,0,1,0.4,1,1v3.2C29.2,21.9,28.7,22.4,28.2,22.4z"/>
	<path fill="none" stroke="#FFFFFF" stroke-width="1.5" stroke-linejoin="round" stroke-miterlimit="10" d="M10.7,31.1H7.4
		c-0.6,0-1-0.4-1-1v-3.2c0-0.6,0.4-1,1-1h3.2c0.6,0,1,0.4,1,1v3.2C11.7,30.7,11.2,31.1,10.7,31.1z"/>
	<path fill="none" stroke="#FFFFFF" stroke-width="1.5" stroke-linejoin="round" stroke-miterlimit="10" d="M19.4,31.1h-3.2
		c-0.6,0-1-0.4-1-1v-3.2c0-0.6,0.4-1,1-1h3.2c0.6,0,1,0.4,1,1v3.2C20.4,30.7,20,31.1,19.4,31.1z"/>
	<path fill="none" stroke="#FFFFFF" stroke-width="1.5" stroke-linejoin="round" stroke-miterlimit="10" d="M28.2,31.1h-3.2
		c-0.6,0-1-0.4-1-1v-3.2c0-0.6,0.4-1,1-1h3.2c0.6,0,1,0.4,1,1v3.2C29.2,30.7,28.7,31.1,28.2,31.1z"/>
</g>
</svg>
