<?xml version="1.0" encoding="utf-8"?>
<!-- Generator: Adobe Illustrator 19.0.0, SVG Export Plug-In . SVG Version: 6.00 Build 0)  -->
<svg version="1.1" id="Layer_1" xmlns="http://www.w3.org/2000/svg" xmlns:xlink="http://www.w3.org/1999/xlink" x="0px" y="0px"
	 viewBox="0 0 30 30" style="enable-background:new 0 0 30 30;" xml:space="preserve">
<style type="text/css">
	.st0{fill:#FFFFFF;}
</style>
<g id="XMLID_10822_">
	<path id="XMLID_10823_" class="st0" d="M118-4.6h-12.5c-0.4,0-0.9-0.1-1.3-0.2c-1.9-0.6-3.3-2.4-3.3-4.5c0-2.5,2-4.6,4.6-4.7
		c0.6-2.8,3-4.9,5.9-4.9c2.5,0,4.6,1.5,5.5,3.7c0.3,0,0.5-0.1,0.8-0.1c2.9,0,5.3,2.4,5.3,5.3c0,2.3-1.5,4.3-3.7,5
		C118.9-4.7,118.5-4.6,118-4.6L118-4.6z M105.6-12c-1.5,0-2.7,1.2-2.7,2.7c0,1.2,0.8,2.3,1.9,2.6c0.2,0.1,0.5,0.1,0.7,0.1H118
		c0.2,0,0.5,0,0.7-0.1l0.1,0c1.4-0.4,2.3-1.7,2.3-3.2c0-1.8-1.5-3.3-3.3-3.3c-0.4,0-0.8,0.1-1.1,0.2l-1,0.4l-0.3-1.1
		c-0.4-1.8-2.1-3.1-3.9-3.1c-2.2,0-4,1.8-4,4l0,1.2l-1.2-0.2C106-11.9,105.8-12,105.6-12L105.6-12z"/>
</g>
<path id="XMLID_10818_" class="st0" d="M25.5,10.7c-0.2,0-0.4,0-0.6,0c-0.7-1.7-2.3-2.8-4.2-2.8c-2.2,0-4,1.6-4.5,3.7
	c-0.7,0-1.3,0.2-1.8,0.6c-1-0.6-2.1-1-3.3-1c-2.9,0-5.4,2.1-5.9,4.9c-2.5,0.1-4.6,2.1-4.6,4.7c0,2.1,1.4,3.9,3.3,4.5
	c0.4,0.1,0.8,0.2,1.3,0.2h12.5c0.5,0,0.9-0.1,1.4-0.3c2.2-0.7,3.7-2.7,3.7-5c0-0.5-0.1-1-0.2-1.4h3.1c0.4,0,0.7-0.1,1-0.2
	c1.7-0.5,2.8-2.1,2.8-3.8C29.5,12.5,27.7,10.7,25.5,10.7z M18.5,23.3L18.5,23.3c-0.3,0.1-0.5,0.2-0.8,0.2H5.3c-0.2,0-0.4,0-0.7-0.1
	c-1.1-0.3-1.9-1.4-1.9-2.6c0-1.5,1.2-2.7,2.7-2.7c0.2,0,0.4,0,0.6,0.1l1.2,0.2l0-1.2c0-2.2,1.9-4,4-4c1.9,0,3.5,1.3,3.9,3.1l0.3,1.1
	l1-0.4c0.4-0.1,0.7-0.2,1.1-0.2c1.8,0,3.3,1.5,3.3,3.3C20.8,21.6,19.9,22.8,18.5,23.3z M26.2,17.1c-0.2,0.1-0.4,0.1-0.6,0.1h-3.7
	c-0.9-1.4-2.6-2.4-4.4-2.4c-0.3,0-0.5,0-0.8,0.1c-0.3-0.6-0.6-1.2-1-1.6c0.2-0.1,0.4-0.1,0.7-0.1c0.1,0,0.3,0,0.4,0l0.9,0.2l0-0.9
	c0-1.7,1.4-3,3.1-3c1.4,0,2.7,1,3,2.4l0.2,0.8l0.8-0.3c0.3-0.1,0.6-0.2,0.9-0.2c1.4,0,2.5,1.1,2.5,2.5C28,15.8,27.3,16.8,26.2,17.1z
	"/>
<g id="XMLID_10809_">
	<path id="XMLID_10815_" class="st0" d="M66.6,29.2c-0.3,0-0.5,0-0.8,0.1c-0.9-2.2-3.1-3.7-5.6-3.7c-2.9,0-5.4,2.1-5.9,4.9
		c-2.5,0.1-4.6,2.1-4.6,4.7c0,2.1,1.4,3.9,3.3,4.5c0.4,0.1,0.8,0.2,1.3,0.2h12.5c0.5,0,1-0.1,1.4-0.3c2.2-0.7,3.7-2.7,3.7-5
		C71.9,31.6,69.5,29.2,66.6,29.2z M67.6,37.7L67.6,37.7c-0.3,0.1-0.5,0.2-0.8,0.2H54.4c-0.2,0-0.4,0-0.7-0.1
		c-1.1-0.3-1.9-1.4-1.9-2.6c0-1.5,1.2-2.7,2.7-2.7c0.2,0,0.4,0,0.6,0.1l1.2,0.2l0-1.2c0-2.2,1.9-4,4-4c1.9,0,3.5,1.3,3.9,3.1
		l0.3,1.1l1-0.4c0.4-0.1,0.7-0.2,1.1-0.2c1.8,0,3.3,1.5,3.3,3.3C70,36,69,37.3,67.6,37.7z"/>
	<path id="XMLID_10814_" class="st0" d="M56.4,41.1c-0.4-0.2-0.8-0.1-1,0.3l-1,1.7c-0.2,0.4-0.1,0.8,0.3,1c0.1,0.1,0.2,0.1,0.4,0.1
		c0.3,0,0.5-0.1,0.6-0.4l1-1.7C56.9,41.8,56.8,41.3,56.4,41.1z"/>
	<path id="XMLID_10813_" class="st0" d="M61.1,41.1c-0.4-0.2-0.8-0.1-1,0.3l-1,1.7c-0.2,0.4-0.1,0.8,0.3,1c0.1,0.1,0.2,0.1,0.4,0.1
		c0.3,0,0.5-0.1,0.6-0.4l1-1.7C61.6,41.8,61.5,41.3,61.1,41.1z"/>
	<path id="XMLID_10812_" class="st0" d="M65.8,41.1c-0.4-0.2-0.8-0.1-1,0.3l-1,1.7c-0.2,0.4-0.1,0.8,0.3,1c0.1,0.1,0.2,0.1,0.4,0.1
		c0.3,0,0.5-0.1,0.6-0.4l1-1.7C66.3,41.8,66.2,41.3,65.8,41.1z"/>
	<path id="XMLID_10811_" class="st0" d="M57.8,44.3c-0.4-0.2-0.8-0.1-1,0.3l-1,1.7c-0.2,0.4-0.1,0.8,0.3,1c0.1,0.1,0.2,0.1,0.4,0.1
		c0.3,0,0.5-0.1,0.6-0.4l1-1.7C58.3,45,58.2,44.5,57.8,44.3z"/>
	<path id="XMLID_10810_" class="st0" d="M62.5,44.3c-0.4-0.2-0.8-0.1-1,0.3l-1,1.7c-0.2,0.4-0.1,0.8,0.3,1c0.1,0.1,0.2,0.1,0.4,0.1
		c0.3,0,0.5-0.1,0.6-0.4l1-1.7C63,45,62.9,44.5,62.5,44.3z"/>
</g>
<g id="XMLID_10795_">
	<path id="XMLID_10808_" class="st0" d="M66.9-71.1C66.9-71.1,67-71.1,66.9-71.1c0.5-0.1,0.8-0.4,0.7-0.8l-0.3-2
		c-0.1-0.4-0.4-0.7-0.8-0.6c-0.4,0.1-0.7,0.4-0.6,0.8l0.3,2C66.2-71.4,66.5-71.1,66.9-71.1z"/>
	<path id="XMLID_10807_" class="st0" d="M62.2-69.8c0.1,0.2,0.4,0.3,0.6,0.3c0.2,0,0.3,0,0.4-0.2c0.3-0.2,0.4-0.7,0.1-1l-1.2-1.6
		c-0.2-0.3-0.7-0.4-1-0.1c-0.3,0.2-0.4,0.7-0.1,1L62.2-69.8z"/>
	<path id="XMLID_10806_" class="st0" d="M77.8-59.9l-1.8-0.8c-0.4-0.2-0.8,0-1,0.4c-0.2,0.4,0,0.8,0.4,1l1.8,0.8
		c0.1,0,0.2,0.1,0.3,0.1c0.3,0,0.6-0.2,0.7-0.5C78.3-59.3,78.1-59.8,77.8-59.9z"/>
	<path id="XMLID_10805_" class="st0" d="M78.2-65.3l-2,0.3c-0.4,0.1-0.7,0.4-0.6,0.8c0.1,0.4,0.4,0.6,0.7,0.6c0,0,0.1,0,0.1,0l2-0.3
		c0.4-0.1,0.7-0.4,0.6-0.8C78.9-65.1,78.6-65.4,78.2-65.3z"/>
	<path id="XMLID_10804_" class="st0" d="M76.7-69.1c0.3-0.2,0.4-0.7,0.1-1c-0.2-0.3-0.7-0.4-1-0.1L74.2-69c-0.3,0.2-0.4,0.7-0.1,1
		c0.1,0.2,0.4,0.3,0.6,0.3c0.2,0,0.3,0,0.5-0.2L76.7-69.1z"/>
	<path id="XMLID_10803_" class="st0" d="M71-70.5c0.1,0,0.2,0.1,0.3,0.1c0.3,0,0.6-0.2,0.7-0.5l0.8-1.8c0.2-0.4,0-0.8-0.4-1
		c-0.4-0.2-0.8,0-1,0.4l-0.8,1.8C70.4-71.1,70.6-70.7,71-70.5z"/>
	<path id="XMLID_10799_" class="st0" d="M73.9-64.2c-0.4-3-3-5.3-6-5.3c-0.3,0-0.5,0-0.8,0.1c-1.5,0.2-2.7,0.9-3.6,1.9
		c-0.7-0.2-1.4-0.4-2.1-0.4c-2.9,0-5.4,2.1-5.9,4.9c-2.5,0.1-4.6,2.1-4.6,4.7c0,2.1,1.4,3.9,3.3,4.5c0.4,0.1,0.8,0.2,1.3,0.2h12.4
		c0.5,0,0.9-0.1,1.4-0.3c2.2-0.7,3.7-2.7,3.7-5c0-0.4,0-0.8-0.1-1.1C73.7-61.2,74-62.7,73.9-64.2z M68.7-55.8L68.7-55.8
		c-0.3,0.1-0.5,0.2-0.8,0.2H55.5c-0.2,0-0.4,0-0.7-0.1c-1.1-0.3-1.9-1.4-1.9-2.6c0-1.5,1.2-2.7,2.7-2.7c0.2,0,0.4,0,0.6,0.1l1.2,0.2
		l0-1.2c0-2.2,1.9-4,4-4c1.9,0,3.5,1.3,3.9,3.1l0.3,1.1l1-0.4c0.4-0.1,0.7-0.2,1.1-0.2c1.8,0,3.3,1.5,3.3,3.3
		C71-57.5,70.1-56.2,68.7-55.8z M67.7-64.2c-0.3,0-0.5,0-0.8,0.1c-0.4-0.9-1-1.7-1.7-2.3c0.6-0.5,1.3-0.8,2.1-1c0.2,0,0.4,0,0.5,0
		c2,0,3.8,1.5,4,3.5c0.1,0.5,0,1.1-0.1,1.6C70.8-63.5,69.3-64.2,67.7-64.2z"/>
	<path id="XMLID_10798_" class="st0" d="M57.5-52.3c-0.4-0.2-0.8-0.1-1,0.3l-1,1.7c-0.2,0.4-0.1,0.8,0.3,1c0.1,0.1,0.2,0.1,0.4,0.1
		c0.3,0,0.5-0.1,0.6-0.4l1-1.7C58-51.7,57.9-52.1,57.5-52.3z"/>
	<path id="XMLID_10797_" class="st0" d="M62.2-52.3c-0.4-0.2-0.8-0.1-1,0.3l-1,1.7c-0.2,0.4-0.1,0.8,0.3,1c0.1,0.1,0.2,0.1,0.4,0.1
		c0.3,0,0.5-0.1,0.6-0.4l1-1.7C62.7-51.7,62.6-52.1,62.2-52.3z"/>
	<path id="XMLID_10796_" class="st0" d="M66.9-52.3c-0.4-0.2-0.8-0.1-1,0.3l-1,1.7c-0.2,0.4-0.1,0.8,0.3,1c0.1,0.1,0.2,0.1,0.4,0.1
		c0.3,0,0.5-0.1,0.6-0.4l1-1.7C67.4-51.7,67.2-52.1,66.9-52.3z"/>
</g>
<g id="XMLID_10784_">
	<path id="XMLID_10794_" class="st0" d="M5.9-47.7l-1.8-0.8c-0.4-0.2-0.8,0-1,0.4c-0.2,0.4,0,0.8,0.4,1l1.8,0.8
		c0.1,0,0.2,0.1,0.3,0.1c0.3,0,0.6-0.2,0.7-0.5C6.5-47.1,6.3-47.6,5.9-47.7z"/>
	<path id="XMLID_10793_" class="st0" d="M6.3-53.1l-2,0.3c-0.4,0.1-0.7,0.4-0.6,0.8c0,0.4,0.4,0.6,0.7,0.6c0,0,0.1,0,0.1,0l2-0.3
		c0.4-0.1,0.7-0.4,0.6-0.8C7.1-52.9,6.7-53.2,6.3-53.1z"/>
	<path id="XMLID_10792_" class="st0" d="M4.9-56.9c0.3-0.2,0.4-0.7,0.1-1c-0.3-0.3-0.7-0.4-1-0.1l-1.6,1.2c-0.3,0.2-0.4,0.7-0.1,1
		c0.1,0.2,0.4,0.3,0.6,0.3c0.2,0,0.3,0,0.4-0.2L4.9-56.9z"/>
	<path id="XMLID_10791_" class="st0" d="M-4.9-58.9C-4.9-58.9-4.9-58.9-4.9-58.9c0.5-0.1,0.8-0.4,0.7-0.8l-0.3-2
		c-0.1-0.4-0.4-0.7-0.8-0.6c-0.4,0.1-0.7,0.4-0.6,0.8l0.3,2C-5.6-59.2-5.3-58.9-4.9-58.9z"/>
	<path id="XMLID_10790_" class="st0" d="M-9.6-57.6c0.1,0.2,0.4,0.3,0.6,0.3c0.2,0,0.3-0.1,0.4-0.2c0.3-0.2,0.4-0.7,0.1-1L-9.6-60
		c-0.2-0.3-0.7-0.4-1-0.1c-0.3,0.2-0.4,0.7-0.1,1L-9.6-57.6z"/>
	<path id="XMLID_10789_" class="st0" d="M-0.9-58.3c0.1,0,0.2,0.1,0.3,0.1c0.3,0,0.6-0.2,0.7-0.5l0.8-1.8c0.2-0.4,0-0.8-0.4-1
		c-0.4-0.2-0.8,0-1,0.4l-0.8,1.8C-1.4-58.9-1.2-58.5-0.9-58.3z"/>
	<path id="XMLID_10785_" class="st0" d="M2-52c-0.4-3-3-5.3-6-5.3c-0.3,0-0.5,0-0.8,0c-1.5,0.2-2.7,0.9-3.6,1.9
		c-0.7-0.2-1.4-0.4-2.1-0.4c-2.9,0-5.4,2.1-5.9,4.9c-2.5,0.1-4.6,2.1-4.6,4.7c0,2,1.4,3.9,3.3,4.5c0.4,0.1,0.8,0.2,1.3,0.2h12.4
		c0.5,0,0.9-0.1,1.4-0.3c2.2-0.7,3.7-2.7,3.7-5c0-0.4,0-0.8-0.1-1.1C1.8-49,2.2-50.5,2-52z M-3.1-43.6L-3.1-43.6
		c-0.3,0.1-0.5,0.2-0.8,0.2h-12.4c-0.2,0-0.4,0-0.7-0.1c-1.1-0.3-1.9-1.4-1.9-2.6c0-1.5,1.2-2.7,2.7-2.7c0.2,0,0.4,0,0.6,0.1
		l1.2,0.2l0-1.2c0-2.2,1.9-4,4-4c1.9,0,3.5,1.3,3.9,3.1l0.3,1.1l1-0.4c0.4-0.1,0.7-0.2,1.1-0.2c1.8,0,3.3,1.5,3.3,3.3
		C-0.8-45.3-1.7-44-3.1-43.6z M-4.1-52c-0.3,0-0.5,0-0.8,0.1c-0.4-0.9-1-1.7-1.7-2.3c0.6-0.5,1.3-0.9,2.1-1c0.2,0,0.4,0,0.5,0
		c2,0,3.8,1.5,4,3.5c0.1,0.5,0,1.1-0.1,1.6C-1-51.3-2.5-52-4.1-52z"/>
</g>
<g id="XMLID_10755_">
	<g id="XMLID_10780_">
		<path id="XMLID_10781_" class="st0" d="M-60.5,44.4c-3.3,0-6-2.7-6-6c0-3.3,2.7-6,6-6c3.3,0,6,2.7,6,6
			C-54.5,41.7-57.2,44.4-60.5,44.4L-60.5,44.4z M-60.5,34.3c-2.2,0-4.1,1.8-4.1,4.1c0,2.2,1.8,4.1,4.1,4.1c2.2,0,4.1-1.8,4.1-4.1
			C-56.5,36.1-58.3,34.3-60.5,34.3L-60.5,34.3z"/>
	</g>
	<g id="XMLID_10778_">
		<path id="XMLID_10779_" class="st0" d="M-60.4,30.6c-0.4,0-0.7-0.3-0.7-0.7v-2c0-0.4,0.3-0.7,0.7-0.7c0.4,0,0.7,0.3,0.7,0.7v2
			C-59.7,30.3-60,30.6-60.4,30.6L-60.4,30.6z"/>
	</g>
	<g id="XMLID_10776_">
		<path id="XMLID_10777_" class="st0" d="M-64.7,31.7c-0.3,0-0.5-0.1-0.6-0.4l-1-1.7c-0.2-0.4-0.1-0.8,0.3-1c0.4-0.2,0.8-0.1,1,0.3
			l1,1.7c0.2,0.4,0.1,0.8-0.3,1C-64.4,31.6-64.5,31.7-64.7,31.7L-64.7,31.7z"/>
	</g>
	<g id="XMLID_10774_">
		<path id="XMLID_10775_" class="st0" d="M-67.8,34.7c-0.1,0-0.3,0-0.4-0.1l-1.7-1c-0.4-0.2-0.5-0.7-0.3-1c0.2-0.4,0.7-0.5,1-0.3
			l1.7,1c0.4,0.2,0.5,0.7,0.3,1C-67.3,34.6-67.6,34.7-67.8,34.7L-67.8,34.7z"/>
	</g>
	<g id="XMLID_10772_">
		<path id="XMLID_10773_" class="st0" d="M-69,39h-2c-0.4,0-0.7-0.3-0.7-0.7c0-0.4,0.3-0.7,0.7-0.7h2c0.4,0,0.7,0.3,0.7,0.7
			C-68.3,38.6-68.6,39-69,39L-69,39z"/>
	</g>
	<g id="XMLID_10770_">
		<path id="XMLID_10771_" class="st0" d="M-69.6,44.2c-0.3,0-0.5-0.1-0.6-0.4c-0.2-0.4-0.1-0.8,0.3-1l1.7-1c0.4-0.2,0.8-0.1,1,0.3
			c0.2,0.4,0.1,0.8-0.3,1l-1.7,1C-69.4,44.2-69.5,44.2-69.6,44.2L-69.6,44.2z"/>
	</g>
	<g id="XMLID_10768_">
		<path id="XMLID_10769_" class="st0" d="M-65.9,48.1c-0.1,0-0.3,0-0.4-0.1c-0.4-0.2-0.5-0.7-0.3-1l1-1.7c0.2-0.4,0.7-0.5,1-0.3
			c0.4,0.2,0.5,0.7,0.3,1l-1,1.7C-65.4,48-65.6,48.1-65.9,48.1L-65.9,48.1z"/>
	</g>
	<g id="XMLID_10766_">
		<path id="XMLID_10767_" class="st0" d="M-60.6,49.6c-0.4,0-0.7-0.3-0.7-0.7v-2c0-0.4,0.3-0.7,0.7-0.7c0.4,0,0.7,0.3,0.7,0.7v2
			C-59.9,49.2-60.2,49.6-60.6,49.6L-60.6,49.6z"/>
	</g>
	<g id="XMLID_10764_">
		<path id="XMLID_10765_" class="st0" d="M-55.4,48.2c-0.3,0-0.5-0.1-0.6-0.4l-1-1.7c-0.2-0.4-0.1-0.8,0.3-1c0.4-0.2,0.8-0.1,1,0.3
			l1,1.7c0.2,0.4,0.1,0.8-0.3,1C-55.1,48.2-55.3,48.2-55.4,48.2L-55.4,48.2z"/>
	</g>
	<g id="XMLID_10762_">
		<path id="XMLID_10763_" class="st0" d="M-51.5,44.4c-0.1,0-0.3,0-0.4-0.1l-1.7-1c-0.4-0.2-0.5-0.7-0.3-1c0.2-0.4,0.7-0.5,1-0.3
			l1.7,1c0.4,0.2,0.5,0.7,0.3,1C-51,44.3-51.3,44.4-51.5,44.4L-51.5,44.4z"/>
	</g>
	<g id="XMLID_10760_">
		<path id="XMLID_10761_" class="st0" d="M-50,39.2h-2c-0.4,0-0.7-0.3-0.7-0.7s0.3-0.7,0.7-0.7h2c0.4,0,0.7,0.3,0.7,0.7
			S-49.6,39.2-50,39.2L-50,39.2z"/>
	</g>
	<g id="XMLID_10758_">
		<path id="XMLID_10759_" class="st0" d="M-53.1,34.9c-0.3,0-0.5-0.1-0.6-0.4c-0.2-0.4-0.1-0.8,0.3-1l1.7-1c0.4-0.2,0.8-0.1,1,0.3
			c0.2,0.4,0.1,0.8-0.3,1l-1.7,1C-52.8,34.9-53,34.9-53.1,34.9L-53.1,34.9z"/>
	</g>
	<g id="XMLID_10756_">
		<path id="XMLID_10757_" class="st0" d="M-56.2,31.8c-0.1,0-0.3,0-0.4-0.1c-0.4-0.2-0.5-0.7-0.3-1l1-1.7c0.2-0.4,0.7-0.5,1-0.3
			c0.4,0.2,0.5,0.7,0.3,1l-1,1.7C-55.7,31.7-55.9,31.8-56.2,31.8L-56.2,31.8z"/>
	</g>
</g>
<g id="XMLID_1022_">
	<path id="XMLID_1024_" class="st0" d="M80.2,37.4h10.3c2,0,2.9-1.4,2.9-2.7c0-0.8-0.3-1.5-0.8-2.1c-0.6-0.6-1.5-1-2.6-1
		c-0.9,0-1.7,0.8-1.7,1.7c0,0.4,0.3,0.7,0.7,0.7c0.1,0,0.1,0,0.1-0.1c0-0.4,0.4-0.8,0.8-0.8s0.8,0.4,0.8,0.8c0,0.9-0.8,1.7-1.7,1.7
		c-1.3,0-2.3-1-2.3-2.3c0-1.8,1.5-3.3,3.3-3.3c1.9,0,3.1,0.8,3.7,1.4c0.8,0.8,1.3,2,1.3,3.2c0,1.1-0.4,2.3-1.2,3.1
		c0.3,0.1,0.6,0.2,0.9,0.3c0.9,0.4,1.5,1.1,1.9,1.9c0.3,0.9,0.3,1.8,0,2.7c-0.3,0.6-0.7,1.1-1.3,1.3c-0.3,0.1-0.6,0.2-0.9,0.2
		c-0.3,0-0.7-0.1-1-0.2c-0.4-0.2-0.8-0.5-0.9-1c-0.2-0.4-0.2-0.9,0-1.4c0.1-0.3,0.4-0.6,0.8-0.7c0.3-0.1,0.7-0.1,1.1,0
		c0.4,0.2,0.6,0.7,0.4,1.1c-0.1,0.3-0.4,0.5-0.7,0.5c0,0,0,0,0.1,0c0.2,0.1,0.4,0.1,0.6,0c0.2-0.1,0.4-0.2,0.4-0.4
		c0.2-0.5,0.2-1,0-1.4c-0.2-0.5-0.6-0.8-1-1.1c-0.7-0.3-1.8-0.5-3-0.5c0,0-0.1,0-0.1,0c-0.1,0-0.3,0-0.4,0H80.2
		c-0.4,0-0.8-0.4-0.8-0.8S79.8,37.4,80.2,37.4z"/>
	<path id="XMLID_1023_" class="st0" d="M83.6,40h4.5c1.8,0,3.3,1.5,3.3,3.3c0,1.3-1,2.3-2.3,2.3c-0.9,0-1.7-0.8-1.7-1.7
		c0-0.4,0.4-0.8,0.8-0.8c0.4,0,0.8,0.4,0.8,0.8c0,0.1,0,0.1,0.1,0.1c0.4,0,0.7-0.3,0.7-0.7c0-0.9-0.8-1.7-1.7-1.7h-4.5
		c-0.4,0-0.8-0.4-0.8-0.8C82.8,40.4,83.2,40,83.6,40z"/>
</g>
<g id="XMLID_114_">
	<path id="XMLID_115_" d="M-67.1,51.1c-0.2-0.5-0.5-0.9-0.9-0.9c-0.3,0-0.5,0.2-0.5,0.6c0,0.4,0.3,0.6,0.7,0.7
		c0.7,0.3,1.1,0.6,1.1,1.2c0,0.8-0.7,1.2-1.5,1.2c-0.5,0-0.9-0.2-1-0.3c-0.1-0.1-0.1-0.7-0.2-1.1l0.2,0c0.2,0.6,0.6,1.1,1.1,1.1
		c0.3,0,0.6-0.2,0.6-0.6c0-0.4-0.2-0.5-0.7-0.7c-0.5-0.2-1.1-0.5-1.1-1.2c0-0.6,0.5-1.1,1.3-1.1c0.4,0,0.6,0.1,0.8,0.2
		c0.1,0.2,0.2,0.7,0.2,0.9L-67.1,51.1z"/>
	<path id="XMLID_117_" d="M-61.8,53.6c-0.2,0-0.4,0.1-0.7,0.1c-0.2,0.1-0.5,0.1-0.7,0.2l-0.1,0v-0.6c-0.2,0.1-0.4,0.3-0.6,0.4
		c-0.3,0.1-0.4,0.2-0.7,0.2c-0.6,0-1.1-0.4-1.1-1.3V51c0-0.5-0.1-0.5-0.3-0.6l-0.2-0.1v-0.2c0.2,0,0.4,0,0.7-0.1
		c0.2,0,0.5-0.1,0.7-0.1c0,0.3,0,0.7,0,1.2v1.2c0,0.7,0.4,0.9,0.8,0.9c0.3,0,0.6-0.1,0.9-0.4v-2c0-0.5-0.1-0.5-0.4-0.6l-0.3-0.1
		v-0.2c0.2,0,0.6,0,0.8-0.1c0.3,0,0.5-0.1,0.6-0.1v2.8c0,0.4,0.1,0.5,0.4,0.5l0.2,0V53.6z"/>
	<path id="XMLID_119_" d="M-59,53.8v-0.2c0.5-0.1,0.6-0.1,0.6-0.7v-1.4c0-0.6-0.2-1-0.8-1c-0.3,0-0.7,0.2-0.9,0.4v2
		c0,0.6,0,0.6,0.6,0.7v0.2h-1.9v-0.2c0.6-0.1,0.6-0.1,0.6-0.7v-1.7c0-0.6-0.1-0.6-0.5-0.7v-0.2c0.4-0.1,0.9-0.2,1.3-0.3v0.7
		c0.2-0.1,0.4-0.3,0.6-0.4c0.2-0.2,0.5-0.3,0.7-0.3c0.7,0,1.1,0.5,1.1,1.3v1.6c0,0.6,0.1,0.6,0.6,0.7v0.2H-59z"/>
	<path id="XMLID_121_" d="M-54.1,53.8v-0.2c0.5-0.1,0.6-0.1,0.6-0.7v-1.4c0-0.6-0.2-1-0.8-1c-0.3,0-0.7,0.2-0.9,0.4v2
		c0,0.6,0,0.6,0.6,0.7v0.2h-1.9v-0.2c0.6-0.1,0.6-0.1,0.6-0.7v-1.7c0-0.6-0.1-0.6-0.5-0.7v-0.2c0.4-0.1,0.9-0.2,1.3-0.3v0.7
		c0.2-0.1,0.4-0.3,0.6-0.4c0.2-0.2,0.5-0.3,0.7-0.3c0.7,0,1.1,0.5,1.1,1.3v1.6c0,0.6,0.1,0.6,0.6,0.7v0.2H-54.1z"/>
	<path id="XMLID_123_" d="M-47.9,50.3c-0.5,0.1-0.5,0.1-0.8,0.6c-0.2,0.4-0.5,1.2-1.1,2.5c-0.6,1.4-0.8,1.9-0.9,2.3
		c0,0.2-0.2,0.2-0.3,0.2c-0.3,0-0.5-0.2-0.5-0.4c0-0.1,0.1-0.2,0.2-0.3c0.3-0.2,0.5-0.4,0.7-0.8c0.2-0.3,0.2-0.5,0.3-0.6
		c0.1-0.1,0-0.2,0-0.4c-0.4-1-0.8-2.1-1-2.6c-0.2-0.4-0.3-0.6-0.8-0.6v-0.2h1.8l0,0.2c-0.4,0.1-0.5,0.1-0.3,0.5l0.8,2.1
		c0.2-0.5,0.6-1.6,0.8-2.1c0.1-0.3,0-0.4-0.4-0.5v-0.2h1.6V50.3z"/>
	<path id="XMLID_125_" d="M-47.2,52.7c0.3,0,0.8,0.4,0.8,1c0,0.7-0.6,1.1-1.2,1.2l-0.1-0.3c0.4-0.2,0.7-0.4,0.7-0.7
		c0-0.3-0.2-0.5-0.6-0.6c0,0-0.1-0.1-0.1-0.2C-47.7,52.8-47.4,52.7-47.2,52.7L-47.2,52.7z"/>
	<path id="XMLID_127_" d="M-41.4,50.1C-41.2,50-41,50-40.9,50c1,0,1.6,0.8,1.6,1.6c0,1.3-1,2.1-2.2,2.3c-0.3,0-0.5-0.1-0.6-0.1v1.1
		c0,0.6,0.1,0.7,0.7,0.7v0.2h-2.1v-0.2c0.6-0.1,0.6-0.1,0.6-0.7v-3.9c0-0.5,0-0.6-0.6-0.6v-0.2c0.4-0.1,0.9-0.2,1.3-0.4v0.7
		L-41.4,50.1z M-42.1,53.2c0.2,0.2,0.5,0.3,0.8,0.3c0.7,0,1.2-0.7,1.2-1.5c0-0.9-0.6-1.4-1.2-1.4c-0.3,0-0.6,0.2-0.8,0.4V53.2z"/>
	<path id="XMLID_130_" d="M-36,53.9c-0.2,0-0.4-0.1-0.4-0.2c-0.1-0.1-0.2-0.2-0.2-0.4c-0.4,0.2-0.8,0.5-1,0.5
		c-0.7,0-1.1-0.5-1.1-1.1c0-0.4,0.2-0.7,0.7-0.8c0.6-0.2,1.2-0.4,1.3-0.6v-0.2c0-0.6-0.3-0.9-0.7-0.9c-0.2,0-0.3,0.1-0.4,0.2
		c-0.1,0.1-0.2,0.3-0.3,0.6c-0.1,0.2-0.1,0.2-0.3,0.2c-0.2,0-0.4-0.2-0.4-0.4c0-0.1,0.1-0.2,0.3-0.4c0.3-0.2,0.8-0.5,1.3-0.6
		c0.3,0,0.5,0.1,0.7,0.2c0.3,0.3,0.4,0.6,0.4,1.1v1.5c0,0.4,0.2,0.5,0.3,0.5c0.1,0,0.2,0,0.3-0.1l0.1,0.2L-36,53.9z M-36.7,51.8
		c-0.2,0.1-0.5,0.3-0.7,0.3c-0.3,0.1-0.5,0.3-0.5,0.6c0,0.5,0.3,0.7,0.6,0.7c0.2,0,0.5-0.1,0.6-0.3V51.8z"/>
	<path id="XMLID_133_" d="M-33.5,50.9c0.3-0.5,0.6-0.9,1-0.9c0.3,0,0.5,0.2,0.5,0.4c0,0.2-0.1,0.4-0.3,0.5c-0.1,0-0.2,0-0.2,0
		c-0.1-0.1-0.2-0.2-0.4-0.2c-0.2,0-0.5,0.3-0.7,0.7v1.5c0,0.6,0,0.6,0.7,0.7v0.2h-2.1v-0.2c0.5-0.1,0.6-0.1,0.6-0.7v-1.8
		c0-0.5,0-0.6-0.5-0.7v-0.2c0.4-0.1,0.8-0.2,1.3-0.4L-33.5,50.9L-33.5,50.9z"/>
	<path id="XMLID_135_" d="M-29.8,53.8c-0.2,0.1-0.3,0.1-0.4,0.1c-0.6,0-0.9-0.3-0.9-1v-2.5h-0.6l0-0.1l0.2-0.3h0.4v-0.6l0.6-0.6
		l0.1,0v1.2h1c0.1,0.1,0.1,0.3-0.1,0.4h-0.9v2.2c0,0.7,0.3,0.8,0.5,0.8c0.2,0,0.4-0.1,0.5-0.1l0.1,0.2L-29.8,53.8z"/>
	<path id="XMLID_137_" d="M-29,53.8v-0.2c0.5-0.1,0.6-0.1,0.6-0.7v-4c0-0.6-0.1-0.6-0.6-0.7V48c0.5-0.1,1-0.2,1.3-0.3v5.2
		c0,0.6,0.1,0.6,0.6,0.7v0.2H-29z"/>
	<path id="XMLID_139_" d="M-22.7,50.3c-0.5,0.1-0.5,0.1-0.8,0.6c-0.2,0.4-0.5,1.2-1.1,2.5c-0.6,1.4-0.8,1.9-0.9,2.3
		c0,0.2-0.2,0.2-0.3,0.2c-0.3,0-0.5-0.2-0.5-0.4c0-0.1,0.1-0.2,0.2-0.3c0.3-0.2,0.5-0.4,0.7-0.8c0.2-0.3,0.2-0.5,0.3-0.6
		c0.1-0.1,0-0.2,0-0.4c-0.4-1-0.8-2.1-1-2.6c-0.2-0.4-0.3-0.6-0.8-0.6v-0.2h1.8l0,0.2c-0.4,0.1-0.5,0.1-0.3,0.5l0.8,2.1
		c0.2-0.5,0.6-1.6,0.8-2.1c0.1-0.3,0-0.4-0.4-0.5v-0.2h1.6V50.3z"/>
	<path id="XMLID_141_" d="M-20.3,52.2h-2l0.1-0.5h2.1L-20.3,52.2z"/>
	<path id="XMLID_143_" d="M-16.1,53c-0.4,0.5-1,0.9-1.5,0.9c-1.1,0-1.8-0.9-1.8-1.8c0-0.7,0.3-1.2,0.9-1.7c0.5-0.4,1-0.5,1.3-0.5h0
		c0.4,0,0.6,0.1,0.8,0.2c0.1,0.1,0.1,0.2,0.1,0.3c0,0.2-0.2,0.4-0.3,0.4c-0.1,0-0.1,0-0.2-0.1c-0.3-0.3-0.6-0.4-0.9-0.4
		c-0.5,0-1,0.4-1,1.3c0,1.2,0.9,1.6,1.3,1.6c0.4,0,0.7-0.1,1-0.5L-16.1,53z"/>
	<path id="XMLID_145_" d="M-15.9,53.8v-0.2c0.5-0.1,0.6-0.1,0.6-0.7v-4c0-0.6-0.1-0.6-0.6-0.7V48c0.5-0.1,1-0.2,1.3-0.3v5.2
		c0,0.6,0.1,0.6,0.6,0.7v0.2H-15.9z"/>
	<path id="XMLID_147_" d="M-11.5,50c1.1,0,1.9,0.9,1.9,1.9c0,1.4-1.1,2-1.9,2c-1.2,0-2-0.9-2-1.9C-13.5,50.7-12.3,50-11.5,50
		L-11.5,50z M-11.6,50.3c-0.5,0-1,0.5-1,1.5c0,1.1,0.5,1.9,1.2,1.9c0.5,0,1-0.3,1-1.5C-10.4,51.1-10.8,50.3-11.6,50.3L-11.6,50.3z"
		/>
	<path id="XMLID_150_" d="M-4.6,53.6c-0.2,0-0.4,0.1-0.7,0.1c-0.2,0.1-0.5,0.1-0.7,0.2l-0.1,0v-0.6c-0.2,0.1-0.4,0.3-0.6,0.4
		c-0.3,0.1-0.4,0.2-0.7,0.2c-0.6,0-1.1-0.4-1.1-1.3V51c0-0.5-0.1-0.5-0.3-0.6L-9,50.4v-0.2c0.2,0,0.4,0,0.7-0.1
		c0.2,0,0.5-0.1,0.7-0.1c0,0.3,0,0.7,0,1.2v1.2c0,0.7,0.4,0.9,0.8,0.9c0.3,0,0.6-0.1,0.9-0.4v-2c0-0.5-0.1-0.5-0.4-0.6l-0.3-0.1
		v-0.2c0.2,0,0.6,0,0.8-0.1c0.3,0,0.5-0.1,0.6-0.1v2.8c0,0.4,0.1,0.5,0.4,0.5l0.2,0V53.6z"/>
	<path id="XMLID_152_" d="M0,53.6c-0.2,0-0.9,0.1-1.4,0.3v-0.6l-0.5,0.3c-0.3,0.2-0.6,0.2-0.7,0.2c-0.7,0-1.7-0.6-1.7-1.8
		c0-1.2,1.1-2.1,2.3-2.1c0.1,0,0.4,0,0.6,0.1v-1.2c0-0.6-0.1-0.6-0.7-0.6V48c0.5-0.1,1.1-0.2,1.4-0.3v5.1c0,0.5,0.1,0.5,0.4,0.5
		l0.2,0V53.6z M-1.4,50.8c-0.2-0.3-0.6-0.4-0.9-0.4c-0.4,0-1.1,0.3-1.1,1.6c0,1,0.7,1.5,1.2,1.5c0.3,0,0.6-0.1,0.8-0.3V50.8z"/>
	<path id="XMLID_155_" d="M4.3,50.3c-0.5,0.1-0.5,0.1-0.8,0.6c-0.2,0.4-0.5,1.2-1.1,2.5c-0.6,1.4-0.8,1.9-0.9,2.3
		C1.5,56,1.4,56,1.3,56c-0.3,0-0.5-0.2-0.5-0.4c0-0.1,0.1-0.2,0.2-0.3c0.3-0.2,0.5-0.4,0.7-0.8c0.2-0.3,0.2-0.5,0.3-0.6
		c0.1-0.1,0-0.2,0-0.4c-0.4-1-0.8-2.1-1-2.6c-0.2-0.4-0.3-0.6-0.8-0.6v-0.2H2l0,0.2c-0.4,0.1-0.5,0.1-0.3,0.5l0.8,2.1
		c0.2-0.5,0.6-1.6,0.8-2.1c0.1-0.3,0-0.4-0.4-0.5v-0.2h1.6V50.3z"/>
	<path id="XMLID_157_" d="M5,52.7c0.3,0,0.8,0.4,0.8,1c0,0.7-0.6,1.1-1.2,1.2l-0.1-0.3c0.4-0.2,0.7-0.4,0.7-0.7
		c0-0.3-0.2-0.5-0.6-0.6c0,0-0.1-0.1-0.1-0.2C4.5,52.8,4.8,52.7,5,52.7L5,52.7z"/>
	<path id="XMLID_159_" d="M11.1,51.1c-0.2-0.5-0.5-0.9-0.9-0.9c-0.3,0-0.5,0.2-0.5,0.6c0,0.4,0.3,0.6,0.7,0.7
		c0.7,0.3,1.1,0.6,1.1,1.2c0,0.8-0.7,1.2-1.5,1.2c-0.5,0-0.9-0.2-1-0.3c-0.1-0.1-0.1-0.7-0.2-1.1l0.2,0c0.2,0.6,0.6,1.1,1.1,1.1
		c0.3,0,0.6-0.2,0.6-0.6c0-0.4-0.2-0.5-0.7-0.7C9.6,52.1,9,51.8,9,51.1c0-0.6,0.5-1.1,1.3-1.1c0.4,0,0.6,0.1,0.8,0.2
		c0.1,0.2,0.2,0.7,0.2,0.9L11.1,51.1z"/>
	<path id="XMLID_161_" d="M16.3,53.6c-0.2,0-0.4,0.1-0.7,0.1c-0.2,0.1-0.5,0.1-0.7,0.2l-0.1,0v-0.6c-0.2,0.1-0.4,0.3-0.6,0.4
		c-0.3,0.1-0.4,0.2-0.7,0.2c-0.6,0-1.1-0.4-1.1-1.3V51c0-0.5-0.1-0.5-0.3-0.6L12,50.4v-0.2c0.2,0,0.4,0,0.7-0.1
		c0.2,0,0.5-0.1,0.7-0.1c0,0.3,0,0.7,0,1.2v1.2c0,0.7,0.4,0.9,0.8,0.9c0.3,0,0.6-0.1,0.9-0.4v-2c0-0.5-0.1-0.5-0.4-0.6l-0.3-0.1
		v-0.2c0.2,0,0.6,0,0.8-0.1c0.3,0,0.5-0.1,0.6-0.1v2.8c0,0.4,0.1,0.5,0.4,0.5l0.2,0V53.6z"/>
	<path id="XMLID_163_" d="M19.2,53.8v-0.2c0.5-0.1,0.6-0.1,0.6-0.7v-1.4c0-0.6-0.2-1-0.8-1c-0.3,0-0.7,0.2-0.9,0.4v2
		c0,0.6,0,0.6,0.6,0.7v0.2h-1.9v-0.2c0.6-0.1,0.6-0.1,0.6-0.7v-1.7c0-0.6-0.1-0.6-0.5-0.7v-0.2c0.4-0.1,0.9-0.2,1.3-0.3v0.7
		c0.2-0.1,0.4-0.3,0.6-0.4c0.2-0.2,0.5-0.3,0.7-0.3c0.7,0,1.1,0.5,1.1,1.3v1.6c0,0.6,0.1,0.6,0.6,0.7v0.2H19.2z"/>
	<path id="XMLID_165_" d="M24,53.8v-0.2c0.5-0.1,0.6-0.1,0.6-0.7v-1.4c0-0.6-0.2-1-0.8-1c-0.3,0-0.7,0.2-0.9,0.4v2
		c0,0.6,0,0.6,0.6,0.7v0.2h-1.9v-0.2c0.6-0.1,0.6-0.1,0.6-0.7v-1.7c0-0.6-0.1-0.6-0.5-0.7v-0.2c0.4-0.1,0.9-0.2,1.3-0.3v0.7
		c0.2-0.1,0.4-0.3,0.6-0.4c0.2-0.2,0.5-0.3,0.7-0.3c0.7,0,1.1,0.5,1.1,1.3v1.6c0,0.6,0.1,0.6,0.6,0.7v0.2H24z"/>
	<path id="XMLID_167_" d="M30.3,50.3c-0.5,0.1-0.5,0.1-0.8,0.6c-0.2,0.4-0.5,1.2-1.1,2.5c-0.6,1.4-0.8,1.9-0.9,2.3
		c0,0.2-0.2,0.2-0.3,0.2c-0.3,0-0.5-0.2-0.5-0.4c0-0.1,0.1-0.2,0.2-0.3c0.3-0.2,0.5-0.4,0.7-0.8c0.2-0.3,0.2-0.5,0.3-0.6
		c0.1-0.1,0-0.2,0-0.4c-0.4-1-0.8-2.1-1-2.6c-0.2-0.4-0.3-0.6-0.8-0.6v-0.2h1.8l0,0.2c-0.4,0.1-0.5,0.1-0.3,0.5l0.8,2.1
		c0.2-0.5,0.6-1.6,0.8-2.1c0.1-0.3,0-0.4-0.4-0.5v-0.2h1.6V50.3z"/>
	<path id="XMLID_169_" d="M32.7,52.2h-2l0.1-0.5h2.1L32.7,52.2z"/>
	<path id="XMLID_171_" d="M34.9,50.9c0.3-0.5,0.6-0.9,1-0.9c0.3,0,0.5,0.2,0.5,0.4c0,0.2-0.1,0.4-0.3,0.5c-0.1,0-0.2,0-0.2,0
		c-0.1-0.1-0.2-0.2-0.4-0.2c-0.2,0-0.5,0.3-0.7,0.7v1.5c0,0.6,0,0.6,0.7,0.7v0.2h-2.1v-0.2c0.5-0.1,0.6-0.1,0.6-0.7v-1.8
		c0-0.5,0-0.6-0.5-0.7v-0.2c0.4-0.1,0.8-0.2,1.3-0.4L34.9,50.9L34.9,50.9z"/>
	<path id="XMLID_173_" d="M39.6,53.9c-0.2,0-0.4-0.1-0.4-0.2c-0.1-0.1-0.2-0.2-0.2-0.4c-0.4,0.2-0.8,0.5-1,0.5
		c-0.7,0-1.1-0.5-1.1-1.1c0-0.4,0.2-0.7,0.7-0.8c0.6-0.2,1.2-0.4,1.3-0.6v-0.2c0-0.6-0.3-0.9-0.7-0.9c-0.2,0-0.3,0.1-0.4,0.2
		c-0.1,0.1-0.2,0.3-0.3,0.6c-0.1,0.2-0.1,0.2-0.3,0.2c-0.2,0-0.4-0.2-0.4-0.4c0-0.1,0.1-0.2,0.3-0.4c0.3-0.2,0.8-0.5,1.3-0.6
		c0.3,0,0.5,0.1,0.7,0.2c0.3,0.3,0.4,0.6,0.4,1.1v1.5c0,0.4,0.2,0.5,0.3,0.5c0.1,0,0.2,0,0.3-0.1l0.1,0.2L39.6,53.9z M38.9,51.8
		c-0.2,0.1-0.5,0.3-0.7,0.3c-0.3,0.1-0.5,0.3-0.5,0.6c0,0.5,0.3,0.7,0.6,0.7c0.2,0,0.5-0.1,0.6-0.3V51.8z"/>
	<path id="XMLID_176_" d="M40.7,53.8v-0.2c0.5-0.1,0.6-0.1,0.6-0.7v-1.7c0-0.5,0-0.6-0.5-0.7v-0.2c0.5-0.1,0.9-0.2,1.3-0.3v2.9
		c0,0.6,0.1,0.6,0.6,0.7v0.2H40.7z M41.2,48.8c0-0.3,0.2-0.5,0.5-0.5s0.5,0.2,0.5,0.5c0,0.2-0.2,0.5-0.5,0.5
		C41.4,49.3,41.2,49.1,41.2,48.8z"/>
	<path id="XMLID_179_" d="M45.6,53.8v-0.2c0.5-0.1,0.6-0.1,0.6-0.7v-1.4c0-0.6-0.2-1-0.8-1c-0.3,0-0.7,0.2-0.9,0.4v2
		c0,0.6,0,0.6,0.6,0.7v0.2h-1.9v-0.2c0.6-0.1,0.6-0.1,0.6-0.7v-1.7c0-0.6-0.1-0.6-0.5-0.7v-0.2c0.4-0.1,0.9-0.2,1.3-0.3v0.7
		c0.2-0.1,0.4-0.3,0.6-0.4c0.2-0.2,0.5-0.3,0.7-0.3c0.7,0,1.1,0.5,1.1,1.3v1.6c0,0.6,0.1,0.6,0.6,0.7v0.2H45.6z"/>
	<path id="XMLID_181_" d="M51.9,50.3c-0.5,0.1-0.5,0.1-0.8,0.6c-0.2,0.4-0.5,1.2-1.1,2.5c-0.6,1.4-0.8,1.9-0.9,2.3
		c0,0.2-0.2,0.2-0.3,0.2c-0.3,0-0.5-0.2-0.5-0.4c0-0.1,0.1-0.2,0.2-0.3c0.3-0.2,0.5-0.4,0.7-0.8c0.2-0.3,0.2-0.5,0.3-0.6
		c0.1-0.1,0-0.2,0-0.4c-0.4-1-0.8-2.1-1-2.6c-0.2-0.4-0.3-0.6-0.8-0.6v-0.2h1.8l0,0.2c-0.4,0.1-0.5,0.1-0.3,0.5l0.8,2.1
		c0.2-0.5,0.6-1.6,0.8-2.1c0.1-0.3,0-0.4-0.4-0.5v-0.2h1.6V50.3z"/>
	<path id="XMLID_183_" d="M52.5,52.7c0.3,0,0.8,0.4,0.8,1c0,0.7-0.6,1.1-1.2,1.2L52,54.6c0.4-0.2,0.7-0.4,0.7-0.7
		c0-0.3-0.2-0.5-0.6-0.6c0,0-0.1-0.1-0.1-0.2C52.1,52.8,52.3,52.7,52.5,52.7L52.5,52.7z"/>
	<path id="XMLID_185_" d="M57.7,50.9c0.3-0.5,0.6-0.9,1-0.9c0.3,0,0.5,0.2,0.5,0.4c0,0.2-0.1,0.4-0.3,0.5c-0.1,0-0.2,0-0.2,0
		c-0.1-0.1-0.2-0.2-0.4-0.2c-0.2,0-0.5,0.3-0.7,0.7v1.5c0,0.6,0,0.6,0.7,0.7v0.2h-2.1v-0.2c0.5-0.1,0.6-0.1,0.6-0.7v-1.8
		c0-0.5,0-0.6-0.5-0.7v-0.2c0.4-0.1,0.8-0.2,1.3-0.4L57.7,50.9L57.7,50.9z"/>
	<path id="XMLID_187_" d="M62.4,53.9c-0.2,0-0.4-0.1-0.4-0.2c-0.1-0.1-0.2-0.2-0.2-0.4c-0.4,0.2-0.8,0.5-1,0.5
		c-0.7,0-1.1-0.5-1.1-1.1c0-0.4,0.2-0.7,0.7-0.8c0.6-0.2,1.2-0.4,1.3-0.6v-0.2c0-0.6-0.3-0.9-0.7-0.9c-0.2,0-0.3,0.1-0.4,0.2
		c-0.1,0.1-0.2,0.3-0.3,0.6c-0.1,0.2-0.1,0.2-0.3,0.2c-0.2,0-0.4-0.2-0.4-0.4c0-0.1,0.1-0.2,0.3-0.4c0.3-0.2,0.8-0.5,1.3-0.6
		c0.3,0,0.5,0.1,0.7,0.2c0.3,0.3,0.4,0.6,0.4,1.1v1.5c0,0.4,0.2,0.5,0.3,0.5c0.1,0,0.2,0,0.3-0.1l0.1,0.2L62.4,53.9z M61.7,51.8
		c-0.2,0.1-0.5,0.3-0.7,0.3c-0.3,0.1-0.5,0.3-0.5,0.6c0,0.5,0.3,0.7,0.6,0.7c0.2,0,0.5-0.1,0.6-0.3V51.8z"/>
	<path id="XMLID_190_" d="M63.5,53.8v-0.2c0.5-0.1,0.6-0.1,0.6-0.7v-1.7c0-0.5,0-0.6-0.5-0.7v-0.2c0.5-0.1,0.9-0.2,1.3-0.3v2.9
		c0,0.6,0.1,0.6,0.6,0.7v0.2H63.5z M63.9,48.8c0-0.3,0.2-0.5,0.5-0.5s0.5,0.2,0.5,0.5c0,0.2-0.2,0.5-0.5,0.5
		C64.2,49.3,63.9,49.1,63.9,48.8z"/>
	<path id="XMLID_193_" d="M68.4,53.8v-0.2c0.5-0.1,0.6-0.1,0.6-0.7v-1.4c0-0.6-0.2-1-0.8-1c-0.3,0-0.7,0.2-0.9,0.4v2
		c0,0.6,0,0.6,0.6,0.7v0.2h-1.9v-0.2c0.6-0.1,0.6-0.1,0.6-0.7v-1.7c0-0.6-0.1-0.6-0.5-0.7v-0.2c0.4-0.1,0.9-0.2,1.3-0.3v0.7
		c0.2-0.1,0.4-0.3,0.6-0.4c0.2-0.2,0.5-0.3,0.7-0.3c0.7,0,1.1,0.5,1.1,1.3v1.6c0,0.6,0.1,0.6,0.6,0.7v0.2H68.4z"/>
	<path id="XMLID_195_" d="M74.6,50.3c-0.5,0.1-0.5,0.1-0.8,0.6c-0.2,0.4-0.5,1.2-1.1,2.5c-0.6,1.4-0.8,1.9-0.9,2.3
		c0,0.2-0.2,0.2-0.3,0.2c-0.3,0-0.5-0.2-0.5-0.4c0-0.1,0.1-0.2,0.2-0.3c0.3-0.2,0.5-0.4,0.7-0.8c0.2-0.3,0.2-0.5,0.3-0.6
		c0.1-0.1,0-0.2,0-0.4c-0.4-1-0.8-2.1-1-2.6c-0.2-0.4-0.3-0.6-0.8-0.6v-0.2h1.8l0,0.2c-0.4,0.1-0.5,0.1-0.3,0.5l0.8,2.1
		c0.2-0.5,0.6-1.6,0.8-2.1c0.1-0.3,0-0.4-0.4-0.5v-0.2h1.6V50.3z"/>
	<path id="XMLID_197_" d="M75.3,52.7c0.3,0,0.8,0.4,0.8,1c0,0.7-0.6,1.1-1.2,1.2l-0.1-0.3c0.4-0.2,0.7-0.4,0.7-0.7
		c0-0.3-0.2-0.5-0.6-0.6c0,0-0.1-0.1-0.1-0.2C74.8,52.8,75.1,52.7,75.3,52.7L75.3,52.7z"/>
	<path id="XMLID_199_" d="M84.9,50.3c-0.4,0.1-0.5,0.2-0.7,0.6c-0.3,0.7-0.7,1.8-1.1,3h-0.3c-0.4-0.9-0.7-1.8-1.1-2.6
		c-0.3,0.9-0.7,1.7-1,2.6h-0.3c-0.3-1-0.7-2-1-3c-0.2-0.4-0.2-0.5-0.6-0.6v-0.2h1.9v0.2c-0.5,0.1-0.6,0.1-0.4,0.5
		c0.2,0.6,0.4,1.3,0.6,1.9h0c0.3-0.8,0.7-1.7,1-2.6h0.2c0.3,0.9,0.7,1.8,1,2.7h0c0.2-0.5,0.4-1.3,0.6-1.9c0.1-0.4,0.1-0.5-0.5-0.6
		v-0.2h1.6V50.3z"/>
	<path id="XMLID_201_" d="M85.1,53.8v-0.2c0.5-0.1,0.6-0.1,0.6-0.7v-1.7c0-0.5,0-0.6-0.5-0.7v-0.2c0.5-0.1,0.9-0.2,1.3-0.3v2.9
		c0,0.6,0.1,0.6,0.6,0.7v0.2H85.1z M85.5,48.8c0-0.3,0.2-0.5,0.5-0.5s0.5,0.2,0.5,0.5c0,0.2-0.2,0.5-0.5,0.5
		C85.8,49.3,85.5,49.1,85.5,48.8z"/>
	<path id="XMLID_204_" d="M90,53.8v-0.2c0.5-0.1,0.6-0.1,0.6-0.7v-1.4c0-0.6-0.2-1-0.8-1c-0.3,0-0.7,0.2-0.9,0.4v2
		c0,0.6,0,0.6,0.6,0.7v0.2h-1.9v-0.2c0.6-0.1,0.6-0.1,0.6-0.7v-1.7c0-0.6-0.1-0.6-0.5-0.7v-0.2c0.4-0.1,0.9-0.2,1.3-0.3v0.7
		c0.2-0.1,0.4-0.3,0.6-0.4c0.2-0.2,0.5-0.3,0.7-0.3c0.7,0,1.1,0.5,1.1,1.3v1.6c0,0.6,0.1,0.6,0.6,0.7v0.2H90z"/>
	<path id="XMLID_206_" d="M96.6,53.6c-0.2,0-0.9,0.1-1.4,0.3v-0.6l-0.5,0.3c-0.3,0.2-0.6,0.2-0.7,0.2c-0.7,0-1.7-0.6-1.7-1.8
		c0-1.2,1.1-2.1,2.3-2.1c0.1,0,0.4,0,0.6,0.1v-1.2c0-0.6-0.1-0.6-0.7-0.6V48c0.5-0.1,1.1-0.2,1.4-0.3v5.1c0,0.5,0.1,0.5,0.4,0.5
		l0.2,0V53.6z M95.2,50.8c-0.2-0.3-0.6-0.4-0.9-0.4c-0.4,0-1.1,0.3-1.1,1.6c0,1,0.7,1.5,1.2,1.5c0.3,0,0.6-0.1,0.8-0.3V50.8z"/>
	<path id="XMLID_209_" d="M100.9,50.3c-0.5,0.1-0.5,0.1-0.8,0.6c-0.2,0.4-0.5,1.2-1.1,2.5c-0.6,1.4-0.8,1.9-0.9,2.3
		c0,0.2-0.2,0.2-0.3,0.2c-0.3,0-0.5-0.2-0.5-0.4c0-0.1,0.1-0.2,0.2-0.3c0.3-0.2,0.5-0.4,0.7-0.8c0.2-0.3,0.2-0.5,0.3-0.6
		c0.1-0.1,0-0.2,0-0.4c-0.4-1-0.8-2.1-1-2.6c-0.2-0.4-0.3-0.6-0.8-0.6v-0.2h1.8l0,0.2c-0.4,0.1-0.5,0.1-0.3,0.5l0.8,2.1
		c0.2-0.5,0.6-1.6,0.8-2.1c0.1-0.3,0-0.4-0.4-0.5v-0.2h1.6V50.3z"/>
	<path id="XMLID_211_" d="M101.6,52.7c0.3,0,0.8,0.4,0.8,1c0,0.7-0.6,1.1-1.2,1.2l-0.1-0.3c0.4-0.2,0.7-0.4,0.7-0.7
		c0-0.3-0.2-0.5-0.6-0.6c0,0-0.1-0.1-0.1-0.2C101.1,52.8,101.3,52.7,101.6,52.7L101.6,52.7z"/>
	<path id="XMLID_213_" d="M108.7,53c-0.4,0.5-1,0.9-1.5,0.9c-1.1,0-1.8-0.9-1.8-1.8c0-0.7,0.3-1.2,0.9-1.7c0.5-0.4,1-0.5,1.3-0.5h0
		c0.4,0,0.6,0.1,0.8,0.2c0.1,0.1,0.1,0.2,0.1,0.3c0,0.2-0.2,0.4-0.3,0.4c-0.1,0-0.1,0-0.2-0.1c-0.3-0.3-0.6-0.4-0.9-0.4
		c-0.5,0-1,0.4-1,1.3c0,1.2,0.9,1.6,1.3,1.6c0.4,0,0.7-0.1,1-0.5L108.7,53z"/>
	<path id="XMLID_215_" d="M108.9,53.8v-0.2c0.5-0.1,0.6-0.1,0.6-0.7v-4c0-0.6-0.1-0.6-0.6-0.7V48c0.5-0.1,1-0.2,1.3-0.3v5.2
		c0,0.6,0.1,0.6,0.6,0.7v0.2H108.9z"/>
	<path id="XMLID_217_" d="M113.3,50c1.1,0,1.9,0.9,1.9,1.9c0,1.4-1.1,2-1.9,2c-1.2,0-2-0.9-2-1.9C111.4,50.7,112.5,50,113.3,50
		L113.3,50z M113.2,50.3c-0.5,0-1,0.5-1,1.5c0,1.1,0.5,1.9,1.2,1.9c0.5,0,1-0.3,1-1.5C114.4,51.1,114,50.3,113.2,50.3L113.2,50.3z"
		/>
	<path id="XMLID_220_" d="M120.2,53.6c-0.2,0-0.4,0.1-0.7,0.1c-0.2,0.1-0.5,0.1-0.7,0.2l-0.1,0v-0.6c-0.2,0.1-0.4,0.3-0.6,0.4
		c-0.3,0.1-0.4,0.2-0.7,0.2c-0.6,0-1.1-0.4-1.1-1.3V51c0-0.5-0.1-0.5-0.3-0.6l-0.2-0.1v-0.2c0.2,0,0.4,0,0.7-0.1
		c0.2,0,0.5-0.1,0.7-0.1c0,0.3,0,0.7,0,1.2v1.2c0,0.7,0.4,0.9,0.8,0.9c0.3,0,0.6-0.1,0.9-0.4v-2c0-0.5-0.1-0.5-0.4-0.6l-0.3-0.1
		v-0.2c0.2,0,0.6,0,0.8-0.1c0.3,0,0.5-0.1,0.6-0.1v2.8c0,0.4,0.1,0.5,0.4,0.5l0.2,0V53.6z"/>
	<path id="XMLID_222_" d="M124.9,53.6c-0.2,0-0.9,0.1-1.4,0.3v-0.6l-0.5,0.3c-0.3,0.2-0.6,0.2-0.7,0.2c-0.7,0-1.7-0.6-1.7-1.8
		c0-1.2,1.1-2.1,2.3-2.1c0.1,0,0.4,0,0.6,0.1v-1.2c0-0.6-0.1-0.6-0.7-0.6V48c0.5-0.1,1.1-0.2,1.4-0.3v5.1c0,0.5,0.1,0.5,0.4,0.5
		l0.2,0V53.6z M123.5,50.8c-0.2-0.3-0.6-0.4-0.9-0.4c-0.4,0-1.1,0.3-1.1,1.6c0,1,0.7,1.5,1.2,1.5c0.3,0,0.6-0.1,0.8-0.3V50.8z"/>
	<path id="XMLID_225_" d="M129.2,50.3c-0.5,0.1-0.5,0.1-0.8,0.6c-0.2,0.4-0.5,1.2-1.1,2.5c-0.6,1.4-0.8,1.9-0.9,2.3
		c0,0.2-0.2,0.2-0.3,0.2c-0.3,0-0.5-0.2-0.5-0.4c0-0.1,0.1-0.2,0.2-0.3c0.3-0.2,0.5-0.4,0.7-0.8c0.2-0.3,0.2-0.5,0.3-0.6
		c0.1-0.1,0-0.2,0-0.4c-0.4-1-0.8-2.1-1-2.6c-0.2-0.4-0.3-0.6-0.8-0.6v-0.2h1.8l0,0.2c-0.4,0.1-0.5,0.1-0.3,0.5l0.8,2.1
		c0.2-0.5,0.6-1.6,0.8-2.1c0.1-0.3,0-0.4-0.4-0.5v-0.2h1.6V50.3z"/>
</g>
<g id="XMLID_1101_">
	<path id="XMLID_2_" d="M-67.1,51.1c-0.2-0.5-0.5-0.9-0.9-0.9c-0.3,0-0.5,0.2-0.5,0.6c0,0.4,0.3,0.6,0.7,0.7
		c0.7,0.3,1.1,0.6,1.1,1.2c0,0.8-0.7,1.2-1.5,1.2c-0.5,0-0.9-0.2-1-0.3c-0.1-0.1-0.1-0.7-0.2-1.1l0.2,0c0.2,0.6,0.6,1.1,1.1,1.1
		c0.3,0,0.6-0.2,0.6-0.6c0-0.4-0.2-0.5-0.7-0.7c-0.5-0.2-1.1-0.5-1.1-1.2c0-0.6,0.5-1.1,1.3-1.1c0.4,0,0.6,0.1,0.8,0.2
		c0.1,0.2,0.2,0.7,0.2,0.9L-67.1,51.1z"/>
	<path id="XMLID_4_" d="M-61.8,53.6c-0.2,0-0.4,0.1-0.7,0.1c-0.2,0.1-0.5,0.1-0.7,0.2l-0.1,0v-0.6c-0.2,0.1-0.4,0.3-0.6,0.4
		c-0.3,0.1-0.4,0.2-0.7,0.2c-0.6,0-1.1-0.4-1.1-1.3V51c0-0.5-0.1-0.5-0.3-0.6l-0.2-0.1v-0.2c0.2,0,0.4,0,0.7-0.1
		c0.2,0,0.5-0.1,0.7-0.1c0,0.3,0,0.7,0,1.2v1.2c0,0.7,0.4,0.9,0.8,0.9c0.3,0,0.6-0.1,0.9-0.4v-2c0-0.5-0.1-0.5-0.4-0.6l-0.3-0.1
		v-0.2c0.2,0,0.6,0,0.8-0.1c0.3,0,0.5-0.1,0.6-0.1v2.8c0,0.4,0.1,0.5,0.4,0.5l0.2,0V53.6z"/>
	<path id="XMLID_6_" d="M-59,53.8v-0.2c0.5-0.1,0.6-0.1,0.6-0.7v-1.4c0-0.6-0.2-1-0.8-1c-0.3,0-0.7,0.2-0.9,0.4v2
		c0,0.6,0,0.6,0.6,0.7v0.2h-1.9v-0.2c0.6-0.1,0.6-0.1,0.6-0.7v-1.7c0-0.6-0.1-0.6-0.5-0.7v-0.2c0.4-0.1,0.9-0.2,1.3-0.3v0.7
		c0.2-0.1,0.4-0.3,0.6-0.4c0.2-0.2,0.5-0.3,0.7-0.3c0.7,0,1.1,0.5,1.1,1.3v1.6c0,0.6,0.1,0.6,0.6,0.7v0.2H-59z"/>
	<path id="XMLID_8_" d="M-54.1,53.8v-0.2c0.5-0.1,0.6-0.1,0.6-0.7v-1.4c0-0.6-0.2-1-0.8-1c-0.3,0-0.7,0.2-0.9,0.4v2
		c0,0.6,0,0.6,0.6,0.7v0.2h-1.9v-0.2c0.6-0.1,0.6-0.1,0.6-0.7v-1.7c0-0.6-0.1-0.6-0.5-0.7v-0.2c0.4-0.1,0.9-0.2,1.3-0.3v0.7
		c0.2-0.1,0.4-0.3,0.6-0.4c0.2-0.2,0.5-0.3,0.7-0.3c0.7,0,1.1,0.5,1.1,1.3v1.6c0,0.6,0.1,0.6,0.6,0.7v0.2H-54.1z"/>
	<path id="XMLID_10_" d="M-47.9,50.3c-0.5,0.1-0.5,0.1-0.8,0.6c-0.2,0.4-0.5,1.2-1.1,2.5c-0.6,1.4-0.8,1.9-0.9,2.3
		c0,0.2-0.2,0.2-0.3,0.2c-0.3,0-0.5-0.2-0.5-0.4c0-0.1,0.1-0.2,0.2-0.3c0.3-0.2,0.5-0.4,0.7-0.8c0.2-0.3,0.2-0.5,0.3-0.6
		c0.1-0.1,0-0.2,0-0.4c-0.4-1-0.8-2.1-1-2.6c-0.2-0.4-0.3-0.6-0.8-0.6v-0.2h1.8l0,0.2c-0.4,0.1-0.5,0.1-0.3,0.5l0.8,2.1
		c0.2-0.5,0.6-1.6,0.8-2.1c0.1-0.3,0-0.4-0.4-0.5v-0.2h1.6V50.3z"/>
	<path id="XMLID_12_" d="M-47.2,52.7c0.3,0,0.8,0.4,0.8,1c0,0.7-0.6,1.1-1.2,1.2l-0.1-0.3c0.4-0.2,0.7-0.4,0.7-0.7
		c0-0.3-0.2-0.5-0.6-0.6c0,0-0.1-0.1-0.1-0.2C-47.7,52.8-47.4,52.7-47.2,52.7L-47.2,52.7z"/>
	<path id="XMLID_14_" d="M-41.4,50.1C-41.2,50-41,50-40.9,50c1,0,1.6,0.8,1.6,1.6c0,1.3-1,2.1-2.2,2.3c-0.3,0-0.5-0.1-0.6-0.1v1.1
		c0,0.6,0.1,0.7,0.7,0.7v0.2h-2.1v-0.2c0.6-0.1,0.6-0.1,0.6-0.7v-3.9c0-0.5,0-0.6-0.6-0.6v-0.2c0.4-0.1,0.9-0.2,1.3-0.4v0.7
		L-41.4,50.1z M-42.1,53.2c0.2,0.2,0.5,0.3,0.8,0.3c0.7,0,1.2-0.7,1.2-1.5c0-0.9-0.6-1.4-1.2-1.4c-0.3,0-0.6,0.2-0.8,0.4V53.2z"/>
	<path id="XMLID_17_" d="M-36,53.9c-0.2,0-0.4-0.1-0.4-0.2c-0.1-0.1-0.2-0.2-0.2-0.4c-0.4,0.2-0.8,0.5-1,0.5c-0.7,0-1.1-0.5-1.1-1.1
		c0-0.4,0.2-0.7,0.7-0.8c0.6-0.2,1.2-0.4,1.3-0.6v-0.2c0-0.6-0.3-0.9-0.7-0.9c-0.2,0-0.3,0.1-0.4,0.2c-0.1,0.1-0.2,0.3-0.3,0.6
		c-0.1,0.2-0.1,0.2-0.3,0.2c-0.2,0-0.4-0.2-0.4-0.4c0-0.1,0.1-0.2,0.3-0.4c0.3-0.2,0.8-0.5,1.3-0.6c0.3,0,0.5,0.1,0.7,0.2
		c0.3,0.3,0.4,0.6,0.4,1.1v1.5c0,0.4,0.2,0.5,0.3,0.5c0.1,0,0.2,0,0.3-0.1l0.1,0.2L-36,53.9z M-36.7,51.8c-0.2,0.1-0.5,0.3-0.7,0.3
		c-0.3,0.1-0.5,0.3-0.5,0.6c0,0.5,0.3,0.7,0.6,0.7c0.2,0,0.5-0.1,0.6-0.3V51.8z"/>
	<path id="XMLID_20_" d="M-33.5,50.9c0.3-0.5,0.6-0.9,1-0.9c0.3,0,0.5,0.2,0.5,0.4c0,0.2-0.1,0.4-0.3,0.5c-0.1,0-0.2,0-0.2,0
		c-0.1-0.1-0.2-0.2-0.4-0.2c-0.2,0-0.5,0.3-0.7,0.7v1.5c0,0.6,0,0.6,0.7,0.7v0.2h-2.1v-0.2c0.5-0.1,0.6-0.1,0.6-0.7v-1.8
		c0-0.5,0-0.6-0.5-0.7v-0.2c0.4-0.1,0.8-0.2,1.3-0.4L-33.5,50.9L-33.5,50.9z"/>
	<path id="XMLID_22_" d="M-29.8,53.8c-0.2,0.1-0.3,0.1-0.4,0.1c-0.6,0-0.9-0.3-0.9-1v-2.5h-0.6l0-0.1l0.2-0.3h0.4v-0.6l0.6-0.6
		l0.1,0v1.2h1c0.1,0.1,0.1,0.3-0.1,0.4h-0.9v2.2c0,0.7,0.3,0.8,0.5,0.8c0.2,0,0.4-0.1,0.5-0.1l0.1,0.2L-29.8,53.8z"/>
	<path id="XMLID_24_" d="M-29,53.8v-0.2c0.5-0.1,0.6-0.1,0.6-0.7v-4c0-0.6-0.1-0.6-0.6-0.7V48c0.5-0.1,1-0.2,1.3-0.3v5.2
		c0,0.6,0.1,0.6,0.6,0.7v0.2H-29z"/>
	<path id="XMLID_26_" d="M-22.7,50.3c-0.5,0.1-0.5,0.1-0.8,0.6c-0.2,0.4-0.5,1.2-1.1,2.5c-0.6,1.4-0.8,1.9-0.9,2.3
		c0,0.2-0.2,0.2-0.3,0.2c-0.3,0-0.5-0.2-0.5-0.4c0-0.1,0.1-0.2,0.2-0.3c0.3-0.2,0.5-0.4,0.7-0.8c0.2-0.3,0.2-0.5,0.3-0.6
		c0.1-0.1,0-0.2,0-0.4c-0.4-1-0.8-2.1-1-2.6c-0.2-0.4-0.3-0.6-0.8-0.6v-0.2h1.8l0,0.2c-0.4,0.1-0.5,0.1-0.3,0.5l0.8,2.1
		c0.2-0.5,0.6-1.6,0.8-2.1c0.1-0.3,0-0.4-0.4-0.5v-0.2h1.6V50.3z"/>
	<path id="XMLID_28_" d="M-20.3,52.2h-2l0.1-0.5h2.1L-20.3,52.2z"/>
	<path id="XMLID_30_" d="M-16.1,53c-0.4,0.5-1,0.9-1.5,0.9c-1.1,0-1.8-0.9-1.8-1.8c0-0.7,0.3-1.2,0.9-1.7c0.5-0.4,1-0.5,1.3-0.5h0
		c0.4,0,0.6,0.1,0.8,0.2c0.1,0.1,0.1,0.2,0.1,0.3c0,0.2-0.2,0.4-0.3,0.4c-0.1,0-0.1,0-0.2-0.1c-0.3-0.3-0.6-0.4-0.9-0.4
		c-0.5,0-1,0.4-1,1.3c0,1.2,0.9,1.6,1.3,1.6c0.4,0,0.7-0.1,1-0.5L-16.1,53z"/>
	<path id="XMLID_32_" d="M-15.9,53.8v-0.2c0.5-0.1,0.6-0.1,0.6-0.7v-4c0-0.6-0.1-0.6-0.6-0.7V48c0.5-0.1,1-0.2,1.3-0.3v5.2
		c0,0.6,0.1,0.6,0.6,0.7v0.2H-15.9z"/>
	<path id="XMLID_34_" d="M-11.5,50c1.1,0,1.9,0.9,1.9,1.9c0,1.4-1.1,2-1.9,2c-1.2,0-2-0.9-2-1.9C-13.5,50.7-12.3,50-11.5,50
		L-11.5,50z M-11.6,50.3c-0.5,0-1,0.5-1,1.5c0,1.1,0.5,1.9,1.2,1.9c0.5,0,1-0.3,1-1.5C-10.4,51.1-10.8,50.3-11.6,50.3L-11.6,50.3z"
		/>
	<path id="XMLID_37_" d="M-4.6,53.6c-0.2,0-0.4,0.1-0.7,0.1c-0.2,0.1-0.5,0.1-0.7,0.2l-0.1,0v-0.6c-0.2,0.1-0.4,0.3-0.6,0.4
		c-0.3,0.1-0.4,0.2-0.7,0.2c-0.6,0-1.1-0.4-1.1-1.3V51c0-0.5-0.1-0.5-0.3-0.6L-9,50.4v-0.2c0.2,0,0.4,0,0.7-0.1
		c0.2,0,0.5-0.1,0.7-0.1c0,0.3,0,0.7,0,1.2v1.2c0,0.7,0.4,0.9,0.8,0.9c0.3,0,0.6-0.1,0.9-0.4v-2c0-0.5-0.1-0.5-0.4-0.6l-0.3-0.1
		v-0.2c0.2,0,0.6,0,0.8-0.1c0.3,0,0.5-0.1,0.6-0.1v2.8c0,0.4,0.1,0.5,0.4,0.5l0.2,0V53.6z"/>
	<path id="XMLID_39_" d="M0,53.6c-0.2,0-0.9,0.1-1.4,0.3v-0.6l-0.5,0.3c-0.3,0.2-0.6,0.2-0.7,0.2c-0.7,0-1.7-0.6-1.7-1.8
		c0-1.2,1.1-2.1,2.3-2.1c0.1,0,0.4,0,0.6,0.1v-1.2c0-0.6-0.1-0.6-0.7-0.6V48c0.5-0.1,1.1-0.2,1.4-0.3v5.1c0,0.5,0.1,0.5,0.4,0.5
		l0.2,0V53.6z M-1.4,50.8c-0.2-0.3-0.6-0.4-0.9-0.4c-0.4,0-1.1,0.3-1.1,1.6c0,1,0.7,1.5,1.2,1.5c0.3,0,0.6-0.1,0.8-0.3V50.8z"/>
	<path id="XMLID_42_" d="M4.3,50.3c-0.5,0.1-0.5,0.1-0.8,0.6c-0.2,0.4-0.5,1.2-1.1,2.5c-0.6,1.4-0.8,1.9-0.9,2.3
		C1.5,56,1.4,56,1.3,56c-0.3,0-0.5-0.2-0.5-0.4c0-0.1,0.1-0.2,0.2-0.3c0.3-0.2,0.5-0.4,0.7-0.8c0.2-0.3,0.2-0.5,0.3-0.6
		c0.1-0.1,0-0.2,0-0.4c-0.4-1-0.8-2.1-1-2.6c-0.2-0.4-0.3-0.6-0.8-0.6v-0.2H2l0,0.2c-0.4,0.1-0.5,0.1-0.3,0.5l0.8,2.1
		c0.2-0.5,0.6-1.6,0.8-2.1c0.1-0.3,0-0.4-0.4-0.5v-0.2h1.6V50.3z"/>
	<path id="XMLID_44_" d="M5,52.7c0.3,0,0.8,0.4,0.8,1c0,0.7-0.6,1.1-1.2,1.2l-0.1-0.3c0.4-0.2,0.7-0.4,0.7-0.7
		c0-0.3-0.2-0.5-0.6-0.6c0,0-0.1-0.1-0.1-0.2C4.5,52.8,4.8,52.7,5,52.7L5,52.7z"/>
	<path id="XMLID_46_" d="M11.1,51.1c-0.2-0.5-0.5-0.9-0.9-0.9c-0.3,0-0.5,0.2-0.5,0.6c0,0.4,0.3,0.6,0.7,0.7
		c0.7,0.3,1.1,0.6,1.1,1.2c0,0.8-0.7,1.2-1.5,1.2c-0.5,0-0.9-0.2-1-0.3c-0.1-0.1-0.1-0.7-0.2-1.1l0.2,0c0.2,0.6,0.6,1.1,1.1,1.1
		c0.3,0,0.6-0.2,0.6-0.6c0-0.4-0.2-0.5-0.7-0.7C9.6,52.1,9,51.8,9,51.1c0-0.6,0.5-1.1,1.3-1.1c0.4,0,0.6,0.1,0.8,0.2
		c0.1,0.2,0.2,0.7,0.2,0.9L11.1,51.1z"/>
	<path id="XMLID_48_" d="M16.3,53.6c-0.2,0-0.4,0.1-0.7,0.1c-0.2,0.1-0.5,0.1-0.7,0.2l-0.1,0v-0.6c-0.2,0.1-0.4,0.3-0.6,0.4
		c-0.3,0.1-0.4,0.2-0.7,0.2c-0.6,0-1.1-0.4-1.1-1.3V51c0-0.5-0.1-0.5-0.3-0.6L12,50.4v-0.2c0.2,0,0.4,0,0.7-0.1
		c0.2,0,0.5-0.1,0.7-0.1c0,0.3,0,0.7,0,1.2v1.2c0,0.7,0.4,0.9,0.8,0.9c0.3,0,0.6-0.1,0.9-0.4v-2c0-0.5-0.1-0.5-0.4-0.6l-0.3-0.1
		v-0.2c0.2,0,0.6,0,0.8-0.1c0.3,0,0.5-0.1,0.6-0.1v2.8c0,0.4,0.1,0.5,0.4,0.5l0.2,0V53.6z"/>
	<path id="XMLID_50_" d="M19.2,53.8v-0.2c0.5-0.1,0.6-0.1,0.6-0.7v-1.4c0-0.6-0.2-1-0.8-1c-0.3,0-0.7,0.2-0.9,0.4v2
		c0,0.6,0,0.6,0.6,0.7v0.2h-1.9v-0.2c0.6-0.1,0.6-0.1,0.6-0.7v-1.7c0-0.6-0.1-0.6-0.5-0.7v-0.2c0.4-0.1,0.9-0.2,1.3-0.3v0.7
		c0.2-0.1,0.4-0.3,0.6-0.4c0.2-0.2,0.5-0.3,0.7-0.3c0.7,0,1.1,0.5,1.1,1.3v1.6c0,0.6,0.1,0.6,0.6,0.7v0.2H19.2z"/>
	<path id="XMLID_52_" d="M24,53.8v-0.2c0.5-0.1,0.6-0.1,0.6-0.7v-1.4c0-0.6-0.2-1-0.8-1c-0.3,0-0.7,0.2-0.9,0.4v2
		c0,0.6,0,0.6,0.6,0.7v0.2h-1.9v-0.2c0.6-0.1,0.6-0.1,0.6-0.7v-1.7c0-0.6-0.1-0.6-0.5-0.7v-0.2c0.4-0.1,0.9-0.2,1.3-0.3v0.7
		c0.2-0.1,0.4-0.3,0.6-0.4c0.2-0.2,0.5-0.3,0.7-0.3c0.7,0,1.1,0.5,1.1,1.3v1.6c0,0.6,0.1,0.6,0.6,0.7v0.2H24z"/>
	<path id="XMLID_54_" d="M30.3,50.3c-0.5,0.1-0.5,0.1-0.8,0.6c-0.2,0.4-0.5,1.2-1.1,2.5c-0.6,1.4-0.8,1.9-0.9,2.3
		c0,0.2-0.2,0.2-0.3,0.2c-0.3,0-0.5-0.2-0.5-0.4c0-0.1,0.1-0.2,0.2-0.3c0.3-0.2,0.5-0.4,0.7-0.8c0.2-0.3,0.2-0.5,0.3-0.6
		c0.1-0.1,0-0.2,0-0.4c-0.4-1-0.8-2.1-1-2.6c-0.2-0.4-0.3-0.6-0.8-0.6v-0.2h1.8l0,0.2c-0.4,0.1-0.5,0.1-0.3,0.5l0.8,2.1
		c0.2-0.5,0.6-1.6,0.8-2.1c0.1-0.3,0-0.4-0.4-0.5v-0.2h1.6V50.3z"/>
	<path id="XMLID_56_" d="M32.7,52.2h-2l0.1-0.5h2.1L32.7,52.2z"/>
	<path id="XMLID_58_" d="M34.9,50.9c0.3-0.5,0.6-0.9,1-0.9c0.3,0,0.5,0.2,0.5,0.4c0,0.2-0.1,0.4-0.3,0.5c-0.1,0-0.2,0-0.2,0
		c-0.1-0.1-0.2-0.2-0.4-0.2c-0.2,0-0.5,0.3-0.7,0.7v1.5c0,0.6,0,0.6,0.7,0.7v0.2h-2.1v-0.2c0.5-0.1,0.6-0.1,0.6-0.7v-1.8
		c0-0.5,0-0.6-0.5-0.7v-0.2c0.4-0.1,0.8-0.2,1.3-0.4L34.9,50.9L34.9,50.9z"/>
	<path id="XMLID_60_" d="M39.6,53.9c-0.2,0-0.4-0.1-0.4-0.2c-0.1-0.1-0.2-0.2-0.2-0.4c-0.4,0.2-0.8,0.5-1,0.5
		c-0.7,0-1.1-0.5-1.1-1.1c0-0.4,0.2-0.7,0.7-0.8c0.6-0.2,1.2-0.4,1.3-0.6v-0.2c0-0.6-0.3-0.9-0.7-0.9c-0.2,0-0.3,0.1-0.4,0.2
		c-0.1,0.1-0.2,0.3-0.3,0.6c-0.1,0.2-0.1,0.2-0.3,0.2c-0.2,0-0.4-0.2-0.4-0.4c0-0.1,0.1-0.2,0.3-0.4c0.3-0.2,0.8-0.5,1.3-0.6
		c0.3,0,0.5,0.1,0.7,0.2c0.3,0.3,0.4,0.6,0.4,1.1v1.5c0,0.4,0.2,0.5,0.3,0.5c0.1,0,0.2,0,0.3-0.1l0.1,0.2L39.6,53.9z M38.9,51.8
		c-0.2,0.1-0.5,0.3-0.7,0.3c-0.3,0.1-0.5,0.3-0.5,0.6c0,0.5,0.3,0.7,0.6,0.7c0.2,0,0.5-0.1,0.6-0.3V51.8z"/>
	<path id="XMLID_63_" d="M40.7,53.8v-0.2c0.5-0.1,0.6-0.1,0.6-0.7v-1.7c0-0.5,0-0.6-0.5-0.7v-0.2c0.5-0.1,0.9-0.2,1.3-0.3v2.9
		c0,0.6,0.1,0.6,0.6,0.7v0.2H40.7z M41.2,48.8c0-0.3,0.2-0.5,0.5-0.5s0.5,0.2,0.5,0.5c0,0.2-0.2,0.5-0.5,0.5
		C41.4,49.3,41.2,49.1,41.2,48.8z"/>
	<path id="XMLID_66_" d="M45.6,53.8v-0.2c0.5-0.1,0.6-0.1,0.6-0.7v-1.4c0-0.6-0.2-1-0.8-1c-0.3,0-0.7,0.2-0.9,0.4v2
		c0,0.6,0,0.6,0.6,0.7v0.2h-1.9v-0.2c0.6-0.1,0.6-0.1,0.6-0.7v-1.7c0-0.6-0.1-0.6-0.5-0.7v-0.2c0.4-0.1,0.9-0.2,1.3-0.3v0.7
		c0.2-0.1,0.4-0.3,0.6-0.4c0.2-0.2,0.5-0.3,0.7-0.3c0.7,0,1.1,0.5,1.1,1.3v1.6c0,0.6,0.1,0.6,0.6,0.7v0.2H45.6z"/>
	<path id="XMLID_68_" d="M51.9,50.3c-0.5,0.1-0.5,0.1-0.8,0.6c-0.2,0.4-0.5,1.2-1.1,2.5c-0.6,1.4-0.8,1.9-0.9,2.3
		c0,0.2-0.2,0.2-0.3,0.2c-0.3,0-0.5-0.2-0.5-0.4c0-0.1,0.1-0.2,0.2-0.3c0.3-0.2,0.5-0.4,0.7-0.8c0.2-0.3,0.2-0.5,0.3-0.6
		c0.1-0.1,0-0.2,0-0.4c-0.4-1-0.8-2.1-1-2.6c-0.2-0.4-0.3-0.6-0.8-0.6v-0.2h1.8l0,0.2c-0.4,0.1-0.5,0.1-0.3,0.5l0.8,2.1
		c0.2-0.5,0.6-1.6,0.8-2.1c0.1-0.3,0-0.4-0.4-0.5v-0.2h1.6V50.3z"/>
	<path id="XMLID_70_" d="M52.5,52.7c0.3,0,0.8,0.4,0.8,1c0,0.7-0.6,1.1-1.2,1.2L52,54.6c0.4-0.2,0.7-0.4,0.7-0.7
		c0-0.3-0.2-0.5-0.6-0.6c0,0-0.1-0.1-0.1-0.2C52.1,52.8,52.3,52.7,52.5,52.7L52.5,52.7z"/>
	<path id="XMLID_72_" d="M57.7,50.9c0.3-0.5,0.6-0.9,1-0.9c0.3,0,0.5,0.2,0.5,0.4c0,0.2-0.1,0.4-0.3,0.5c-0.1,0-0.2,0-0.2,0
		c-0.1-0.1-0.2-0.2-0.4-0.2c-0.2,0-0.5,0.3-0.7,0.7v1.5c0,0.6,0,0.6,0.7,0.7v0.2h-2.1v-0.2c0.5-0.1,0.6-0.1,0.6-0.7v-1.8
		c0-0.5,0-0.6-0.5-0.7v-0.2c0.4-0.1,0.8-0.2,1.3-0.4L57.7,50.9L57.7,50.9z"/>
	<path id="XMLID_74_" d="M62.4,53.9c-0.2,0-0.4-0.1-0.4-0.2c-0.1-0.1-0.2-0.2-0.2-0.4c-0.4,0.2-0.8,0.5-1,0.5
		c-0.7,0-1.1-0.5-1.1-1.1c0-0.4,0.2-0.7,0.7-0.8c0.6-0.2,1.2-0.4,1.3-0.6v-0.2c0-0.6-0.3-0.9-0.7-0.9c-0.2,0-0.3,0.1-0.4,0.2
		c-0.1,0.1-0.2,0.3-0.3,0.6c-0.1,0.2-0.1,0.2-0.3,0.2c-0.2,0-0.4-0.2-0.4-0.4c0-0.1,0.1-0.2,0.3-0.4c0.3-0.2,0.8-0.5,1.3-0.6
		c0.3,0,0.5,0.1,0.7,0.2c0.3,0.3,0.4,0.6,0.4,1.1v1.5c0,0.4,0.2,0.5,0.3,0.5c0.1,0,0.2,0,0.3-0.1l0.1,0.2L62.4,53.9z M61.7,51.8
		c-0.2,0.1-0.5,0.3-0.7,0.3c-0.3,0.1-0.5,0.3-0.5,0.6c0,0.5,0.3,0.7,0.6,0.7c0.2,0,0.5-0.1,0.6-0.3V51.8z"/>
	<path id="XMLID_77_" d="M63.5,53.8v-0.2c0.5-0.1,0.6-0.1,0.6-0.7v-1.7c0-0.5,0-0.6-0.5-0.7v-0.2c0.5-0.1,0.9-0.2,1.3-0.3v2.9
		c0,0.6,0.1,0.6,0.6,0.7v0.2H63.5z M63.9,48.8c0-0.3,0.2-0.5,0.5-0.5s0.5,0.2,0.5,0.5c0,0.2-0.2,0.5-0.5,0.5
		C64.2,49.3,63.9,49.1,63.9,48.8z"/>
	<path id="XMLID_80_" d="M68.4,53.8v-0.2c0.5-0.1,0.6-0.1,0.6-0.7v-1.4c0-0.6-0.2-1-0.8-1c-0.3,0-0.7,0.2-0.9,0.4v2
		c0,0.6,0,0.6,0.6,0.7v0.2h-1.9v-0.2c0.6-0.1,0.6-0.1,0.6-0.7v-1.7c0-0.6-0.1-0.6-0.5-0.7v-0.2c0.4-0.1,0.9-0.2,1.3-0.3v0.7
		c0.2-0.1,0.4-0.3,0.6-0.4c0.2-0.2,0.5-0.3,0.7-0.3c0.7,0,1.1,0.5,1.1,1.3v1.6c0,0.6,0.1,0.6,0.6,0.7v0.2H68.4z"/>
	<path id="XMLID_82_" d="M74.6,50.3c-0.5,0.1-0.5,0.1-0.8,0.6c-0.2,0.4-0.5,1.2-1.1,2.5c-0.6,1.4-0.8,1.9-0.9,2.3
		c0,0.2-0.2,0.2-0.3,0.2c-0.3,0-0.5-0.2-0.5-0.4c0-0.1,0.1-0.2,0.2-0.3c0.3-0.2,0.5-0.4,0.7-0.8c0.2-0.3,0.2-0.5,0.3-0.6
		c0.1-0.1,0-0.2,0-0.4c-0.4-1-0.8-2.1-1-2.6c-0.2-0.4-0.3-0.6-0.8-0.6v-0.2h1.8l0,0.2c-0.4,0.1-0.5,0.1-0.3,0.5l0.8,2.1
		c0.2-0.5,0.6-1.6,0.8-2.1c0.1-0.3,0-0.4-0.4-0.5v-0.2h1.6V50.3z"/>
	<path id="XMLID_84_" d="M75.3,52.7c0.3,0,0.8,0.4,0.8,1c0,0.7-0.6,1.1-1.2,1.2l-0.1-0.3c0.4-0.2,0.7-0.4,0.7-0.7
		c0-0.3-0.2-0.5-0.6-0.6c0,0-0.1-0.1-0.1-0.2C74.8,52.8,75.1,52.7,75.3,52.7L75.3,52.7z"/>
	<path id="XMLID_86_" d="M84.9,50.3c-0.4,0.1-0.5,0.2-0.7,0.6c-0.3,0.7-0.7,1.8-1.1,3h-0.3c-0.4-0.9-0.7-1.8-1.1-2.6
		c-0.3,0.9-0.7,1.7-1,2.6h-0.3c-0.3-1-0.7-2-1-3c-0.2-0.4-0.2-0.5-0.6-0.6v-0.2h1.9v0.2c-0.5,0.1-0.6,0.1-0.4,0.5
		c0.2,0.6,0.4,1.3,0.6,1.9h0c0.3-0.8,0.7-1.7,1-2.6h0.2c0.3,0.9,0.7,1.8,1,2.7h0c0.2-0.5,0.4-1.3,0.6-1.9c0.1-0.4,0.1-0.5-0.5-0.6
		v-0.2h1.6V50.3z"/>
	<path id="XMLID_88_" d="M85.1,53.8v-0.2c0.5-0.1,0.6-0.1,0.6-0.7v-1.7c0-0.5,0-0.6-0.5-0.7v-0.2c0.5-0.1,0.9-0.2,1.3-0.3v2.9
		c0,0.6,0.1,0.6,0.6,0.7v0.2H85.1z M85.5,48.8c0-0.3,0.2-0.5,0.5-0.5s0.5,0.2,0.5,0.5c0,0.2-0.2,0.5-0.5,0.5
		C85.8,49.3,85.5,49.1,85.5,48.8z"/>
	<path id="XMLID_91_" d="M90,53.8v-0.2c0.5-0.1,0.6-0.1,0.6-0.7v-1.4c0-0.6-0.2-1-0.8-1c-0.3,0-0.7,0.2-0.9,0.4v2
		c0,0.6,0,0.6,0.6,0.7v0.2h-1.9v-0.2c0.6-0.1,0.6-0.1,0.6-0.7v-1.7c0-0.6-0.1-0.6-0.5-0.7v-0.2c0.4-0.1,0.9-0.2,1.3-0.3v0.7
		c0.2-0.1,0.4-0.3,0.6-0.4c0.2-0.2,0.5-0.3,0.7-0.3c0.7,0,1.1,0.5,1.1,1.3v1.6c0,0.6,0.1,0.6,0.6,0.7v0.2H90z"/>
	<path id="XMLID_93_" d="M96.6,53.6c-0.2,0-0.9,0.1-1.4,0.3v-0.6l-0.5,0.3c-0.3,0.2-0.6,0.2-0.7,0.2c-0.7,0-1.7-0.6-1.7-1.8
		c0-1.2,1.1-2.1,2.3-2.1c0.1,0,0.4,0,0.6,0.1v-1.2c0-0.6-0.1-0.6-0.7-0.6V48c0.5-0.1,1.1-0.2,1.4-0.3v5.1c0,0.5,0.1,0.5,0.4,0.5
		l0.2,0V53.6z M95.2,50.8c-0.2-0.3-0.6-0.4-0.9-0.4c-0.4,0-1.1,0.3-1.1,1.6c0,1,0.7,1.5,1.2,1.5c0.3,0,0.6-0.1,0.8-0.3V50.8z"/>
	<path id="XMLID_96_" d="M100.9,50.3c-0.5,0.1-0.5,0.1-0.8,0.6c-0.2,0.4-0.5,1.2-1.1,2.5c-0.6,1.4-0.8,1.9-0.9,2.3
		c0,0.2-0.2,0.2-0.3,0.2c-0.3,0-0.5-0.2-0.5-0.4c0-0.1,0.1-0.2,0.2-0.3c0.3-0.2,0.5-0.4,0.7-0.8c0.2-0.3,0.2-0.5,0.3-0.6
		c0.1-0.1,0-0.2,0-0.4c-0.4-1-0.8-2.1-1-2.6c-0.2-0.4-0.3-0.6-0.8-0.6v-0.2h1.8l0,0.2c-0.4,0.1-0.5,0.1-0.3,0.5l0.8,2.1
		c0.2-0.5,0.6-1.6,0.8-2.1c0.1-0.3,0-0.4-0.4-0.5v-0.2h1.6V50.3z"/>
	<path id="XMLID_98_" d="M101.6,52.7c0.3,0,0.8,0.4,0.8,1c0,0.7-0.6,1.1-1.2,1.2l-0.1-0.3c0.4-0.2,0.7-0.4,0.7-0.7
		c0-0.3-0.2-0.5-0.6-0.6c0,0-0.1-0.1-0.1-0.2C101.1,52.8,101.3,52.7,101.6,52.7L101.6,52.7z"/>
	<path id="XMLID_100_" d="M108.7,53c-0.4,0.5-1,0.9-1.5,0.9c-1.1,0-1.8-0.9-1.8-1.8c0-0.7,0.3-1.2,0.9-1.7c0.5-0.4,1-0.5,1.3-0.5h0
		c0.4,0,0.6,0.1,0.8,0.2c0.1,0.1,0.1,0.2,0.1,0.3c0,0.2-0.2,0.4-0.3,0.4c-0.1,0-0.1,0-0.2-0.1c-0.3-0.3-0.6-0.4-0.9-0.4
		c-0.5,0-1,0.4-1,1.3c0,1.2,0.9,1.6,1.3,1.6c0.4,0,0.7-0.1,1-0.5L108.7,53z"/>
	<path id="XMLID_102_" d="M108.9,53.8v-0.2c0.5-0.1,0.6-0.1,0.6-0.7v-4c0-0.6-0.1-0.6-0.6-0.7V48c0.5-0.1,1-0.2,1.3-0.3v5.2
		c0,0.6,0.1,0.6,0.6,0.7v0.2H108.9z"/>
	<path id="XMLID_104_" d="M113.3,50c1.1,0,1.9,0.9,1.9,1.9c0,1.4-1.1,2-1.9,2c-1.2,0-2-0.9-2-1.9C111.4,50.7,112.5,50,113.3,50
		L113.3,50z M113.2,50.3c-0.5,0-1,0.5-1,1.5c0,1.1,0.5,1.9,1.2,1.9c0.5,0,1-0.3,1-1.5C114.4,51.1,114,50.3,113.2,50.3L113.2,50.3z"
		/>
	<path id="XMLID_107_" d="M120.2,53.6c-0.2,0-0.4,0.1-0.7,0.1c-0.2,0.1-0.5,0.1-0.7,0.2l-0.1,0v-0.6c-0.2,0.1-0.4,0.3-0.6,0.4
		c-0.3,0.1-0.4,0.2-0.7,0.2c-0.6,0-1.1-0.4-1.1-1.3V51c0-0.5-0.1-0.5-0.3-0.6l-0.2-0.1v-0.2c0.2,0,0.4,0,0.7-0.1
		c0.2,0,0.5-0.1,0.7-0.1c0,0.3,0,0.7,0,1.2v1.2c0,0.7,0.4,0.9,0.8,0.9c0.3,0,0.6-0.1,0.9-0.4v-2c0-0.5-0.1-0.5-0.4-0.6l-0.3-0.1
		v-0.2c0.2,0,0.6,0,0.8-0.1c0.3,0,0.5-0.1,0.6-0.1v2.8c0,0.4,0.1,0.5,0.4,0.5l0.2,0V53.6z"/>
	<path id="XMLID_109_" d="M124.9,53.6c-0.2,0-0.9,0.1-1.4,0.3v-0.6l-0.5,0.3c-0.3,0.2-0.6,0.2-0.7,0.2c-0.7,0-1.7-0.6-1.7-1.8
		c0-1.2,1.1-2.1,2.3-2.1c0.1,0,0.4,0,0.6,0.1v-1.2c0-0.6-0.1-0.6-0.7-0.6V48c0.5-0.1,1.1-0.2,1.4-0.3v5.1c0,0.5,0.1,0.5,0.4,0.5
		l0.2,0V53.6z M123.5,50.8c-0.2-0.3-0.6-0.4-0.9-0.4c-0.4,0-1.1,0.3-1.1,1.6c0,1,0.7,1.5,1.2,1.5c0.3,0,0.6-0.1,0.8-0.3V50.8z"/>
	<path id="XMLID_112_" d="M129.2,50.3c-0.5,0.1-0.5,0.1-0.8,0.6c-0.2,0.4-0.5,1.2-1.1,2.5c-0.6,1.4-0.8,1.9-0.9,2.3
		c0,0.2-0.2,0.2-0.3,0.2c-0.3,0-0.5-0.2-0.5-0.4c0-0.1,0.1-0.2,0.2-0.3c0.3-0.2,0.5-0.4,0.7-0.8c0.2-0.3,0.2-0.5,0.3-0.6
		c0.1-0.1,0-0.2,0-0.4c-0.4-1-0.8-2.1-1-2.6c-0.2-0.4-0.3-0.6-0.8-0.6v-0.2h1.8l0,0.2c-0.4,0.1-0.5,0.1-0.3,0.5l0.8,2.1
		c0.2-0.5,0.6-1.6,0.8-2.1c0.1-0.3,0-0.4-0.4-0.5v-0.2h1.6V50.3z"/>
</g>
</svg>
