<?xml version="1.0" encoding="utf-8"?>
<!-- Generator: Adobe Illustrator 20.0.0, SVG Export Plug-In . SVG Version: 6.00 Build 0)  -->
<!DOCTYPE svg PUBLIC "-//W3C//DTD SVG 1.1//EN" "http://www.w3.org/Graphics/SVG/1.1/DTD/svg11.dtd">
<svg version="1.1" id="Layer_1" xmlns="http://www.w3.org/2000/svg" xmlns:xlink="http://www.w3.org/1999/xlink" x="0px" y="0px"
	 viewBox="0 0 72 80.7" style="enable-background:new 0 0 72 80.7;" xml:space="preserve">
<style type="text/css">
	.st0{fill:#646262;}
</style>
<g id="XMLID_11_">
	<g id="XMLID_143_">
		<path id="XMLID_144_" class="st0" d="M51.7,42.9c-0.9,0-1.6-0.7-1.6-1.6V30.1c0-7.5-6.3-13.6-14-13.6s-14,6.1-14,13.6v11.2
			c0,0.9-0.7,1.6-1.6,1.6s-1.6-0.7-1.6-1.6V30.1c0-9.3,7.8-16.9,17.3-16.9s17.3,7.6,17.3,16.9v11.2C53.3,42.2,52.6,42.9,51.7,42.9z"
			/>
	</g>
	<g id="XMLID_18_">
		<path id="XMLID_19_" class="st0" d="M62.7,68.5H9.3c-0.9,0-1.6-0.7-1.6-1.6v-25c0-0.9,0.7-1.6,1.6-1.6h53.3c0.9,0,1.6,0.7,1.6,1.6
			v24.9C64.3,67.7,63.6,68.5,62.7,68.5z M11,65.2h50V43.6H11V65.2z"/>
	</g>
	<g id="XMLID_16_">
		<path id="XMLID_17_" class="st0" d="M36,15.5c-0.9,0-1.6-0.7-1.6-1.6V9.3c0-0.9,0.7-1.6,1.6-1.6s1.6,0.7,1.6,1.6v4.6
			C37.6,14.7,36.9,15.5,36,15.5z"/>
	</g>
	<g id="XMLID_14_">
		<path id="XMLID_15_" class="st0" d="M51.5,31.8h-31c-0.9,0-1.6-0.7-1.6-1.6s0.7-1.6,1.6-1.6h31c0.9,0,1.6,0.7,1.6,1.6
			C53.1,31,52.4,31.8,51.5,31.8z"/>
	</g>
	<g id="XMLID_12_">
		<path id="XMLID_13_" class="st0" d="M42.6,68.5c-0.9,0-1.6-0.7-1.6-1.6V56.2c0-2.4-2.2-4.4-5-4.4c-2.7,0-5,2-5,4.4v10.6
			c0,0.9-0.7,1.6-1.6,1.6s-1.6-0.7-1.6-1.6V56.2c0-4.2,3.7-7.6,8.3-7.6c4.5,0,8.3,3.4,8.3,7.6v10.6C44.3,67.7,43.5,68.5,42.6,68.5z"
			/>
	</g>
</g>
</svg>
