<?xml version="1.0" encoding="utf-8"?>
<!-- Generator: Adobe Illustrator 19.2.1, SVG Export Plug-In . SVG Version: 6.00 Build 0)  -->
<svg version="1.1" id="Layer_1" xmlns="http://www.w3.org/2000/svg" xmlns:xlink="http://www.w3.org/1999/xlink" x="0px" y="0px"
	 viewBox="0 0 642 627.3" style="enable-background:new 0 0 642 627.3;" xml:space="preserve">
<style type="text/css">
	.st0{fill:#FFFFFF;}
	.st1{fill:none;stroke:#FFFFFF;stroke-width:5;stroke-miterlimit:10;}
	.st2{opacity:0.5;}
	.st3{opacity:0.8;}
</style>
<g>
	<g id="XMLID_10110_">
		<g>
			<path class="st0" d="M568.2,413.5v45.8c0-13.5-2.8-26.3-7.9-37.9L568.2,413.5z"/>
			<path class="st0" d="M568.2,402.3v11.2l-7.9,7.9c-2.2-5.1-4.8-9.9-7.8-14.5C557.8,405.9,563,404.4,568.2,402.3z"/>
			<path class="st0" d="M568.2,224.9v177.5c-5.1,2-10.4,3.6-15.7,4.6c-3.5-5.4-7.6-10.4-12.2-14.9l-78.5-78.5l78.4-78.4
				c4.5-4.5,8.6-9.5,12.2-14.9C557.8,221.3,563,222.9,568.2,224.9z"/>
			<path class="st0" d="M552.4,220.3c-3.6,5.4-7.7,10.4-12.2,14.9l-78.4,78.4l-39.5-39.5v-55.8h110.9
				C539.7,218.3,546.1,219,552.4,220.3z"/>
			<polygon class="st0" points="461.8,313.6 422.3,353.1 422.3,274.1 			"/>
			<polygon class="st0" points="422.3,274.1 422.3,353.1 366.5,408.9 287.5,408.9 231.7,353.1 231.7,274.2 287.5,218.3 366.4,218.3 
							"/>
			<polygon class="st0" points="422.3,218.3 422.3,274.1 366.4,218.3 			"/>
			<polygon class="st0" points="287.5,218.3 231.7,274.2 231.7,218.3 			"/>
			<polygon class="st0" points="231.7,274.2 231.7,353.1 192.2,313.6 			"/>
			<path class="st0" d="M231.7,218.3v55.9l-39.5,39.5l-78.5-78.5c-4.5-4.5-8.6-9.5-12.2-14.9c6.3-1.3,12.8-2,19.2-2H231.7z"/>
			<path class="st0" d="M113.7,235.2l78.5,78.5l-78.4,78.4c-4.5,4.5-8.6,9.5-12.2,14.9c-5.4-1.1-10.7-2.6-15.8-4.6V224.9
				c5.1-2,10.4-3.6,15.7-4.6C105.1,225.6,109.2,230.6,113.7,235.2z"/>
			<path class="st0" d="M101.6,407c-3,4.5-5.7,9.4-7.9,14.5l-7.9-7.9v-11.2C90.9,404.4,96.2,405.9,101.6,407z"/>
			<path class="st0" d="M93.7,421.4c-0.1,0.3-0.3,0.6-0.4,0.9c-4.8,11.4-7.5,23.9-7.5,37v-45.8L93.7,421.4z"/>
		</g>
		<g>
			<path class="st1" d="M495.8,75.2c-1-0.3-1.9-0.5-2.9-0.7"/>
			<path class="st1" d="M497.7,75.8c-0.4-0.1-0.7-0.2-1-0.3"/>
			<path class="st1" d="M501.2,76.7c-1-0.3-2-0.6-3-0.8"/>
			<path class="st1" d="M505.6,78.2c-0.2,0-0.4-0.1-0.5-0.2"/>
			<path class="st1" d="M514.2,81.8c-1.3-0.6-2.7-1.2-4.1-1.8"/>
			<path class="st1" d="M533.2,94c-1.1-0.9-2.2-1.8-3.3-2.6c-1.2-0.9-2.5-1.8-3.7-2.6"/>
			<path class="st1" d="M555.2,119.7c-0.9-1.5-1.8-3.1-2.8-4.5c-1.1-1.7-2.2-3.3-3.5-4.9c-1-1.3-2-2.6-3.1-3.8
				c-0.4-0.5-0.9-1.1-1.4-1.6c-0.8-1-1.7-1.9-2.6-2.9"/>
			<path class="st1" d="M562.4,135c-0.5-1.3-1-2.6-1.5-3.8"/>
			<path class="st1" d="M567.6,157.4c-0.1-1.3-0.3-2.6-0.5-3.9"/>
			<path class="st1" d="M568,162.8c-0.1-1.4-0.2-2.7-0.3-4.1"/>
			<path class="st1" d="M568.2,167.7c0-1.6,0-3.2-0.1-4.8"/>
			<path class="st1" d="M567.7,468.6c0.1-1.2,0.2-2.4,0.3-3.6"/>
			<path class="st1" d="M565.4,482.4c0.3-1,0.5-1.9,0.7-2.9"/>
			<path class="st1" d="M563.9,487.8C563.9,487.8,563.9,487.8,563.9,487.8"/>
			<path class="st1" d="M562.4,492.3c0,0,0-0.1,0-0.1c0.1-0.1,0.1-0.3,0.2-0.4"/>
			<path class="st1" d="M558.8,500.8c0.7-1.3,1.2-2.7,1.8-4.1"/>
			<path class="st1" d="M551.2,513.8c1.1-1.6,2.2-3.2,3.2-4.8"/>
			<path class="st1" d="M546.7,519.8c0.6-0.7,1.1-1.4,1.6-2.1c0.9-1.1,1.7-2.2,2.5-3.3"/>
			<path class="st1" d="M535.5,531.3c1.4-1.2,2.7-2.4,4-3.7c1.4-1.3,2.7-2.7,4-4.1"/>
			<path class="st1" d="M520.6,542c3.4-1.9,6.7-4.1,9.8-6.5c1.4-1,2.7-2.1,4-3.2"/>
			<path class="st1" d="M505.6,549c1.3-0.5,2.6-1,3.8-1.5"/>
			<path class="st1" d="M483.2,554.2c1.3-0.1,2.6-0.3,3.9-0.5"/>
			<path class="st1" d="M477.8,554.6c1.4,0,2.7-0.2,4.1-0.3"/>
			<path class="st1" d="M472.9,554.8c1.6,0,3.2,0,4.7-0.1"/>
			<path class="st1" d="M85.8,167.9c0,13.5,2.8,26.3,7.9,37.9c2.2,5.1,4.8,9.9,7.8,14.5c3.6,5.4,7.7,10.4,12.2,14.9l78.5,78.5
				l39.5,39.5l55.9,55.8l39.5,39.5l78.4,78.4c4.5,4.5,9.5,8.6,14.9,12.2c4.5,3,9.4,5.6,14.5,7.8c0.3,0.1,0.6,0.3,0.9,0.4
				c11.4,4.8,23.9,7.5,37,7.5"/>
			<path class="st1" d="M181.1,72.4C140,73.3,105,98.8,91.6,135.1c-0.5,1.5-1,2.9-1.5,4.4c-0.4,1.3-0.7,2.6-1.1,3.9"/>
			<polyline class="st1" points="568.2,459.3 568.2,413.5 568.2,402.3 568.2,224.9 568.2,213.7 568.2,167.9 			"/>
			<path class="st1" d="M566.3,478.2c0-0.2,0.1-0.4,0.1-0.7"/>
			<path class="st1" d="M472.9,554.8c1.6,0,3.2,0,4.7-0.1c0,0,0.1,0,0.1,0c1.4,0,2.7-0.2,4.1-0.3c0.4,0,0.9-0.1,1.3-0.1
				c1.3-0.1,2.6-0.3,3.9-0.5c6.4-1,12.6-2.6,18.5-4.7c1.3-0.5,2.6-1,3.8-1.5c3.8-1.6,7.6-3.4,11.1-5.6c3.4-1.9,6.7-4.1,9.8-6.5
				c1.4-1,2.7-2.1,4-3.2c0.4-0.3,0.7-0.6,1.1-0.9c1.4-1.2,2.7-2.4,4-3.7c1.4-1.3,2.7-2.7,4-4.1c1.1-1.2,2.2-2.5,3.2-3.8
				c0.6-0.7,1.1-1.4,1.6-2.1c0.9-1.1,1.7-2.2,2.5-3.3c0.1-0.2,0.3-0.4,0.4-0.7c1.1-1.6,2.2-3.2,3.2-4.8c1.6-2.6,3-5.3,4.4-8.1
				c0.6-1.3,1.2-2.7,1.8-4.1c0.7-1.5,1.2-3,1.8-4.5c0-0.2,0.1-0.4,0.2-0.5c0.5-1.3,0.9-2.6,1.3-3.9c0.3-1,0.6-2,0.8-3
				c0.1-0.2,0.1-0.4,0.1-0.5c0.1-0.4,0.2-0.7,0.3-1"/>
			<path class="st1" d="M172,554.3c1.2,0.1,2.4,0.2,3.6,0.3"/>
			<path class="st1" d="M157.9,551.9c1.1,0.3,2.2,0.5,3.3,0.7"/>
			<path class="st1" d="M148.3,549c0,0,0.1,0,0.1,0c0.1,0.1,0.2,0.1,0.4,0.2"/>
			<path class="st1" d="M139.8,545.4c1.3,0.6,2.7,1.2,4.1,1.8"/>
			<path class="st1" d="M126.8,537.8c1.6,1.1,3.2,2.2,4.8,3.2"/>
			<path class="st1" d="M120.8,533.3c0.7,0.6,1.4,1.1,2.1,1.6c1.1,0.9,2.2,1.7,3.3,2.5"/>
			<path class="st1" d="M109.3,522.1c1.2,1.4,2.4,2.7,3.7,4c1.3,1.4,2.7,2.7,4.1,4"/>
			<path class="st1" d="M101.7,512.2c1,1.5,2,2.9,3,4.3"/>
			<path class="st1" d="M93.4,496.9c0.5,1.3,1.1,2.6,1.8,3.9c0.7,1.4,1.4,2.8,2.1,4.1c0.4,0.7,0.7,1.4,1.1,2
				c0.2,0.4,0.4,0.7,0.7,1.1c0.7,1.1,1.4,2.3,2.2,3.4"/>
			<path class="st1" d="M91.6,492.2c0.4,1.3,1,2.6,1.5,3.8"/>
			<path class="st1" d="M86.4,469.8c0.1,1.3,0.3,2.6,0.5,3.9"/>
			<path class="st1" d="M86,464.4c0,1.4,0.2,2.7,0.3,4.1"/>
			<path class="st1" d="M85.8,459.6c0,1.6,0,3.2,0.1,4.7"/>
			<path class="st1" d="M472.7,72.4c-13.5,0-26.3,2.8-37.9,7.9c-5.1,2.2-9.9,4.8-14.5,7.8c-5.4,3.6-10.4,7.7-14.9,12.2L327,178.8
				l-39.5,39.5l-55.8,55.9l-39.5,39.5l-78.4,78.4c-4.5,4.5-8.6,9.5-12.2,14.9c-3,4.5-5.7,9.4-7.9,14.5c-0.1,0.3-0.3,0.6-0.4,0.9
				c-4.8,11.4-7.5,23.9-7.5,37"/>
			<path class="st1" d="M481.9,72.9c-1.2-0.1-2.4-0.2-3.6-0.3"/>
			<path class="st1" d="M491.5,74.3c-0.2,0-0.4-0.1-0.7-0.1"/>
			<path class="st1" d="M496.5,75.4c-1.2-0.3-2.4-0.6-3.6-0.8"/>
			<path class="st1" d="M498.2,75.9c-0.2,0-0.3-0.1-0.5-0.1"/>
			<path class="st1" d="M568.2,167.7c-0.8-41.1-26.4-76.1-62.7-89.5c-1.5-0.5-2.9-1-4.4-1.5"/>
			<path class="st1" d="M361.8,608.6c1.1-0.4,2.2-0.8,3.2-1.3c1.1-0.4,2.2-0.9,3.2-1.5"/>
			<path class="st1" d="M349.7,612.5c3-0.7,5.9-1.6,8.8-2.6"/>
			<path class="st1" d="M338.5,614.5c1.5-0.2,3.1-0.4,4.6-0.7c0.6,0,1.2-0.2,1.8-0.3"/>
			<path class="st1" d="M332.8,615.1c1.9-0.1,3.7-0.3,5.6-0.5"/>
			<path class="st1" d="M327.1,615.2c1.9,0,3.7,0,5.6-0.2"/>
			<path class="st1" d="M46.8,373.8c0.1,0.2,0.3,0.3,0.4,0.5"/>
			<path class="st1" d="M38,361c0.4,0.8,0.9,1.6,1.4,2.3"/>
			<path class="st1" d="M32.6,349.9c0.5,1.3,1.1,2.6,1.6,3.8c0.5,1,0.9,2,1.5,3"/>
			<path class="st1" d="M28.1,336.3c0.7,3,1.6,5.9,2.6,8.8"/>
			<path class="st1" d="M25.5,319.4c0.1,1.9,0.3,3.7,0.5,5.6c0.2,1.7,0.4,3.3,0.7,4.9"/>
			<path class="st1" d="M25.4,313.6c0,1.9,0,3.8,0.2,5.7"/>
			<path class="st1" d="M600.6,246.1c-9.6-9.6-20.6-16.6-32.4-21.3c-5.1-2-10.4-3.5-15.7-4.6c-6.3-1.3-12.7-2-19.2-2H422.3h-55.9
				h-79h-55.8H120.8c-6.4,0-12.9,0.7-19.2,2c-5.3,1.1-10.6,2.6-15.7,4.6c-0.3,0.1-0.7,0.2-1,0.4c-11.4,4.7-22.1,11.6-31.5,20.9"/>
			<path class="st1" d="M603.8,249.5c-1-1.1-2-2.2-3.1-3.3"/>
			<path class="st1" d="M612.8,261.1c-0.8-1.3-1.7-2.6-2.6-3.8"/>
			<path class="st1" d="M614.5,263.8c-0.2-0.4-0.4-0.7-0.6-1"/>
			<path class="st1" d="M616,266.2c-0.1-0.2-0.3-0.4-0.4-0.7"/>
			<path class="st1" d="M600.7,381c29.7-30.9,35.7-76.1,16.9-111.9"/>
			<path class="st1" d="M181.3,554.8h45.8h11.2h177.4h11.2h45.8c0,0,0.1,0,0.1,0s0,0,0.1,0c41.1-0.9,76.1-26.4,89.4-62.7
				c0.5-1.5,1-2.9,1.5-4.4c0.3-1,0.6-1.9,0.8-2.9c0-0.2,0.1-0.3,0.1-0.5c0.1-0.4,0.2-0.7,0.3-1c0-0.3,0.1-0.6,0.2-0.9
				c0.2-1,0.4-1.9,0.7-2.9c0.1-0.4,0.2-0.9,0.3-1.3c0-0.2,0.1-0.4,0.1-0.7c0.6-2.9,1-5.9,1.3-8.9c0.1-1.2,0.2-2.4,0.3-3.6
				c0.1-1.8,0.2-3.6,0.2-5.5c0,0,0-0.1,0-0.1c0-13.5-2.8-26.3-7.9-37.9c-2.2-5.1-4.8-9.9-7.8-14.5c-3.5-5.4-7.6-10.4-12.2-14.9
				l-78.5-78.5l-39.5-39.5l-55.9-55.8L327,178.8l-78.4-78.4c-4.5-4.5-9.5-8.6-14.9-12.2c-4.5-3-9.4-5.7-14.5-7.9
				c-0.3-0.1-0.6-0.3-0.9-0.4c-11.4-4.8-23.9-7.5-37-7.5"/>
			<path class="st1" d="M85.8,459.6c0,1.6,0,3.2,0.1,4.7c0,0,0,0.1,0,0.1c0,1.4,0.2,2.7,0.3,4.1c0,0.4,0.1,0.9,0.1,1.3
				c0.1,1.3,0.3,2.6,0.5,3.9c1,6.4,2.6,12.6,4.7,18.5c0.5,1.3,1,2.6,1.5,3.8c0.1,0.3,0.2,0.5,0.4,0.8c0.6,1.3,1.1,2.6,1.8,3.9
				c0.7,1.4,1.4,2.7,2.1,4.1c0.6,1.1,1.2,2.1,1.8,3.2c0.7,1.1,1.4,2.3,2.2,3.4c0.1,0.2,0.3,0.4,0.4,0.7c1,1.5,2,2.9,3,4.3
				c1.5,1.9,3,3.8,4.5,5.6c1.2,1.4,2.4,2.7,3.7,4c1.3,1.4,2.7,2.7,4.1,4c1.2,1.1,2.5,2.2,3.8,3.2c0.7,0.6,1.4,1.1,2.1,1.6
				c1.1,0.9,2.2,1.7,3.3,2.5c0.2,0.1,0.4,0.3,0.7,0.4c1.6,1.1,3.2,2.2,4.8,3.2c2.6,1.6,5.3,3,8.1,4.4c1.3,0.6,2.7,1.2,4.1,1.8
				c1.5,0.7,3,1.2,4.5,1.8c0.2,0,0.4,0.1,0.5,0.2c1.3,0.5,2.7,0.9,4.1,1.3c1.3,0.4,2.6,0.8,3.9,1.1"/>
			<path class="st1" d="M86.3,158.7c-0.1,1.2-0.2,2.4-0.3,3.6"/>
			<path class="st1" d="M88.7,144.5c-0.3,1.1-0.5,2.2-0.7,3.3"/>
			<path class="st1" d="M91.6,135c0,0,0,0.1,0,0.1c-0.1,0.1-0.1,0.2-0.2,0.4"/>
			<path class="st1" d="M95.2,126.4c-0.6,1.3-1.2,2.7-1.8,4.1"/>
			<path class="st1" d="M107.4,107.4c-0.9,1.1-1.8,2.2-2.6,3.3c-0.9,1.2-1.8,2.4-2.6,3.7"/>
			<path class="st1" d="M119.9,94.7c-0.6,0.5-1.1,1-1.7,1.5c-1,0.8-1.9,1.7-2.9,2.6"/>
			<path class="st1" d="M130.9,86.8c-1,0.5-1.9,1.1-2.8,1.8"/>
			<path class="st1" d="M143.8,80.1c-2.8,1.1-5.5,2.4-8.1,3.9c-0.7,0.4-1.4,0.7-2,1.1c-0.5,0.3-1.1,0.6-1.6,1"/>
			<path class="st1" d="M148.4,78.2c-1.3,0.4-2.6,1-3.8,1.5"/>
			<path class="st1" d="M170.8,73c-1.3,0.1-2.6,0.3-3.9,0.5"/>
			<path class="st1" d="M176.2,72.6c-1.4,0-2.7,0.2-4.1,0.3"/>
			<path class="st1" d="M181.1,72.4c-1.6,0-3.2,0-4.8,0.1"/>
			<path class="st1" d="M85.8,459.3c0,0,0,0.1,0,0.1c0,0,0,0,0,0.1c0.9,41.1,26.4,76.1,62.7,89.4c1.5,0.5,2.9,1,4.4,1.5
				c1.3,0.4,2.6,0.7,3.9,1.1c0.4,0.1,0.7,0.2,1.1,0.3c1.1,0.3,2.2,0.5,3.3,0.7c3.5,0.8,7.2,1.3,10.9,1.7c1.2,0.1,2.4,0.2,3.6,0.3
				c1.8,0.1,3.6,0.2,5.5,0.2c0,0,0.1,0,0.1,0c13.5,0,26.3-2.8,37.9-7.9c5.1-2.2,9.9-4.8,14.5-7.8c5.4-3.5,10.4-7.6,14.9-12.2
				l78.5-78.5l39.5-39.5l55.8-55.9l39.5-39.5l78.4-78.4c4.5-4.5,8.6-9.5,12.2-14.9c3-4.5,5.6-9.4,7.8-14.5c0.1-0.3,0.3-0.6,0.4-0.9
				c4.8-11.4,7.5-23.9,7.5-37c0,0,0-0.1,0-0.1v0c0-1.6,0-3.2-0.1-4.8v-0.1c0-1.4-0.2-2.7-0.3-4.1l-0.1-1.3c-0.1-1.3-0.3-2.6-0.5-3.9
				l-4.7-18.5c-0.5-1.3-1-2.6-1.5-3.8l-5.4-10.9c-0.1-0.2-0.2-0.4-0.4-0.6c-0.9-1.5-1.9-3.1-2.8-4.5c-1.1-1.7-2.2-3.3-3.5-4.9
				c-1-1.3-2-2.6-3.1-3.8c-0.4-0.5-0.9-1.1-1.4-1.6c-0.8-1-1.7-1.9-2.6-2.9c-2.7-2.8-5.6-5.5-8.6-8c-1.1-0.9-2.2-1.8-3.3-2.6
				c-1.2-0.9-2.4-1.8-3.7-2.6c-1.3-0.9-2.6-1.7-3.9-2.5c-2.6-1.6-5.3-3.1-8.1-4.4c-1.3-0.7-2.7-1.2-4.1-1.8c-1.5-0.7-3-1.2-4.5-1.8
				c0,0-0.1,0-0.1,0c-0.1-0.1-0.3-0.1-0.4-0.2c-1.3-0.5-2.6-0.9-3.9-1.3c0,0,0,0-0.1,0c-1-0.3-1.9-0.6-2.9-0.8
				c-0.1-0.1-0.3-0.1-0.5-0.1c-0.3-0.1-0.7-0.2-1-0.3c0,0-0.1,0-0.2,0c-0.2,0-0.4-0.1-0.7-0.2c-1-0.3-1.9-0.5-2.9-0.7
				c-0.4-0.1-0.9-0.2-1.3-0.3c-0.2,0-0.4-0.1-0.7-0.1c-2.9-0.6-5.9-1-8.9-1.3c-1.2-0.1-2.4-0.2-3.6-0.3c-1.8-0.1-3.6-0.2-5.5-0.2
				c0,0-0.1,0-0.1,0h0h-45.8h-11.2H238.3h-11.2h-45.8h0c0,0,0,0,0,0c0,0,0,0-0.1,0c-1.6,0-3.2,0-4.8,0.1c0,0-0.1,0-0.1,0
				c-1.4,0.1-2.7,0.2-4.1,0.3c-0.4,0-0.9,0.1-1.3,0.1c-1.3,0.1-2.6,0.3-3.9,0.5c-6.4,1-12.6,2.6-18.5,4.7c-1.3,0.5-2.6,1-3.8,1.5
				c-0.3,0.1-0.5,0.2-0.8,0.4c-2.7,1.1-5.4,2.5-8.1,3.9c-1.2,0.7-2.5,1.4-3.7,2.1c-0.4,0.2-0.8,0.5-1.2,0.7c-1,0.5-1.9,1.1-2.8,1.8
				c-2.8,1.9-5.5,4-8.1,6.1c-0.6,0.5-1.1,1-1.7,1.5c-1,0.8-1.9,1.7-2.9,2.6c-2.9,2.7-5.5,5.6-8,8.6c-0.9,1.1-1.8,2.2-2.6,3.3
				c-0.9,1.2-1.8,2.5-2.6,3.7c-2.6,3.8-4.9,7.8-6.9,12c-0.6,1.3-1.2,2.7-1.8,4.1c-0.7,1.5-1.2,3-1.8,4.5c0,0.2-0.1,0.4-0.2,0.5
				c-0.5,1.3-0.9,2.7-1.3,4.1c-0.4,1.3-0.8,2.6-1.1,3.9c-0.1,0.4-0.2,0.7-0.3,1.1c-0.3,1.1-0.5,2.2-0.7,3.3
				c-0.8,3.5-1.3,7.2-1.7,10.9c-0.1,1.2-0.2,2.4-0.3,3.6c-0.1,1.8-0.2,3.6-0.2,5.5v0.1v0v45.8v11.2v177.4v11.2V459.3z"/>
			<path class="st1" d="M259.6,587.3C259.6,587.3,259.6,587.3,259.6,587.3"/>
			<polyline class="st1" points="53.4,381.1 85.8,413.5 93.7,421.4 219.1,546.9 227.1,554.8 259.5,587.2 			"/>
			<path class="st1" d="M50.2,377.7c1,1.1,2.1,2.2,3.1,3.3"/>
			<path class="st1" d="M41.2,366.2c0.1,0.2,0.2,0.4,0.4,0.6c0.7,1.1,1.5,2.2,2.2,3.3"/>
			<path class="st1" d="M53.3,246.3c-18.6,18.6-27.9,43-27.9,67.4c0,1.9,0,3.8,0.2,5.7c0,0,0,0,0,0c0.1,1.9,0.3,3.7,0.5,5.6
				c0.2,1.7,0.4,3.3,0.7,4.9c0.4,2.2,0.8,4.3,1.3,6.4c0.7,3,1.6,5.9,2.6,8.8c0.5,1.6,1.1,3.2,1.9,4.8c0.5,1.3,1.1,2.6,1.6,3.8
				c0.4,1,0.9,2,1.5,3c0.2,0.4,0.4,0.8,0.6,1.2c0,0,0,0.1,0.1,0.2"/>
			<path class="st1" d="M266.8,33.4c-0.2,0.1-0.3,0.3-0.5,0.4"/>
			<path class="st1" d="M279.6,24.6c-0.8,0.4-1.6,0.9-2.3,1.4"/>
			<path class="st1" d="M304.3,14.7c-3,0.7-5.9,1.6-8.9,2.6c-1.5,0.5-2.9,1-4.3,1.6c-1.5,0.6-2.9,1.2-4.3,1.9c-1,0.4-2,0.9-3,1.5"/>
			<path class="st1" d="M315.4,12.7c-1.5,0.1-3,0.4-4.6,0.7c-0.5,0-1.1,0.2-1.6,0.3"/>
			<path class="st1" d="M321,12.2c-1.7,0.1-3.4,0.2-5.2,0.5"/>
			<path class="st1" d="M326.9,12c-1.9,0-3.7,0-5.6,0.2"/>
			<path class="st1" d="M394.5,587.2c9.5-9.6,16.6-20.6,21.2-32.4c2-5.1,3.6-10.4,4.6-15.7c1.3-6.3,2-12.7,2-19.2V408.9v-55.9v-79
				v-55.8V107.4v0c0-6.4-0.7-12.8-2-19.2c-1.1-5.3-2.6-10.6-4.6-15.7C411.1,60.6,404,49.6,394.5,40"/>
			<path class="st1" d="M391.1,590.4c1.1-1,2.2-2,3.3-3.1"/>
			<path class="st1" d="M387.2,593.8c0.2-0.1,0.3-0.3,0.5-0.4"/>
			<path class="st1" d="M380.1,599.1c1.1-0.7,2.2-1.5,3.3-2.3"/>
			<path class="st1" d="M376.4,601.4c0.8-0.5,1.5-1,2.3-1.5"/>
			<path class="st1" d="M374.4,602.6c0.2-0.1,0.4-0.3,0.7-0.4"/>
			<path class="st1" d="M259.6,587.3c28.6,27.4,69.2,34.6,103.5,20.7c1.4-0.6,2.8-1.2,4.2-1.9c1.4-0.6,2.8-1.3,4.1-2"/>
			<path class="st1" d="M259.5,40l-32.4,32.4l-7.9,7.9L93.8,205.8l-7.9,7.9l-32.4,32.4c0,0,0,0-0.1,0.1l0,0
				c-29.6,30.8-35.6,75.9-17,111.6c0,0.1,0.1,0.1,0.1,0.2c0.5,1,1.1,1.9,1.6,2.9c0.5,0.8,0.9,1.6,1.4,2.3c0.6,0.9,1.1,1.9,1.8,2.8
				c0.1,0.2,0.3,0.4,0.4,0.6c0.7,1.1,1.5,2.2,2.2,3.3c1,1.3,1.9,2.6,3,3.8c0.1,0.2,0.3,0.3,0.4,0.5c1,1.1,1.9,2.3,3,3.4
				c1,1.1,2,2.2,3.1,3.3c0,0,0,0,0.1,0.1c9.6,9.5,20.6,16.6,32.4,21.2c5.1,2,10.4,3.6,15.8,4.6c6.3,1.3,12.7,2,19.1,2h110.9h55.9h79
				h55.8h110.9h0c6.4,0,12.9-0.7,19.2-2c5.3-1.1,10.6-2.6,15.7-4.6c11.8-4.6,22.9-11.7,32.4-21.2c0,0,0,0,0.1-0.1"/>
			<path class="st1" d="M262.9,36.8c-1.1,1-2.2,2.1-3.3,3.1"/>
			<path class="st1" d="M265.5,34.5c-0.6,0.5-1.3,1.1-1.9,1.6"/>
			<path class="st1" d="M274.4,27.8c-0.2,0.1-0.4,0.2-0.6,0.4c-1.1,0.7-2.2,1.5-3.3,2.2"/>
			<path class="st1" d="M394.5,40C394.4,40,394.4,39.9,394.5,40L394.5,40c-18.8-18.8-43.2-28.1-67.6-28c-1.9,0-3.7,0-5.6,0.2
				c-0.1,0-0.3,0-0.4,0c-1.8,0.1-3.5,0.2-5.2,0.5c-0.1,0-0.3,0-0.4,0c-1.5,0.1-3.1,0.4-4.6,0.7c-0.6,0-1.1,0.2-1.6,0.3
				c-1.7,0.3-3.3,0.7-4.9,1.1c-3,0.7-5.9,1.6-8.9,2.6c-1.5,0.5-2.9,1.1-4.3,1.6c-1.5,0.6-2.9,1.2-4.3,1.9c-1,0.4-2,0.9-3,1.5
				c-0.4,0.2-0.8,0.4-1.2,0.6c0,0-0.1,0-0.2,0.1"/>
			<path class="st1" d="M607.9,254.3c-0.5-0.7-1.1-1.4-1.7-2.1"/>
			<path class="st1" d="M613.9,262.8c-0.4-0.6-0.7-1.2-1.1-1.8c-0.2-0.3-0.4-0.6-0.6-0.9c-0.7-1-1.4-2-2.1-3c-0.7-1-1.5-1.9-2.2-2.9
				"/>
			<path class="st1" d="M620.5,275.2c-0.4-0.9-0.8-1.9-1.3-2.8"/>
			<path class="st1" d="M625.6,290c-0.7-2.6-1.5-5.3-2.4-7.9c-0.4-1.1-0.7-2.2-1.2-3.3c-0.4-0.9-0.7-1.9-1.1-2.8"/>
			<path class="st1" d="M627.9,302c-0.1-1.5-0.4-2.9-0.6-4.4c-0.1-0.7-0.2-1.4-0.4-2.1"/>
			<path class="st1" d="M628.4,307.6c-0.1-1.7-0.2-3.5-0.5-5.2"/>
			<path class="st1" d="M628.6,313.4c0-1.8,0-3.7-0.2-5.5"/>
			<path class="st1" d="M617.7,357.9c2.9-5.5,5.2-11.3,7-17.1"/>
			<path class="st1" d="M604.1,377.4c4.3-4.8,8.1-10,11.3-15.4"/>
			<path class="st1" d="M394.4,39.9c-30.8-29.6-75.9-35.7-111.7-17c-0.1,0-0.1,0.1-0.2,0.1c-1,0.5-1.9,1.1-2.9,1.6
				c-0.8,0.5-1.6,0.9-2.3,1.4c-0.9,0.6-1.9,1.1-2.8,1.8c-0.2,0.1-0.4,0.3-0.6,0.4c-1.1,0.7-2.2,1.5-3.3,2.2c-1.3,1-2.6,1.9-3.8,3
				c-0.2,0.1-0.3,0.3-0.5,0.4c-0.3,0.2-0.5,0.4-0.8,0.7c-0.6,0.5-1.2,1.1-1.9,1.6c-0.3,0.2-0.5,0.4-0.8,0.7c-1.1,1-2.2,2-3.3,3.1
				c0,0,0,0-0.1,0.1c-9.5,9.5-16.6,20.6-21.2,32.4c-2,5.1-3.6,10.4-4.6,15.8c-1.3,6.3-2,12.7-2,19.1v110.9v55.9v79v55.8v110.9
				c0,6.4,0.7,12.9,2,19.2c1.1,5.3,2.6,10.6,4.6,15.7c0.1,0.3,0.2,0.7,0.4,1c4.7,11.4,11.6,22.2,20.9,31.5l0,0l0,0l0,0
				c18.8,18.6,43.1,27.9,67.4,27.9c0,0,0,0,0.1,0c1.9,0,3.7,0,5.6-0.2h0c1.9-0.1,3.7-0.3,5.6-0.5c0.1,0,0.1,0,0.2,0
				c1.5-0.2,3-0.4,4.6-0.7c0.6,0,1.1-0.2,1.8-0.3c1.6-0.3,3.2-0.6,4.8-1c3-0.7,5.9-1.6,8.8-2.6c1.1-0.4,2.2-0.8,3.3-1.2
				c0.4-0.2,0.9-0.4,1.4-0.6c0.6-0.2,1.2-0.5,1.9-0.7c0.8-0.4,1.6-0.7,2.4-1.1c0.3-0.1,0.5-0.2,0.8-0.4c1.1-0.5,2.1-1,3.2-1.5
				c0,0,0.1,0,0.2-0.1c1-0.5,1.9-1,2.9-1.6c0.2-0.1,0.4-0.2,0.7-0.4c0.4-0.2,0.8-0.5,1.3-0.7c0.8-0.4,1.5-0.9,2.3-1.5
				c0.5-0.3,1-0.6,1.4-0.9c1.1-0.7,2.2-1.5,3.3-2.3c1.3-0.9,2.6-1.9,3.8-3c0.2-0.1,0.3-0.3,0.5-0.4c1.1-1,2.3-1.9,3.4-3
				c1.1-1,2.2-2,3.3-3.1c0,0,0,0,0.1-0.1l32.4-32.4l7.9-7.9l125.4-125.4l7.9-7.9l32.4-32.4c0,0,0.1,0,0.1,0v0
				c1.2-1.1,2.3-2.3,3.4-3.6c4.4-4.8,8.2-10,11.3-15.4c0.8-1.4,1.6-2.7,2.3-4.1c3-5.6,5.2-11.3,7-17.1c2.6-8.9,3.9-18.2,3.9-27.4
				c0-1.8,0-3.7-0.2-5.5c0-0.1,0-0.3,0-0.4c-0.1-1.8-0.2-3.5-0.5-5.2c0-0.1,0-0.3,0-0.4c-0.1-1.5-0.4-2.9-0.6-4.4
				c-0.1-0.7-0.2-1.4-0.4-2.1c-0.4-1.9-0.8-3.7-1.3-5.6c-0.9-3.8-2.1-7.5-3.6-11.1c-0.4-0.9-0.7-1.9-1.1-2.8
				c-0.1-0.3-0.2-0.6-0.4-0.8c-0.4-0.9-0.8-1.9-1.3-2.8c-0.5-1.1-1.1-2.2-1.7-3.3c-0.4-1-1-1.9-1.6-2.9c-0.1-0.2-0.2-0.4-0.4-0.7
				c-0.3-0.6-0.7-1.1-1-1.7c-0.2-0.3-0.4-0.7-0.6-1c-0.5-0.9-1.1-1.8-1.7-2.6c-1.3-2-2.7-3.9-4.3-5.8c0,0,0,0-0.1-0.1
				c-0.5-0.7-1.1-1.4-1.7-2.1c-0.7-0.9-1.5-1.8-2.3-2.6c-1-1.1-2.1-2.2-3.1-3.3l0,0l0,0l-32.4-32.4l-7.9-7.9L434.8,80.4l-7.9-7.9
				L394.4,39.9C394.5,40,394.4,40,394.4,39.9z"/>
		</g>
	</g>
	<g id="XMLID_8533_" class="st2">
		<g>
			<path class="st0" d="M540.2,392.1c4.5,4.5,8.6,9.5,12.2,14.9c-6.3,1.3-12.8,2-19.2,2h0H422.3v-55.9l39.5-39.5L540.2,392.1z"/>
			<polygon class="st0" points="422.3,353.1 422.3,408.9 366.5,408.9 			"/>
			<polygon class="st0" points="287.5,408.9 231.6,408.9 231.6,353.1 			"/>
		</g>
		<g>
		</g>
	</g>
	<g id="XMLID_10250_" class="st3">
		<g>
			<path class="st0" d="M560.2,421.5L434.8,546.9c-5.1-2.2-9.9-4.8-14.5-7.9c1.3-6.3,2-12.7,2-19.1V409h110.9h0
				c6.4,0,12.9-0.7,19.2-2C555.4,411.6,558.1,416.4,560.2,421.5z"/>
			<path class="st0" d="M422.3,409v110.9c0,6.4-0.7,12.8-2,19.1c-5.4-3.5-10.4-7.6-14.9-12.2L327,448.4l39.5-39.5H422.3z"/>
			<path class="st0" d="M327,448.4l-78.5,78.5c-4.5,4.5-9.5,8.6-14.9,12.2c-1.3-6.3-2-12.8-2-19.2V409h55.9L327,448.4z"/>
			<path class="st0" d="M231.7,519.9c0,6.4,0.7,12.9,2,19.2c-4.6,3-9.4,5.6-14.5,7.8L93.7,421.4c2.2-5.1,4.8-9.9,7.9-14.5
				c6.3,1.3,12.7,2,19.1,2h110.9V519.9z"/>
		</g>
		<g>
		</g>
	</g>
	<g id="XMLID_10123_" class="st2">
		<g>
			<path class="st0" d="M600.6,381.1l-32.4,32.4v-11.2C579.9,397.7,591,390.6,600.6,381.1z"/>
			<path class="st0" d="M568.1,459.3c0,0,0,0.1,0,0.1c0,1.9,0,3.7-0.2,5.5c0,1.2-0.1,2.4-0.3,3.6c-0.4,3.7-0.9,7.4-1.7,10.9
				c-0.2,1.1-0.5,2.2-0.7,3.3c-0.1,0.4-0.2,0.8-0.3,1.1c-0.4,1.3-0.7,2.6-1.1,3.9c-0.5,1.5-1,3-1.5,4.4
				c-13.4,36.2-48.3,61.8-89.4,62.7c0,0,0,0-0.1,0s-0.1,0-0.1,0c-13.1,0-25.6-2.6-37-7.5c-0.3-0.1-0.6-0.3-0.9-0.4l125.4-125.4
				C565.3,433.1,568.1,445.9,568.1,459.3z"/>
			<path class="st0" d="M472.7,554.8h-45.8l7.9-7.9c0.3,0.1,0.6,0.3,0.9,0.4C447.1,552.1,459.6,554.8,472.7,554.8z"/>
			<path class="st0" d="M434.8,546.9l-7.9,7.9h-11.2c2-5.1,3.6-10.4,4.6-15.8C424.8,542.1,429.7,544.7,434.8,546.9z"/>
			<path class="st0" d="M426.9,554.8l-32.4,32.4c9.5-9.6,16.6-20.6,21.2-32.4H426.9z"/>
			<path class="st0" d="M420.3,539c-1.1,5.4-2.6,10.7-4.6,15.8H238.2c-2-5.1-3.6-10.4-4.6-15.7c5.4-3.6,10.4-7.7,14.9-12.2
				l78.5-78.5l78.4,78.4C409.9,531.4,414.9,535.5,420.3,539z"/>
			<path class="st0" d="M415.7,554.8c-4.6,11.8-11.7,22.9-21.2,32.4c0,0,0,0-0.1,0.1c-1.1,1.1-2.2,2.1-3.3,3.1c-1.1,1.1-2.3,2-3.4,3
				c-0.2,0.1-0.3,0.3-0.5,0.4c-1.2,1-2.5,2-3.8,3c-1.1,0.8-2.2,1.5-3.3,2.3c-0.4,0.4-0.9,0.7-1.4,0.9c-0.7,0.5-1.5,1-2.3,1.5
				c-0.4,0.3-0.8,0.5-1.3,0.7c-0.2,0.1-0.4,0.3-0.7,0.4c-1,0.6-1.9,1.1-2.9,1.6c-1.4,0.7-2.8,1.4-4.1,2c-1.4,0.7-2.8,1.3-4.2,1.9
				c-34.3,13.9-74.9,6.7-103.5-20.7l0,0l0,0l0,0c-9.3-9.3-16.2-20-20.9-31.5c-0.1-0.3-0.3-0.7-0.4-1H415.7z"/>
			<polygon class="st0" points="366.5,408.9 327,448.4 287.5,408.9 			"/>
			<path class="st0" d="M259.5,587.2l-32.4-32.4h11.2c0.1,0.3,0.2,0.7,0.4,1C243.3,567.2,250.2,577.9,259.5,587.2z"/>
			<path class="st0" d="M238.2,554.8h-11.2l-7.9-7.9c5.1-2.2,9.9-4.8,14.5-7.8C234.7,544.4,236.2,549.7,238.2,554.8z"/>
			<path class="st0" d="M231.6,353.1v55.8H120.7c-6.4,0-12.9-0.7-19.2-2c3.6-5.4,7.7-10.4,12.2-14.9l78.4-78.4L231.6,353.1z"/>
			<path class="st0" d="M227.1,554.8h-45.8c13.5,0,26.3-2.8,37.9-7.9L227.1,554.8z"/>
			<path class="st0" d="M219.1,546.9c-11.6,5.1-24.4,7.9-37.9,7.9c0,0-0.1,0-0.1,0c-1.9,0-3.7,0-5.5-0.2c-1.2,0-2.4-0.1-3.6-0.3
				c-3-0.3-6-0.7-8.9-1.3c-0.2,0-0.4-0.1-0.7-0.1c-0.4-0.1-0.9-0.2-1.3-0.3c-1-0.2-1.9-0.4-2.9-0.7c-0.3-0.1-0.6-0.2-0.9-0.2
				c-0.4-0.1-0.7-0.2-1-0.3c-0.2,0-0.3-0.1-0.5-0.1c-1-0.3-1.9-0.5-2.9-0.8c-1.5-0.5-3-1-4.4-1.5c-36.2-13.4-61.8-48.4-62.7-89.4
				c0,0,0,0,0-0.1c0,0,0-0.1,0-0.1c0-13.1,2.7-25.6,7.5-37c0.1-0.3,0.3-0.6,0.4-0.9L219.1,546.9z"/>
			<path class="st0" d="M85.8,402.3v11.2l-32.4-32.4C62.9,390.6,74,397.7,85.8,402.3z"/>
		</g>
		<g>
		</g>
	</g>
</g>
</svg>
