{
    "QuartzCore.framework": 1,
    "AVFoundation.framework": 2,
    "SystemConfiguration.framework": 1,
    "CoreTelephony.framework": 1,
    "CoreLocation.framework": 1,
    "CoreBluetooth.framework": 1,
    "Photos.framework": 1,
    "AddressBook.framework": 1,
    "EventKit.framework": 1,
    "Contacts.framework": 1
}