{
    "prepare_queue": {
        "installed": [],
        "uninstalled": []
    },
    "config_munge": {
        "files": {}
    },
    "installed_plugins": {
        "cordova-plugin-console": {
            "PACKAGE_NAME": "com.ionicframework.ajmantravelapp122925"
        },
        "cordova-plugin-crop": {
            "PACKAGE_NAME": "com.ionicframework.ajmantravelapp122925"
        },
        "cordova-plugin-device": {
            "PACKAGE_NAME": "com.ionicframework.ajmantravelapp122925"
        },
        "cordova-plugin-network-information": {
            "PACKAGE_NAME": "com.ionicframework.ajmantravelapp122925"
        },
        "cordova-plugin-splashscreen": {
            "PACKAGE_NAME": "com.ionicframework.ajmantravelapp122925"
        },
        "cordova-plugin-statusbar": {
            "PACKAGE_NAME": "com.ionicframework.ajmantravelapp122925"
        },
        "cordova-plugin-whitelist": {
            "PACKAGE_NAME": "com.ionicframework.ajmantravelapp122925"
        },
        "cordova.plugins.diagnostic": {
            "PACKAGE_NAME": "com.ionicframework.ajmantravelapp122925"
        },
        "ionic-plugin-keyboard": {
            "PACKAGE_NAME": "com.ionicframework.ajmantravelapp122925"
        }
    },
    "dependent_plugins": {}
}