<?xml version="1.0" encoding="utf-8"?>
<!-- Generator: Adobe Illustrator 19.2.1, SVG Export Plug-In . SVG Version: 6.00 Build 0)  -->
<svg version="1.1" id="Layer_1" xmlns="http://www.w3.org/2000/svg" xmlns:xlink="http://www.w3.org/1999/xlink" x="0px" y="0px"
	 viewBox="0 0 45 29.4" style="enable-background:new 0 0 45 29.4;" xml:space="preserve">
<style type="text/css">
	.st0{fill:none;stroke:#FFFFFF;stroke-width:1.44;stroke-linecap:round;stroke-linejoin:round;stroke-miterlimit:22.9256;}
</style>
<g>
	<path class="st0" d="M10.6,22H7.4C6.7,22,6,21.4,6,20.7V5.3c0-0.7,0.6-1.4,1.4-1.4c12.8,0,19.6,0.1,26.1,0c2.4,0,6.6,1.8,6.6,10.2
		v6.7c0,0.7-0.7,1.3-1.4,1.3h-3.1"/>
	<line class="st0" x1="29.2" y1="22" x2="16.9" y2="22"/>
	<path class="st0" d="M32.4,21c1.6,0,2.9,1.2,2.9,2.8c0,1.5-1.3,2.8-2.9,2.8c-1.6,0-2.9-1.2-2.9-2.8C29.5,22.2,30.8,21,32.4,21
		L32.4,21z"/>
	<path class="st0" d="M13.7,21c1.6,0,2.9,1.2,2.9,2.8c0,1.5-1.3,2.8-2.9,2.8s-2.9-1.2-2.9-2.8C10.8,22.2,12.1,21,13.7,21L13.7,21z"
		/>
	<path class="st0" d="M6,13.7c3.7,0,31.4,0,34.1,0"/>
	<path class="st0" d="M17.2,4.8c0,0.9,0,7.5,0,8.1"/>
	<path class="st0" d="M28.5,4.8c0,0.9,0,7.5,0,8.1"/>
</g>
</svg>
