<?xml version="1.0" encoding="utf-8"?>
<!-- Generator: Adobe Illustrator 19.2.1, SVG Export Plug-In . SVG Version: 6.00 Build 0)  -->
<svg version="1.1" id="Layer_1" xmlns="http://www.w3.org/2000/svg" xmlns:xlink="http://www.w3.org/1999/xlink" x="0px" y="0px"
	 viewBox="0 0 55 55" style="enable-background:new 0 0 55 55;" xml:space="preserve">
<style type="text/css">
	.st0{opacity:0.4;}
	.st1{fill:#FFFFFF;}
	.st2{fill:none;stroke:#FFFFFF;stroke-width:0.25;stroke-miterlimit:10;}
	.st3{opacity:0.8;}
</style>
<g id="XMLID_9706_" class="st0">
	<g id="XMLID_9719_">
		<polygon id="XMLID_9723_" class="st1" points="38,27.4 38,27.4 35,30.4 35,24.4 		"/>
		<polygon id="XMLID_9722_" class="st1" points="35,30.4 35,34.6 30.8,34.6 		"/>
		<polygon id="XMLID_9721_" class="st1" points="35,20.1 35,24.4 30.8,20.1 		"/>
		<polygon id="XMLID_9720_" class="st1" points="30.8,34.6 27.8,37.6 24.8,34.6 		"/>
		<polygon id="XMLID_9705_" class="st1" points="27.8,17.1 30.8,20.1 24.8,20.1 27.8,17.1 		"/>
		<polygon id="XMLID_9538_" class="st1" points="20.6,30.4 24.8,34.6 20.6,34.6 		"/>
		<polygon id="XMLID_9537_" class="st1" points="24.8,20.1 20.6,24.4 20.6,20.1 		"/>
		<polygon id="XMLID_9536_" class="st1" points="20.6,24.4 20.6,30.4 17.6,27.4 		"/>
	</g>
</g>
<g id="XMLID_9258_">
	<g id="XMLID_9257_">
		<path id="XMLID_9409_" class="st1" d="M49,22.7c0,0-0.1-0.1-0.1-0.1C48.9,22.6,49,22.7,49,22.7z"/>
		<path id="XMLID_9408_" class="st1" d="M48.6,32.5L46.1,35v-0.9C47,33.8,47.9,33.2,48.6,32.5z"/>
		<path id="XMLID_9407_" class="st1" d="M46.1,38.4C46.1,38.4,46.1,38.5,46.1,38.4c0,0.2,0,0.3,0,0.4c0,0.1,0,0.2,0,0.3
			c0,0.2-0.1,0.5-0.1,0.7c0,0,0,0,0,0.1c0,0,0,0.1,0,0.1c0,0.1,0,0.1-0.1,0.2c0,0,0,0,0,0.1c0,0,0,0.1,0,0.1c0,0,0,0,0,0
			c0,0.1,0,0.1-0.1,0.2c0,0.1-0.1,0.2-0.1,0.3c-1,2.8-3.7,4.7-6.8,4.8c0,0,0,0,0,0c0,0,0,0,0,0c-1,0-1.9-0.2-2.8-0.6c0,0,0,0-0.1,0
			l9.5-9.5C45.9,36.5,46.1,37.4,46.1,38.4z"/>
		<path id="XMLID_9406_" class="st1" d="M46.1,35v3.5c0-1-0.2-2-0.6-2.9L46.1,35z"/>
		<path id="XMLID_9405_" class="st1" d="M46.1,34.1V35l-0.6,0.6c-0.2-0.4-0.4-0.8-0.6-1.1C45.3,34.4,45.7,34.3,46.1,34.1z"/>
		<path id="XMLID_9404_" class="st1" d="M46,39.8C46,39.8,46,39.9,46,39.8C46,39.9,46,39.8,46,39.8z"/>
		<path id="XMLID_9403_" class="st1" d="M45.9,40.3C45.9,40.3,45.9,40.3,45.9,40.3C45.9,40.3,45.9,40.3,45.9,40.3z"/>
		<path id="XMLID_9402_" class="st1" d="M45.8,40.6C45.8,40.6,45.8,40.6,45.8,40.6c0,0.1-0.1,0.2-0.1,0.3c0,0,0,0,0,0
			C45.7,40.8,45.8,40.7,45.8,40.6z"/>
		<path id="XMLID_9401_" class="st1" d="M45.7,40.9C45.7,40.9,45.7,40.9,45.7,40.9C45.7,40.9,45.7,40.9,45.7,40.9
			C45.7,40.9,45.7,40.9,45.7,40.9z"/>
		<path id="XMLID_9400_" class="st1" d="M45.5,35.6L36,45.1c-0.4-0.2-0.8-0.4-1.1-0.6C35,44,35,43.5,35,43v-8.4h8.4h0
			c0.5,0,1-0.1,1.5-0.2C45.2,34.8,45.4,35.2,45.5,35.6z"/>
		<path id="XMLID_9397_" class="st1" d="M38.9,45.7c0.1,0,0.2,0,0.4,0C39.1,45.7,39,45.7,38.9,45.7z"/>
		<path id="XMLID_9396_" class="st1" d="M38.9,45.7h-3.5l0.6-0.6c0,0,0,0,0.1,0C36.9,45.5,37.9,45.7,38.9,45.7z"/>
		<path id="XMLID_9395_" class="st1" d="M36,45.1l-0.6,0.6h-0.9c0.2-0.4,0.3-0.8,0.4-1.2C35.2,44.7,35.6,44.9,36,45.1z"/>
		<path id="XMLID_9394_" class="st1" d="M35.4,45.7l-2.5,2.5c0.7-0.7,1.3-1.6,1.6-2.5H35.4z"/>
		<path id="XMLID_9393_" class="st1" d="M35,34.6V43c0,0.5-0.1,1-0.2,1.5c-0.4-0.3-0.8-0.6-1.1-0.9l-6-6l3-3H35z"/>
		<path id="XMLID_9391_" class="st1" d="M34.9,44.5c-0.1,0.4-0.2,0.8-0.4,1.2H21.1c-0.2-0.4-0.3-0.8-0.4-1.2
			c0.4-0.3,0.8-0.6,1.1-0.9l6-6l6,6C34.1,43.9,34.5,44.2,34.9,44.5z"/>
		<path id="XMLID_9390_" class="st1" d="M34.5,45.7c-0.4,0.9-0.9,1.7-1.6,2.5c0,0,0,0,0,0c-0.1,0.1-0.2,0.2-0.3,0.2
			c-0.1,0.1-0.2,0.2-0.3,0.2c0,0,0,0,0,0c-0.1,0.1-0.2,0.2-0.3,0.2c-0.1,0.1-0.2,0.1-0.3,0.2c0,0-0.1,0.1-0.1,0.1
			c-0.1,0-0.1,0.1-0.2,0.1c0,0-0.1,0-0.1,0.1c0,0,0,0-0.1,0c-0.1,0-0.1,0.1-0.2,0.1c-0.1,0.1-0.2,0.1-0.3,0.2
			c-0.1,0.1-0.2,0.1-0.3,0.1c-2.6,1.1-5.7,0.5-7.9-1.6l0,0l0,0l0,0c-0.7-0.7-1.2-1.5-1.6-2.4c0,0,0-0.1,0-0.1H34.5z"/>
		<path id="XMLID_9389_" class="st1" d="M32.9,48.2c-0.1,0.1-0.2,0.2-0.3,0.2C32.8,48.3,32.8,48.2,32.9,48.2z"/>
		<path id="XMLID_9388_" class="st1" d="M32.4,48.6C32.4,48.6,32.4,48.6,32.4,48.6C32.4,48.6,32.4,48.6,32.4,48.6z"/>
		<path id="XMLID_9387_" class="st1" d="M32.1,48.9c-0.1,0.1-0.2,0.1-0.3,0.2C31.9,49,32,48.9,32.1,48.9z"/>
		<path id="XMLID_9386_" class="st1" d="M31.7,49.1c-0.1,0-0.1,0.1-0.2,0.1C31.6,49.2,31.7,49.2,31.7,49.1z"/>
		<path id="XMLID_9385_" class="st1" d="M31.5,49.3C31.4,49.3,31.4,49.3,31.5,49.3C31.4,49.3,31.4,49.3,31.5,49.3z"/>
		<path id="XMLID_9384_" class="st1" d="M31.2,49.4C31.2,49.5,31.2,49.5,31.2,49.4c-0.1,0.1-0.2,0.1-0.3,0.1c0,0,0,0-0.1,0
			C31,49.6,31.1,49.5,31.2,49.4z"/>
		<path id="XMLID_9317_" class="st1" d="M30.9,49.6C30.9,49.6,30.9,49.6,30.9,49.6c0,0-0.1,0.1-0.2,0.1
			C30.8,49.7,30.8,49.6,30.9,49.6z"/>
		<path id="XMLID_9316_" class="st1" d="M30.9,49.6c-0.1,0-0.1,0.1-0.2,0.1c0,0-0.1,0-0.1,0.1C30.7,49.7,30.8,49.7,30.9,49.6z"/>
		<polygon id="XMLID_9315_" class="st1" points="30.8,34.6 27.8,37.6 24.8,34.6 		"/>
		<path id="XMLID_9314_" class="st1" d="M30.6,49.7c0,0,0.1,0,0.1-0.1c-0.1,0-0.2,0.1-0.2,0.1C30.5,49.8,30.5,49.8,30.6,49.7z"/>
		<path id="XMLID_9313_" class="st1" d="M27.8,37.6l-6,6c-0.3,0.3-0.7,0.7-1.1,0.9c-0.1-0.5-0.2-1-0.2-1.5v-8.4h4.2L27.8,37.6z"/>
		<path id="XMLID_9311_" class="st1" d="M22.7,48.2L22.7,48.2C22.7,48.2,22.7,48.2,22.7,48.2z"/>
		<path id="XMLID_9298_" class="st1" d="M22.7,48.2l-2.5-2.5h0.9c0,0,0,0.1,0,0.1C21.4,46.6,22,47.5,22.7,48.2z"/>
		<path id="XMLID_9297_" class="st1" d="M21.1,45.7h-0.9l-0.6-0.6c0.4-0.2,0.8-0.4,1.1-0.6C20.8,44.9,20.9,45.3,21.1,45.7z"/>
		<path id="XMLID_9296_" class="st1" d="M20.6,43c0,0.5,0.1,1,0.2,1.5c-0.3,0.2-0.7,0.4-1.1,0.6l-9.5-9.5c0.2-0.4,0.4-0.8,0.6-1.1
			c0.5,0.1,1,0.2,1.5,0.2h8.4V43z"/>
		<path id="XMLID_9293_" class="st1" d="M20.2,45.7h-3.5c1,0,2-0.2,2.9-0.6L20.2,45.7z"/>
		<path id="XMLID_9292_" class="st1" d="M19.6,45.1c-0.9,0.4-1.9,0.6-2.9,0.6c0,0,0,0,0,0c-0.1,0-0.3,0-0.4,0c-0.1,0-0.2,0-0.3,0
			c-0.2,0-0.5-0.1-0.7-0.1c0,0,0,0-0.1,0c0,0-0.1,0-0.1,0c-0.1,0-0.1,0-0.2-0.1c0,0,0,0-0.1,0c0,0-0.1,0-0.1,0c0,0,0,0,0,0
			c-0.1,0-0.1,0-0.2-0.1c-0.1,0-0.2-0.1-0.3-0.1c-2.8-1-4.7-3.7-4.8-6.8c0,0,0,0,0,0s0,0,0,0c0-1,0.2-1.9,0.6-2.8c0,0,0,0,0-0.1
			L19.6,45.1z"/>
		<path id="XMLID_9291_" class="st1" d="M16,45.7c0.1,0,0.2,0,0.3,0C16.2,45.7,16.1,45.7,16,45.7z"/>
		<path id="XMLID_9290_" class="st1" d="M15.4,45.6C15.3,45.6,15.3,45.6,15.4,45.6C15.3,45.6,15.3,45.6,15.4,45.6z"/>
		<path id="XMLID_9289_" class="st1" d="M15,45.5c0.1,0,0.1,0,0.2,0.1C15.1,45.5,15.1,45.5,15,45.5z"/>
		<path id="XMLID_9288_" class="st1" d="M14.8,45.4C14.9,45.5,14.9,45.5,14.8,45.4C14.9,45.5,14.9,45.5,14.8,45.4z"/>
		<path id="XMLID_9287_" class="st1" d="M14.8,45.4C14.8,45.4,14.8,45.4,14.8,45.4C14.8,45.4,14.8,45.4,14.8,45.4z"/>
		<path id="XMLID_9286_" class="st1" d="M14.8,45.4c-0.1,0-0.2,0-0.2-0.1c0,0,0,0,0,0C14.7,45.4,14.7,45.4,14.8,45.4z"/>
		<path id="XMLID_9285_" class="st1" d="M14.3,45.3C14.3,45.3,14.2,45.3,14.3,45.3C14.2,45.3,14.2,45.3,14.3,45.3
			C14.3,45.3,14.3,45.3,14.3,45.3z"/>
		<path id="XMLID_9284_" class="st1" d="M13.6,45c0.1,0,0.2,0.1,0.3,0.1C13.8,45.1,13.7,45,13.6,45z"/>
		<path id="XMLID_9283_" class="st1" d="M10.7,34.5c-0.2,0.3-0.4,0.7-0.6,1.1L9.5,35v-0.9C9.9,34.3,10.3,34.4,10.7,34.5z"/>
		<path id="XMLID_9282_" class="st1" d="M10.1,35.6C10.1,35.6,10.1,35.6,10.1,35.6c-0.4,0.9-0.6,1.9-0.6,2.9V35L10.1,35.6z"/>
		<path id="XMLID_9281_" class="st1" d="M9.5,38.5c0,0.1,0,0.2,0,0.4C9.5,38.7,9.5,38.6,9.5,38.5z"/>
		<path id="XMLID_9280_" class="st1" d="M9.5,34.1V35L7,32.5C7.7,33.2,8.6,33.8,9.5,34.1z"/>
	</g>
	<g id="XMLID_9278_">
		<path id="XMLID_9704_" class="st2" d="M41.4,9.5C41.4,9.5,41.3,9.5,41.4,9.5"/>
		<path id="XMLID_9703_" class="st2" d="M42,9.8c-0.1,0-0.2-0.1-0.3-0.1"/>
		<path id="XMLID_9702_" class="st2" d="M43.5,10.7c-0.1-0.1-0.2-0.1-0.3-0.2c-0.1-0.1-0.2-0.1-0.3-0.2"/>
		<path id="XMLID_9701_" class="st2" d="M44.4,11.6c0,0-0.1-0.1-0.1-0.1c-0.1-0.1-0.1-0.1-0.2-0.2"/>
		<path id="XMLID_9700_" class="st2" d="M45,12.5c0-0.1-0.1-0.1-0.1-0.2"/>
		<path id="XMLID_9699_" class="st2" d="M45.5,13.5c-0.1-0.2-0.2-0.4-0.3-0.6c-0.1-0.1-0.1-0.2-0.2-0.3"/>
		<path id="XMLID_9698_" class="st2" d="M45.7,13.8c0-0.1-0.1-0.2-0.1-0.3"/>
		<path id="XMLID_9697_" class="st2" d="M46.1,15.5c0-0.1,0-0.2,0-0.3"/>
		<path id="XMLID_9684_" class="st2" d="M46.1,15.9c0-0.1,0-0.2,0-0.3"/>
		<path id="XMLID_9683_" class="st2" d="M46.1,16.3c0-0.1,0-0.2,0-0.4"/>
		<path id="XMLID_9682_" class="st2" d="M46.1,39.1c0-0.1,0-0.2,0-0.3"/>
		<path id="XMLID_9580_" class="st2" d="M45.9,40.2c0-0.1,0-0.1,0.1-0.2"/>
		<line id="XMLID_9579_" class="st2" x1="45.8" y1="40.6" x2="45.8" y2="40.6"/>
		<path id="XMLID_9578_" class="st2" d="M45.7,40.9C45.7,40.9,45.7,40.9,45.7,40.9C45.7,40.9,45.7,40.9,45.7,40.9"/>
		<path id="XMLID_9577_" class="st2" d="M45.4,41.6c0.1-0.1,0.1-0.2,0.1-0.3"/>
		<path id="XMLID_9576_" class="st2" d="M44.5,43c0.1-0.1,0.1-0.2,0.2-0.3c0.1-0.1,0.1-0.2,0.2-0.3"/>
		<path id="XMLID_9575_" class="st2" d="M42.5,44.7c0.1-0.1,0.2-0.1,0.3-0.2c0.1-0.1,0.3-0.2,0.4-0.3c0.1-0.1,0.2-0.2,0.3-0.2
			c0,0,0.1-0.1,0.1-0.1c0.1-0.1,0.1-0.1,0.2-0.2"/>
		<path id="XMLID_9574_" class="st2" d="M41.4,45.3c0.1,0,0.2-0.1,0.3-0.1"/>
		<path id="XMLID_9573_" class="st2" d="M39.7,45.7c0.1,0,0.2,0,0.3,0"/>
		<path id="XMLID_9572_" class="st2" d="M39.3,45.7c0.1,0,0.2,0,0.3,0"/>
		<path id="XMLID_9571_" class="st2" d="M38.9,45.7c0.1,0,0.2,0,0.4,0"/>
		<path id="XMLID_9570_" class="st2" d="M9.5,16.3c0,1,0.2,2,0.6,2.9c0.2,0.4,0.4,0.8,0.6,1.1c0.3,0.4,0.6,0.8,0.9,1.1l6,6l3,3
			l4.2,4.2l3,3l6,6c0.3,0.3,0.7,0.7,1.1,0.9c0.3,0.2,0.7,0.4,1.1,0.6c0,0,0,0,0.1,0c0.9,0.4,1.8,0.6,2.8,0.6"/>
		<path id="XMLID_9569_" class="st2" d="M16.7,9.1c-3.1,0.1-5.8,2-6.8,4.8c0,0.1-0.1,0.2-0.1,0.3c0,0.1-0.1,0.2-0.1,0.3"/>
		<polyline id="XMLID_9568_" class="st2" points="46.1,38.4 46.1,35 46.1,34.1 46.1,20.6 46.1,19.8 46.1,16.3 		"/>
		<path id="XMLID_9567_" class="st2" d="M46,39.9C46,39.9,46,39.8,46,39.9"/>
		<path id="XMLID_9566_" class="st2" d="M38.9,45.7c0.1,0,0.2,0,0.4,0c0,0,0,0,0,0c0.1,0,0.2,0,0.3,0c0,0,0.1,0,0.1,0
			c0.1,0,0.2,0,0.3,0c0.5-0.1,1-0.2,1.4-0.4c0.1,0,0.2-0.1,0.3-0.1c0.3-0.1,0.6-0.3,0.9-0.4c0.1-0.1,0.2-0.1,0.3-0.2
			c0.1-0.1,0.3-0.2,0.4-0.3c0.1-0.1,0.2-0.2,0.3-0.2c0,0,0.1-0.1,0.1-0.1c0.1-0.1,0.1-0.1,0.2-0.2c0.2-0.2,0.4-0.4,0.6-0.7
			c0.1-0.1,0.1-0.2,0.2-0.3c0.1-0.1,0.1-0.2,0.2-0.3c0.2-0.3,0.4-0.6,0.5-0.9c0-0.1,0.1-0.2,0.1-0.3c0.1-0.1,0.1-0.2,0.1-0.3
			c0,0,0,0,0,0c0-0.1,0.1-0.2,0.1-0.3c0-0.1,0-0.2,0.1-0.2c0,0,0,0,0,0c0,0,0-0.1,0-0.1"/>
		<path id="XMLID_9565_" class="st2" d="M16,45.7c0.1,0,0.2,0,0.3,0"/>
		<path id="XMLID_9564_" class="st2" d="M15,45.5c0.1,0,0.1,0,0.2,0.1"/>
		<line id="XMLID_9563_" class="st2" x1="14.6" y1="45.4" x2="14.6" y2="45.4"/>
		<path id="XMLID_9562_" class="st2" d="M14.2,45.3C14.2,45.3,14.2,45.3,14.2,45.3C14.3,45.3,14.3,45.3,14.2,45.3"/>
		<path id="XMLID_9561_" class="st2" d="M13.6,45c0.1,0,0.2,0.1,0.3,0.1"/>
		<path id="XMLID_9560_" class="st2" d="M12.6,44.4c0.1,0.1,0.2,0.2,0.4,0.2"/>
		<path id="XMLID_9559_" class="st2" d="M12.1,44.1c0.1,0,0.1,0.1,0.2,0.1c0.1,0.1,0.2,0.1,0.2,0.2"/>
		<path id="XMLID_9558_" class="st2" d="M11.3,43.2c0.1,0.1,0.2,0.2,0.3,0.3c0.1,0.1,0.2,0.2,0.3,0.3"/>
		<path id="XMLID_9557_" class="st2" d="M10.5,42.1c0.1,0.3,0.3,0.5,0.5,0.7c0.1,0.1,0.2,0.2,0.2,0.3"/>
		<path id="XMLID_9556_" class="st2" d="M9.9,40.9c0,0.1,0.1,0.2,0.1,0.3"/>
		<path id="XMLID_9555_" class="st2" d="M9.5,39.2c0,0.1,0,0.2,0,0.3"/>
		<path id="XMLID_9554_" class="st2" d="M9.5,38.8c0,0.1,0,0.2,0,0.3"/>
		<path id="XMLID_9553_" class="st2" d="M9.5,38.5c0,0.1,0,0.2,0,0.4"/>
		<path id="XMLID_9552_" class="st2" d="M38.9,9.1c-1,0-2,0.2-2.9,0.6c-0.4,0.2-0.8,0.4-1.1,0.6c-0.4,0.3-0.8,0.6-1.1,0.9l-6,6l-3,3
			l-4.2,4.2l-3,3l-6,6c-0.3,0.3-0.7,0.7-0.9,1.1c-0.2,0.3-0.4,0.7-0.6,1.1c0,0,0,0,0,0.1c-0.4,0.9-0.6,1.8-0.6,2.8"/>
		<path id="XMLID_9551_" class="st2" d="M39.6,9.1c-0.1,0-0.2,0-0.3,0"/>
		<path id="XMLID_9550_" class="st2" d="M40.6,9.3c-0.1,0-0.2,0-0.2-0.1"/>
		<path id="XMLID_9549_" class="st2" d="M46.1,16.3c-0.1-3.1-2-5.8-4.8-6.8c-0.1,0-0.2-0.1-0.3-0.1c-0.1,0-0.2-0.1-0.3-0.1"/>
		<path id="XMLID_9548_" class="st2" d="M30.4,49.8c0.1,0,0.2-0.1,0.2-0.1c0.1,0,0.2-0.1,0.2-0.1"/>
		<path id="XMLID_9547_" class="st2" d="M29.5,50.1c0.2-0.1,0.4-0.1,0.7-0.2"/>
		<path id="XMLID_9545_" class="st2" d="M28.7,50.2c0.1,0,0.2,0,0.3-0.1c0,0,0.1,0,0.1,0"/>
		<path id="XMLID_9544_" class="st2" d="M28.2,50.3c0.1,0,0.3,0,0.4,0"/>
		<path id="XMLID_9543_" class="st2" d="M27.8,50.3c0.1,0,0.3,0,0.4,0"/>
		<path id="XMLID_9542_" class="st2" d="M6.5,31.9C6.5,32,6.5,32,6.5,31.9"/>
		<path id="XMLID_9541_" class="st2" d="M5.9,31c0,0.1,0.1,0.1,0.1,0.2"/>
		<path id="XMLID_9540_" class="st2" d="M5.4,30.1c0,0.1,0.1,0.2,0.1,0.3c0,0.1,0.1,0.2,0.1,0.2"/>
		<path id="XMLID_9539_" class="st2" d="M5.1,29.1c0.1,0.2,0.1,0.4,0.2,0.7"/>
		<path id="XMLID_9535_" class="st2" d="M4.9,27.8c0,0.1,0,0.3,0,0.4c0,0.1,0,0.3,0.1,0.4"/>
		<path id="XMLID_9534_" class="st2" d="M4.9,27.4c0,0.1,0,0.3,0,0.4"/>
		<path id="XMLID_9533_" class="st2" d="M48.6,22.2c-0.7-0.7-1.6-1.3-2.5-1.6c-0.4-0.2-0.8-0.3-1.2-0.4c-0.5-0.1-1-0.2-1.5-0.2H35
			h-4.2h-6h-4.2h-8.4c-0.5,0-1,0.1-1.5,0.2c-0.4,0.1-0.8,0.2-1.2,0.4c0,0-0.1,0-0.1,0C8.5,21,7.7,21.5,7,22.2"/>
		<path id="XMLID_9532_" class="st2" d="M48.8,22.5c-0.1-0.1-0.2-0.2-0.2-0.3"/>
		<path id="XMLID_9531_" class="st2" d="M49.5,23.3c-0.1-0.1-0.1-0.2-0.2-0.3"/>
		<path id="XMLID_9530_" class="st2" d="M49.8,23.8C49.7,23.8,49.7,23.7,49.8,23.8"/>
		<path id="XMLID_9442_" class="st2" d="M48.6,32.5c2.3-2.3,2.7-5.8,1.3-8.5"/>
		<path id="XMLID_9529_" class="st2" d="M16.7,45.7h3.5h0.9h13.5h0.9h3.5c0,0,0,0,0,0c0,0,0,0,0,0c3.1-0.1,5.8-2,6.8-4.8
			c0-0.1,0.1-0.2,0.1-0.3c0-0.1,0-0.1,0.1-0.2c0,0,0,0,0,0c0,0,0-0.1,0-0.1c0,0,0,0,0-0.1c0-0.1,0-0.1,0.1-0.2c0,0,0-0.1,0-0.1
			c0,0,0,0,0-0.1c0-0.2,0.1-0.4,0.1-0.7c0-0.1,0-0.2,0-0.3c0-0.1,0-0.3,0-0.4c0,0,0,0,0,0c0-1-0.2-2-0.6-2.9
			c-0.2-0.4-0.4-0.8-0.6-1.1c-0.3-0.4-0.6-0.8-0.9-1.1l-6-6l-3-3l-4.2-4.2l-3-3l-6-6c-0.3-0.3-0.7-0.7-1.1-0.9
			C20.4,10,20,9.8,19.6,9.7c0,0,0,0-0.1,0c-0.9-0.4-1.8-0.6-2.8-0.6"/>
		<path id="XMLID_9457_" class="st2" d="M15.3,45.6C15.3,45.6,15.3,45.6,15.3,45.6"/>
		<path id="XMLID_9456_" class="st2" d="M9.5,38.5c0,0.1,0,0.2,0,0.4c0,0,0,0,0,0c0,0.1,0,0.2,0,0.3c0,0,0,0.1,0,0.1
			c0,0.1,0,0.2,0,0.3c0.1,0.5,0.2,1,0.4,1.4c0,0.1,0.1,0.2,0.1,0.3c0.1,0.3,0.3,0.6,0.4,0.8c0.1,0.3,0.3,0.5,0.5,0.7
			c0.1,0.1,0.2,0.2,0.2,0.3c0,0,0,0.1,0.1,0.1c0.1,0.1,0.2,0.2,0.3,0.3c0.1,0.1,0.2,0.2,0.3,0.3c0.1,0.1,0.2,0.2,0.3,0.2
			c0.1,0,0.1,0.1,0.2,0.1c0.1,0.1,0.2,0.1,0.2,0.2c0,0,0,0,0.1,0c0.1,0.1,0.2,0.2,0.4,0.2c0.2,0.1,0.4,0.2,0.6,0.3
			c0.1,0,0.2,0.1,0.3,0.1c0.1,0.1,0.2,0.1,0.3,0.1c0,0,0,0,0,0c0.1,0,0.2,0.1,0.3,0.1c0.1,0,0.2,0,0.2,0.1c0,0,0,0,0,0
			c0,0,0.1,0,0.1,0"/>
		<path id="XMLID_9455_" class="st2" d="M9.5,15.6c0,0.1,0,0.2,0,0.3"/>
		<path id="XMLID_9454_" class="st2" d="M9.7,14.5c0,0.1,0,0.2-0.1,0.2"/>
		<path id="XMLID_9453_" class="st2" d="M9.9,13.8C9.9,13.8,9.9,13.8,9.9,13.8C9.9,13.8,9.9,13.8,9.9,13.8"/>
		<path id="XMLID_9452_" class="st2" d="M10.2,13.2c0,0.1-0.1,0.2-0.1,0.3"/>
		<path id="XMLID_9451_" class="st2" d="M10.8,12.2c-0.1,0.1-0.2,0.2-0.2,0.4"/>
		<path id="XMLID_9450_" class="st2" d="M11.1,11.7c0,0.1-0.1,0.1-0.1,0.2c-0.1,0.1-0.1,0.2-0.2,0.2"/>
		<path id="XMLID_9449_" class="st2" d="M12,10.8c-0.1,0.1-0.2,0.2-0.3,0.3c-0.1,0.1-0.2,0.2-0.3,0.3"/>
		<path id="XMLID_9448_" class="st2" d="M12.7,10.3c-0.1,0.1-0.2,0.2-0.3,0.2"/>
		<path id="XMLID_9447_" class="st2" d="M13.9,9.6c-0.1,0-0.2,0.1-0.3,0.1c-0.1,0.1-0.2,0.1-0.3,0.2c-0.1,0-0.1,0.1-0.2,0.1
			c0,0-0.1,0-0.1,0.1c-0.1,0.1-0.2,0.1-0.3,0.2"/>
		<path id="XMLID_9446_" class="st2" d="M14.2,9.5c-0.1,0-0.2,0.1-0.3,0.1"/>
		<path id="XMLID_9445_" class="st2" d="M15.9,9.1c-0.1,0-0.2,0-0.3,0"/>
		<path id="XMLID_9444_" class="st2" d="M16.4,9.1c-0.1,0-0.2,0-0.3,0"/>
		<path id="XMLID_9443_" class="st2" d="M16.7,9.1c-0.1,0-0.2,0-0.4,0"/>
		<path id="XMLID_9441_" class="st2" d="M9.5,38.4C9.5,38.4,9.5,38.5,9.5,38.4C9.5,38.5,9.5,38.5,9.5,38.4c0.1,3.1,2,5.8,4.8,6.8
			c0.1,0,0.2,0.1,0.3,0.1c0.1,0,0.1,0,0.2,0.1c0,0,0,0,0,0c0,0,0.1,0,0.1,0c0,0,0,0,0.1,0c0.1,0,0.1,0,0.2,0.1c0,0,0.1,0,0.1,0
			c0,0,0,0,0.1,0c0.2,0,0.4,0.1,0.7,0.1c0.1,0,0.2,0,0.3,0c0.1,0,0.3,0,0.4,0c0,0,0,0,0,0c1,0,2-0.2,2.9-0.6
			c0.4-0.2,0.8-0.4,1.1-0.6c0.4-0.3,0.8-0.6,1.1-0.9l6-6l3-3l4.2-4.2l3-3l6-6c0.3-0.3,0.7-0.7,0.9-1.1c0.2-0.3,0.4-0.7,0.6-1.1
			c0,0,0,0,0-0.1c0.4-0.9,0.6-1.8,0.6-2.8c0,0,0,0,0,0v0c0-0.1,0-0.2,0-0.4v0c0-0.1,0-0.2,0-0.3l0-0.1c0-0.1,0-0.2,0-0.3l-0.4-1.4
			c0-0.1-0.1-0.2-0.1-0.3l0-0.1c-0.1-0.2-0.2-0.4-0.3-0.6c0-0.1-0.1-0.1-0.1-0.2c0,0,0-0.1-0.1-0.1c0,0,0-0.1-0.1-0.1
			c0-0.1-0.1-0.1-0.1-0.2c-0.1-0.2-0.3-0.4-0.5-0.6c0,0-0.1-0.1-0.1-0.1c-0.1-0.1-0.1-0.1-0.2-0.2c-0.2-0.2-0.4-0.4-0.7-0.6
			c-0.1-0.1-0.2-0.1-0.3-0.2c-0.1-0.1-0.2-0.1-0.3-0.2c-0.1-0.1-0.2-0.1-0.3-0.2C42.4,10,42.2,9.9,42,9.8c-0.1-0.1-0.2-0.1-0.3-0.1
			c-0.1-0.1-0.2-0.1-0.3-0.1c0,0,0,0,0,0c0,0,0,0,0,0c-0.1,0-0.2-0.1-0.3-0.1c0,0,0,0,0,0c-0.1,0-0.2-0.1-0.3-0.1c0,0-0.1,0-0.1,0
			c-0.1,0-0.2,0-0.2-0.1c-0.3-0.1-0.5-0.1-0.8-0.1c-0.1,0-0.2,0-0.3,0c-0.1,0-0.3,0-0.4,0c0,0,0,0,0,0h0h-3.5h-0.9H21.1h-0.9h-3.5h0
			c0,0,0,0,0,0c0,0,0,0,0,0c-0.1,0-0.2,0-0.4,0c0,0,0,0,0,0c-0.1,0-0.2,0-0.3,0c0,0-0.1,0-0.1,0c-0.1,0-0.2,0-0.3,0
			c-0.5,0.1-1,0.2-1.4,0.4c-0.1,0-0.2,0.1-0.3,0.1c0,0,0,0-0.1,0c-0.1,0-0.2,0.1-0.3,0.1c-0.1,0.1-0.2,0.1-0.3,0.2
			c-0.1,0-0.2,0.1-0.2,0.1c-0.1,0.1-0.2,0.1-0.3,0.2c0,0,0,0-0.1,0c-0.1,0.1-0.2,0.2-0.3,0.2c-0.1,0.1-0.3,0.2-0.4,0.3
			c-0.1,0.1-0.2,0.2-0.3,0.3c-0.1,0.1-0.2,0.2-0.3,0.3c-0.1,0.1-0.2,0.2-0.2,0.3c0,0.1-0.1,0.1-0.1,0.2c-0.1,0.1-0.1,0.2-0.2,0.2
			c0,0,0,0,0,0.1c-0.1,0.1-0.2,0.2-0.2,0.4c-0.1,0.2-0.2,0.4-0.3,0.6c0,0.1-0.1,0.2-0.1,0.3c-0.1,0.1-0.1,0.2-0.1,0.3c0,0,0,0,0,0
			c0,0.1-0.1,0.2-0.1,0.3c0,0.1-0.1,0.2-0.1,0.3c0,0,0,0.1,0,0.1c0,0.1,0,0.2-0.1,0.2c-0.1,0.3-0.1,0.5-0.1,0.8c0,0.1,0,0.2,0,0.3
			c0,0.1,0,0.3,0,0.4v0v0v3.5v0.9v13.5V35V38.4z"/>
		<line id="XMLID_9440_" class="st2" x1="22.7" y1="48.2" x2="22.7" y2="48.2"/>
		<polyline id="XMLID_9439_" class="st2" points="7,32.5 9.5,35 10.1,35.6 19.6,45.1 20.2,45.7 22.7,48.2 		"/>
		<path id="XMLID_9438_" class="st2" d="M6.8,32.2c0.1,0.1,0.2,0.2,0.2,0.3"/>
		<path id="XMLID_9437_" class="st2" d="M6.1,31.4C6.1,31.4,6.1,31.4,6.1,31.4c0.1,0.1,0.1,0.2,0.2,0.3"/>
		<path id="XMLID_9436_" class="st2" d="M7,22.3c-1.4,1.4-2.1,3.3-2.1,5.1c0,0.1,0,0.3,0,0.4c0,0,0,0,0,0c0,0.1,0,0.3,0,0.4
			c0,0.1,0,0.3,0.1,0.4c0,0.2,0.1,0.3,0.1,0.5c0.1,0.2,0.1,0.4,0.2,0.7c0,0.1,0.1,0.2,0.1,0.4c0,0.1,0.1,0.2,0.1,0.3
			c0,0.1,0.1,0.2,0.1,0.2c0,0,0,0.1,0,0.1c0,0,0,0,0,0"/>
		<path id="XMLID_9435_" class="st2" d="M23.2,6.1C23.2,6.1,23.2,6.1,23.2,6.1"/>
		<path id="XMLID_9434_" class="st2" d="M23.8,5.7c-0.1,0.1-0.2,0.1-0.3,0.2"/>
		<path id="XMLID_9433_" class="st2" d="M24.1,5.5C24.1,5.5,24.1,5.5,24.1,5.5"/>
		<path id="XMLID_9432_" class="st2" d="M26.1,4.7c-0.2,0.1-0.5,0.1-0.7,0.2c-0.1,0-0.2,0.1-0.3,0.1c-0.1,0-0.2,0.1-0.3,0.1
			c-0.1,0.1-0.2,0.1-0.3,0.2"/>
		<path id="XMLID_9431_" class="st2" d="M27.3,4.5c-0.1,0-0.3,0-0.4,0c-0.1,0-0.2,0-0.4,0.1c0,0-0.1,0-0.1,0"/>
		<path id="XMLID_9430_" class="st2" d="M27.8,4.5c-0.1,0-0.3,0-0.4,0"/>
		<path id="XMLID_9429_" class="st2" d="M32.9,48.2c0.7-0.7,1.3-1.6,1.6-2.5c0.2-0.4,0.3-0.8,0.4-1.2C35,44,35,43.5,35,43v-8.4v-4.2
			v-6v-4.2v-8.4v0c0-0.5-0.1-1-0.2-1.5c-0.1-0.4-0.2-0.8-0.4-1.2c-0.4-0.9-0.9-1.7-1.6-2.5"/>
		<path id="XMLID_9428_" class="st2" d="M32.7,48.4c0.1-0.1,0.2-0.2,0.3-0.2"/>
		<path id="XMLID_9427_" class="st2" d="M32.4,48.7C32.4,48.6,32.4,48.6,32.4,48.7"/>
		<path id="XMLID_9426_" class="st2" d="M31.8,49.1c0.1-0.1,0.2-0.1,0.3-0.2"/>
		<path id="XMLID_9425_" class="st2" d="M31.6,49.2c0.1,0,0.1-0.1,0.2-0.1"/>
		<path id="XMLID_9424_" class="st2" d="M31.4,49.3C31.4,49.3,31.4,49.3,31.4,49.3"/>
		<path id="XMLID_9411_" class="st2" d="M22.7,48.2c2.2,2.1,5.3,2.6,7.9,1.6c0.1,0,0.2-0.1,0.3-0.1c0.1,0,0.2-0.1,0.3-0.2"/>
		<path id="XMLID_9423_" class="st2" d="M22.7,6.6l-2.5,2.5l-0.6,0.6l-9.5,9.5l-0.6,0.6L7,22.2c0,0,0,0,0,0l0,0
			c-2.2,2.3-2.7,5.8-1.3,8.5c0,0,0,0,0,0c0,0.1,0.1,0.1,0.1,0.2c0,0.1,0.1,0.1,0.1,0.2c0,0.1,0.1,0.1,0.1,0.2c0,0,0,0,0,0
			c0.1,0.1,0.1,0.2,0.2,0.2c0.1,0.1,0.1,0.2,0.2,0.3c0,0,0,0,0,0c0.1,0.1,0.1,0.2,0.2,0.3c0.1,0.1,0.2,0.2,0.2,0.3c0,0,0,0,0,0
			c0.7,0.7,1.6,1.3,2.5,1.6c0.4,0.2,0.8,0.3,1.2,0.4c0.5,0.1,1,0.2,1.5,0.2h8.4h4.2h6H35h8.4h0c0.5,0,1-0.1,1.5-0.2
			c0.4-0.1,0.8-0.2,1.2-0.4c0.9-0.4,1.7-0.9,2.5-1.6c0,0,0,0,0,0"/>
		<path id="XMLID_9422_" class="st2" d="M22.9,6.3c-0.1,0.1-0.2,0.2-0.3,0.2"/>
		<path id="XMLID_9421_" class="st2" d="M23.1,6.2c0,0-0.1,0.1-0.1,0.1"/>
		<path id="XMLID_9420_" class="st2" d="M24,5.5c-0.1,0-0.1,0.1-0.2,0.1"/>
		<path id="XMLID_9419_" class="st2" d="M32.9,6.6C32.9,6.6,32.9,6.6,32.9,6.6L32.9,6.6c-1.4-1.4-3.3-2.1-5.1-2.1
			c-0.1,0-0.3,0-0.4,0c0,0,0,0,0,0c-0.1,0-0.3,0-0.4,0c-0.1,0-0.2,0-0.4,0.1c0,0-0.1,0-0.1,0c-0.1,0-0.3,0.1-0.4,0.1
			c-0.2,0.1-0.5,0.1-0.7,0.2c-0.1,0-0.2,0.1-0.3,0.1c-0.1,0-0.2,0.1-0.3,0.1c-0.1,0.1-0.2,0.1-0.3,0.2"/>
		<path id="XMLID_9418_" class="st2" d="M49,22.7c0,0-0.1-0.1-0.1-0.1"/>
		<path id="XMLID_9417_" class="st2" d="M49.1,22.8C49.1,22.8,49.1,22.8,49.1,22.8"/>
		<path id="XMLID_9416_" class="st2" d="M49.7,23.6c0-0.1-0.1-0.1-0.1-0.2"/>
		<path id="XMLID_9415_" class="st2" d="M50.5,25.6c-0.1-0.2-0.1-0.4-0.2-0.6c0-0.1-0.1-0.2-0.1-0.3c0-0.1-0.1-0.2-0.1-0.3
			c-0.1-0.1-0.1-0.2-0.2-0.3"/>
		<path id="XMLID_9414_" class="st2" d="M50.7,26.5c0-0.1,0-0.2,0-0.3c0-0.1,0-0.1,0-0.2"/>
		<path id="XMLID_9413_" class="st2" d="M50.7,26.9c0-0.1,0-0.3,0-0.4"/>
		<path id="XMLID_9412_" class="st2" d="M50.7,27.4c0-0.1,0-0.3,0-0.4"/>
		<path id="XMLID_9410_" class="st2" d="M32.9,6.6c-2.3-2.2-5.8-2.7-8.5-1.3c-0.1,0.1-0.2,0.1-0.3,0.2c0,0,0,0-0.1,0c0,0,0,0,0,0
			c-0.1,0-0.1,0.1-0.2,0.1c0,0,0,0-0.1,0c-0.1,0.1-0.2,0.1-0.3,0.2c-0.1,0.1-0.2,0.1-0.3,0.2c0,0,0,0,0,0c0,0,0,0-0.1,0.1
			c0,0-0.1,0.1-0.1,0.1c0,0,0,0-0.1,0.1c-0.1,0.1-0.2,0.2-0.3,0.2c0,0,0,0,0,0c-0.7,0.7-1.3,1.6-1.6,2.5c-0.2,0.4-0.3,0.8-0.4,1.2
			c-0.1,0.5-0.2,1-0.2,1.5v8.4v4.2v6v4.2V43c0,0.5,0.1,1,0.2,1.5c0.1,0.4,0.2,0.8,0.4,1.2c0,0,0,0.1,0,0.1c0.4,0.9,0.9,1.7,1.6,2.4
			l0,0l0,0l0,0c1.4,1.4,3.3,2.1,5.1,2.1c0,0,0,0,0,0c0.1,0,0.3,0,0.4,0h0c0.1,0,0.3,0,0.4,0c0,0,0,0,0,0c0.1,0,0.2,0,0.3-0.1
			c0,0,0.1,0,0.1,0c0.1,0,0.2,0,0.4-0.1c0.2-0.1,0.4-0.1,0.7-0.2c0.1,0,0.2-0.1,0.2-0.1c0,0,0.1,0,0.1,0c0,0,0.1,0,0.1-0.1
			c0.1,0,0.1-0.1,0.2-0.1c0,0,0,0,0.1,0c0.1,0,0.2-0.1,0.2-0.1c0,0,0,0,0,0c0.1,0,0.1-0.1,0.2-0.1c0,0,0,0,0.1,0c0,0,0.1,0,0.1-0.1
			c0.1,0,0.1-0.1,0.2-0.1c0,0,0.1,0,0.1-0.1c0.1-0.1,0.2-0.1,0.3-0.2c0.1-0.1,0.2-0.1,0.3-0.2c0,0,0,0,0,0c0.1-0.1,0.2-0.1,0.3-0.2
			c0.1-0.1,0.2-0.2,0.3-0.2c0,0,0,0,0,0l2.5-2.5l0.6-0.6l9.5-9.5l0.6-0.6l2.5-2.5c0,0,0,0,0,0v0c1.4-1.4,2.1-3.3,2.1-5.1
			c0-0.1,0-0.3,0-0.4c0,0,0,0,0,0c0-0.1,0-0.3,0-0.4c0,0,0,0,0,0c0-0.1,0-0.2,0-0.3c0-0.1,0-0.1,0-0.2c0-0.1-0.1-0.3-0.1-0.4
			c-0.1-0.2-0.1-0.4-0.2-0.6c0-0.1-0.1-0.2-0.1-0.3c0-0.1-0.1-0.2-0.1-0.3c-0.1-0.1-0.1-0.2-0.2-0.3c0,0,0,0,0,0
			c0-0.1-0.1-0.1-0.1-0.2c0,0,0,0,0-0.1c0,0,0-0.1-0.1-0.1c0-0.1-0.1-0.1-0.1-0.2c0,0,0-0.1-0.1-0.1c-0.1-0.1-0.1-0.2-0.2-0.3
			c-0.1-0.1-0.1-0.2-0.2-0.3c0,0,0,0,0,0c0,0,0,0-0.1-0.1c0,0-0.1-0.1-0.1-0.1c0,0,0,0-0.1-0.1c-0.1-0.1-0.2-0.2-0.2-0.3l0,0l0,0
			l-2.5-2.5l-0.6-0.6L36,9.7l-0.6-0.6L32.9,6.6C32.9,6.6,32.9,6.6,32.9,6.6z"/>
	</g>
</g>
<g id="XMLID_9808_" class="st3">
	<g id="XMLID_9928_">
		<path id="XMLID_9844_" class="st1" d="M49,22.7c0,0-0.1-0.1-0.1-0.1C48.9,22.6,49,22.7,49,22.7z"/>
		<path id="XMLID_9843_" class="st1" d="M46,39.8C46,39.9,46,39.9,46,39.8C46,39.9,46,39.9,46,39.8z"/>
		<path id="XMLID_9842_" class="st1" d="M45.9,40.3C45.9,40.3,45.9,40.3,45.9,40.3C45.9,40.3,45.9,40.3,45.9,40.3z"/>
		<path id="XMLID_9841_" class="st1" d="M45.8,40.6C45.8,40.6,45.8,40.6,45.8,40.6c0,0.1-0.1,0.2-0.1,0.3c0,0,0,0,0,0
			C45.7,40.8,45.8,40.7,45.8,40.6z"/>
		<path id="XMLID_9840_" class="st1" d="M45.7,40.9C45.7,40.9,45.7,40.9,45.7,40.9C45.7,41,45.7,40.9,45.7,40.9
			C45.7,40.9,45.7,40.9,45.7,40.9z"/>
		<path id="XMLID_9839_" class="st1" d="M44.9,20.3c-0.3,0.4-0.6,0.8-0.9,1.1l-6,6l-3-3v-4.2h8.4C44,20.1,44.5,20.2,44.9,20.3z"/>
		<path id="XMLID_9838_" class="st1" d="M44,33.3c0.3,0.3,0.7,0.7,0.9,1.1c-0.5,0.1-1,0.2-1.5,0.2h0h-8.4v-4.2l3-3L44,33.3z"/>
		<path id="XMLID_9837_" class="st1" d="M38.9,45.7c0.1,0,0.2,0,0.4,0C39.1,45.7,39,45.7,38.9,45.7z"/>
		<path id="XMLID_9836_" class="st1" d="M35.1,11.7v8.4h-4.2l-3-3l6-6c0.3-0.3,0.7-0.7,1.1-0.9C35,10.7,35.1,11.2,35.1,11.7
			L35.1,11.7z"/>
		<path id="XMLID_9835_" class="st1" d="M32.9,48.2c-0.1,0.1-0.2,0.2-0.3,0.2C32.8,48.3,32.9,48.3,32.9,48.2z"/>
		<path id="XMLID_9834_" class="st1" d="M32.4,48.6C32.4,48.7,32.4,48.7,32.4,48.6C32.4,48.7,32.4,48.7,32.4,48.6z"/>
		<path id="XMLID_9833_" class="st1" d="M32.1,48.9C32,49,31.9,49,31.8,49.1C31.9,49,32,49,32.1,48.9z"/>
		<path id="XMLID_9832_" class="st1" d="M31.7,49.1c-0.1,0-0.1,0.1-0.2,0.1C31.6,49.2,31.7,49.2,31.7,49.1z"/>
		<path id="XMLID_9831_" class="st1" d="M31.5,49.3C31.5,49.3,31.4,49.3,31.5,49.3C31.4,49.3,31.5,49.3,31.5,49.3z"/>
		<path id="XMLID_9830_" class="st1" d="M31.2,49.5C31.2,49.5,31.2,49.5,31.2,49.5c-0.1,0.1-0.2,0.1-0.3,0.1c0,0,0,0-0.1,0
			C31,49.6,31.1,49.5,31.2,49.5z"/>
		<path id="XMLID_9829_" class="st1" d="M30.9,49.6C30.9,49.6,30.9,49.6,30.9,49.6c0,0-0.1,0.1-0.2,0.1
			C30.8,49.7,30.8,49.6,30.9,49.6z"/>
		<path id="XMLID_9828_" class="st1" d="M30.9,49.6c-0.1,0-0.1,0.1-0.2,0.1c0,0-0.1,0-0.1,0.1C30.7,49.7,30.8,49.7,30.9,49.6z"/>
		<path id="XMLID_9827_" class="st1" d="M30.6,49.8c0,0,0.1,0,0.1-0.1c-0.1,0-0.2,0.1-0.2,0.1C30.5,49.8,30.5,49.8,30.6,49.8z"/>
		<path id="XMLID_9826_" class="st1" d="M21.9,11.2l6,6l-3,3h-4.2v-8.4c0-0.5,0.1-1,0.2-1.5C21.1,10.5,21.5,10.8,21.9,11.2z"/>
		<path id="XMLID_9825_" class="st1" d="M22.7,48.2L22.7,48.2C22.7,48.2,22.7,48.2,22.7,48.2z"/>
		<path id="XMLID_9824_" class="st1" d="M20.6,30.4v4.2h-8.4c-0.5,0-1-0.1-1.5-0.2c0.3-0.4,0.6-0.8,0.9-1.1l6-6L20.6,30.4z"/>
		<path id="XMLID_9823_" class="st1" d="M20.6,20.1v4.2l-3,3l-6-6c-0.3-0.3-0.7-0.7-0.9-1.1c0.5-0.1,1-0.2,1.5-0.2H20.6z"/>
		<path id="XMLID_9822_" class="st1" d="M16,45.7c0.1,0,0.2,0,0.3,0C16.2,45.7,16.1,45.7,16,45.7z"/>
		<path id="XMLID_9821_" class="st1" d="M15.4,45.6C15.4,45.6,15.3,45.6,15.4,45.6C15.3,45.6,15.4,45.6,15.4,45.6z"/>
		<path id="XMLID_9807_" class="st1" d="M15,45.5c0.1,0,0.1,0,0.2,0.1C15.1,45.5,15.1,45.5,15,45.5z"/>
		<path id="XMLID_9399_" class="st1" d="M14.8,45.5C14.9,45.5,14.9,45.5,14.8,45.5C14.9,45.5,14.9,45.5,14.8,45.5z"/>
		<path id="XMLID_9398_" class="st1" d="M14.8,45.5C14.8,45.5,14.8,45.5,14.8,45.5C14.8,45.4,14.8,45.5,14.8,45.5z"/>
		<path id="XMLID_9392_" class="st1" d="M14.8,45.4c-0.1,0-0.2,0-0.2-0.1c0,0,0,0,0,0C14.7,45.4,14.7,45.4,14.8,45.4z"/>
		<path id="XMLID_9312_" class="st1" d="M14.3,45.3C14.3,45.3,14.3,45.3,14.3,45.3C14.3,45.3,14.3,45.3,14.3,45.3
			C14.3,45.3,14.3,45.3,14.3,45.3z"/>
		<path id="XMLID_9295_" class="st1" d="M13.6,45c0.1,0,0.2,0.1,0.3,0.1C13.8,45.1,13.7,45,13.6,45z"/>
		<path id="XMLID_9294_" class="st1" d="M9.5,38.5c0,0.1,0,0.2,0,0.4C9.5,38.7,9.5,38.6,9.5,38.5z"/>
	</g>
</g>
</svg>
